Keyword;NbParams/ObjectType;ObjectName;Param1;Param2;Param3;Param4;Param5;Param6;Param7;Param8;Param9;Param10;Param11;Param12;Param13;Param14;Param15;Param16
Lancer;;;;;;;;;;;;;;;;;;
Action;Metier;F_A001_A002_Authentification_PLACE_pour_ATOM_AH_1;;;;;;;;;;;;;;;;
Action;Metier;C_AXXX_A011_Creation_consultation;;;;;;;;;;;;;;;;
Action;Metier;C_A011_A011_Mise_a_jour_onglet_identification_non_allotie;$ref_cons_0013;Premier;;;;;;;;;;;;;;
Action;Metier;C_A011_A011_Mise_a_jour_onglet_calendrier;$ref_date_futur;;;;;;;;;;;;;;;
Action;Metier;C_A011_A011_Mise_a_jour_onglet_modal_rep;;;;;;;;;;;;;;;;
Action;Metier;C_A011_A003_Enregistrer_et_aller_au_tableau_de_bord;;;;;;;;;;;;;;;;
Action;Metier;C_A003_A003_Passer_consultation_1E_vers_2EV;;;;;;;;;;;;;;;;
Action;Metier;C_A003_A003_Passer_consultation_2EV_vers_3C_offre;$ref_cons_0013;ATOM_CLEF_1;;;;;;;;;;;;;;
Action;Metier;C_A003_A003_Mise_a_jour_registre_depot_papier;ATOM_ENTR_0013;490258340;00010;;;;;;;;;;;;;
Fermer;;;;;;;;;;;;;;;;;;
