Keyword;NbParams/ObjectType;ObjectName;Param1;Param2;Param3;Param4;Param5;Param6;Param7;Param8;Param9;Param10;Param11;Param12;Param13;Param14;Param15;Param16
Lancer;;;;;;;;;;;;;;;;;;
Action;Metier;F_A001_A002_Authentification_PLACE_pour_ATOM_AH_1;;;;;;;;;;;;;;;;
Action;Metier;C_AXXX_A011_Creation_consultation;;;;;;;;;;;;;;;;
Action;Metier;C_A011_A011_Mise_a_jour_onglet_identification_non_allotie;$ref_cons_0001;Premier;;;;;;;;;;;;;;
Action;Metier;C_A011_A011_Mise_a_jour_onglet_calendrier;$ref_date_futur;;;;;;;;;;;;;;;
Action;Metier;C_A011_A011_Mise_a_jour_onglet_modal_rep;;;;;;;;;;;;;;;;
Action;Metier;C_A011_A003_Enregistrer_et_aller_au_tableau_de_bord;;;;;;;;;;;;;;;;
Fermer;;;;;;;;;;;;;;;;;;
