Keyword;NbParams/ObjectType;ObjectName;Param1;Param2;Param3;Param4;Param5;Param6;Param7;Param8;Param9;Param10;Param11;Param12;Param13;Param14;Param15;Param16
Lancer;;;;;;;;;;;;;;;;;;
Action;Metier;F_M001_M001_Ouvrir_url_PLAC_pour_mailhog;;;;;;;;;;;;;;;;;
Action;Metier;C_M001_M001_Verifier_email_presence;Accusé de réception d'une question électronique - Réf : ATOM_CONX_0131;ATOM_UE_1@atomtests.com;;;;;;;;;;;;;;;
Action;Metier;C_M001_M001_Verifier_email_presence;Réception d'une question électronique - Réf : ATOM_CONX_0131;AH31@atomtests.com;;;;;;;;;;;;;;;
Action;Metier;C_M001_M001_Verifier_email_absence;AH21@atomtests.com;;;;;;;;;;;;;;;;
Action;Metier;C_M001_M001_Verifier_email_presence;Réception d'une question électronique - Réf : ATOM_CONX_0131;AH11@atomtests.com;;;;;;;;;;;;;;;
Action;Metier;C_M001_M001_Verifier_email_presence;Réception d'une question électronique - Réf : ATOM_CONX_0131;ORME@atomtests.com;;;;;;;;;;;;;;;
Fermer;;;;;;;;;;;;;;;;;;