|0||Études et prestations intellectuelles|
|01||Maitrise d'ouvrage|
|02||Maitrise d'oeuvre|
|03||Autres études|
|1||Ouvrages d'art et ouvrages industriels|
|11||Ouvrages d'art et de génie civil industriel (béton et acier béton)|
|12||Ouvrages métalliques|
|13||Autres ouvrages|
|14||Ouvrages en site maritime ou fluvial|
|15||Ouvrages souterrains|
|16||Génie civil de l'eau et de l'environnement|
|2||Préparation des sites, fondations et terrassements|
|21||Démolition, abattage|
|22||Reconnaissance des sols|
|23||Ouvrages en terre, Terrassements|
|24||Fondations spéciales|
|25||Soutènement|
|26||Consolidation, Étanchement des sols, Confortement|
|3||Voiries, routes, pistes d'aéroports|
|31||Trafic très important|
|32||Trafic important|
|33||Autres trafics|
|34||Chaussées urbaines|
|35||Chaussées aéronautiques|
|36||Travaux particuliers|
|37||Équipements de la route|
|4||Voies ferrées|
|41||Construction neuve|
|42||Régénération de voies|
|43||Maintenance et entretien des voies|
|5||Eau, assainissement, autres fluides|
|51||Construction en tranchée de réseaux d'eau,d'assainissement|
|52||Réhabilitation des canalisations sans tranchée|
|53||Gaz et fluides divers sous pression|
|54||Équipement des stations de pompage, refoulement, relèvement|
|6||électricité, télécommunication, vidéo-communication|
|61||Réseaux aériens électriques|
|62||Traction électrique|
|63||Postes et installations électriques|
|64||Réseaux souterrains électriques|
|65||Éclairage public|
|66||Signalisation électrique|
|67||Télécommunication, vidéo-communication|
|7||Travaux spéciaux|
|71||Travaux liés à la construction d'ouvrages d'art et d'équipement industriel|
|72||Travaux liés à la réparation-réhabilitation d'ouvrages d'art et d'ouvrages industriels|
|73||Construction de réseaux par procédés spéciaux|
|74||Travaux de la filière eau|
|75||Travaux liés à la protection de l'environnement| 