﻿|10||denrées alimentaires|
|1050||produits surgelés ou congelés|
|1051||produits frais et réfrigérés|
|1052||boissons|
|1053||épicerie|
|1054||aliments adaptés à l'enfant et diététique sans fin médicale|
|11||produits de l'agriculture|
|1150||produits de l'agriculture, de la pêche et des industries agricoles (autre qu'à l'état de denrées alimentaires humaines)|
|12||produits du bois|
|1250||produits du bois (acquisition ou location)|
|13||produits d'extraction|
|1350||produits d'extraction|
|14||produits textiles, cuirs, habillement, chaussures|
|1450||linge de maison, articles d'ameublement et de literie (acquisition)|
|1451||articles vestimentaires (acquisition ou location)|
|1452||autres produits ou articles textiles et cuirs (acquision ou location)|
|15||papiers et produits de l'édition|
|1550||papiers et cartons en l'état, emballages en papier ou en carton, pâte à papier|
|1551||livres et documents imprimés|
|1552||journaux, revues et périodiques|
|1553||enregistrements sonores, images fixes et images animées (acquisition ou location)|
|1554||imprimés|
|1555||supports d'impression|
|16||produits de la cokefaction, du raffinage,…|
|1650||produits pétroliers raffinés liquides|
|1651||produits pétroliers raffinés gazeux|
|1652||produits pétroliers raffinés solides ou pateux|
|17||produits chimiques|
|1750||produits chimiques|
|1751||parfums et produits de toilette|
|1751||parfums et produits de toilette|
|18||produits de santé|
|1850||produits de santé|
|1851||consommables de laboratoires divers (autres matériaux)|
|1852||équipements médicaux (acquisition ou location)|
|19||produits en caoutchouc|
|1950||produits en caoutchouc|
|20||quincaillerie, outillage, produits en plastique, métal ou verre (hors construciton) et produits de la métallurgie|
|2050||quincaillerie, outillage, produits en plastique, métal ou verre (hors construciton) (acquisition ou location)|
|21||produits de la métallurgie|
|2150||produits de la métallurgie et métaux non ferreux|
|22||équipements de radio, télévision et communication (acquisition ou location sans opérateur)|
|2250||composants électroniques|
|2251||ppareils de production audiovisuelle et appareils de réception, enregistrement ou reproduction du son et/ou de l'image|
|2252||équipements de téléphonie filaire et mobile, matériels et terminaux|
|2253||équipements de reseaux de télécommunication|
|23||instruments de précision, d'optique et d'horlogerie|
|2350||instruments de mesures et de contrôles (acquisition ou location)|
|2351||matériels optiques, photographiques et cinématographiques (acquisition ou location)|
|2352||plaques, pellicules, films et surfaces sensibles pour la photo et pour le cinéma|
|2353||instruments d'aide à la navigation et de mesures geophysiques, matériels de radiodétection, radionavigation et radiosondage (acquisition ou location)|
|2354||appareils d'essai des materiaux et bancs d'essais (acquisition ou location)|
|24||matériels de transport|
|2450||matériel de transport (y compris accessoires et pièces détachées) (acquisition ou location sans opérateur)|
|25||mobilier|
|2550||mobilier de literie|
|2551||mobiliers (sièges, plans et tables, mobiliers de rangement) (acquisition ou location)|
|26||monnaies et bijoux|
|2650||monnaies et bijoux|
|27||matériels de sport et matériels de jeux d'enfants pour jardins publics ou similaires|
|2750||matériels de sport et matériels de jeux d'enfants pour jardins publics ou similaires (acquisition ou location)|
|28||instruments de musique, jeux et jouets|
|2850||instruments de musique, jeux et jouets (acquisition ou location)|
|29||manèges et attractions foraines|
|2950||manèges et attractions foraines (acquisition ou location)|
|30||munitions et équipements de protection ou de sécurité|
|3050||armes (acquisition ou location) et munitions (acquisition)|
|3051||matériel de protection ou de sécurité (acquisition ou location)|
|31||produits pour la construction, le revêtement routier et la signalisation|
|3150||produits pour la construction, le revêtement routier et la signalisation|
|32||0 chauffage et climatisation, réservoirs, citernes|
|3250||chauffage et climatisation, réservoirs, citernes|
|33||matériel et équipements électriques et d'éclairage|
|3350||matériel et équipements électriques et d'éclairage (acquisition ou location)|
|34||électricité, gaz, eau|
|3450||électricité|
|3450||électricité|
|3450||électricité|
|35||machines et équipements|
|3550||equipements mécaniques (acquisition ou location sans opérateur)|
|3551||machines d'usage général et machines outils (acquisition ou location sans opérateur)|
|3552||matériels : de levage, de manutention, agricole (acquisition ou location sans opérateur)|
|3553||ascenseurs et montes charges|
|3554||machines pour l'imprimerie (acquisition ou location sans opérateur)|
|3555||appareils domestiques|
|3556||machines à affranchir (acquisition ou location)|
|36||machines de bureau et équipements informatiques|
|3650||machines de bureau (acquisition ou location sans opérateur)|
|3651||photocopieurs (acquisition ou location sans opérateur)|
|3652||microordinateurs et stations de travail (acquisition ou location sans opérateur)|
|3653||gros ordinateurs (mainframe, serveurs, calculateurs spécialisés (acquisition ou location sans opérateur)|
|3654||extensions de puissance (machines de bureaux et équipements informatiques)|
|3655||périphériques (acquisition ou location)|
|3656||équipements de reseaux informatiques (acquisition ou location)|
|3657||consommables et autres fournitures (équipements informatiques)|
|37||produits d'entretien à usage domestique et articles de droguerie|
|3750||produits d'entretien à usage domestique et articles de droguerie|
|3751||fournitures hotelieres pour la petite enfance|
|38||petites fournitures de bureau|
|3850||petites fournitures de bureau|
|60||transports des personnes|
|6050||transports de personnes (autre que par agence)|
|6051||agences de voyage et autres services touristiques|
|6052||location de tous véhicules avec chauffeurs, pilote ou équipage, pour transport de personnes|
|61||transports de marchandises|
|6150||transports de marchandises|
|6151||déménagements et gardemeubles|
|6152||organisation du transport de fret (hors routage) :|
|62||services auxilliaires des transports|
|6250||manutention et entreposage|
|6251||autres services auxiliaires des transports|
|6252||péages et droits de stationnement|
|63||services des télécommunications|
|6350||services de téléphonie filaire (abonnements et communications)|
|6351||services de téléphonie mobile (abonnements et communications)|
|6352||services des réseaux de transmission de données (abonnements et communications)|
|6353||maintenance des matériels de téléphonie et des équipements de télécommunication|
|6354||maintenance des équipements de réseaux de télécommunication|
|6355||installation et montage des matériels de téléphonie|
|64||services des postes (hors monopole postal)|
|6450||acheminement de lettres et colis|
|6451||personnalisation de documents par édition informatique, mise sous enveloppe ou film, pose d'étiquettes|
|6452||routage|
|65||assurances|
|6550||assurances du patrimoine contrats dommages aux biens|
|6551||assurances de personnes (individuelle accident)|
|6552||assurances automobiles|
|6553||assurances construction|
|6554||assurances de responsabilité civile|
|6555||autres asurances|
|66||services financiers et comptables|
|6650||services financiers et comptables (créditbail et services bancaires)|
|6651||autres services d'auxiliaires financiers : gestion de chèques restaurant ou vacances|
|67||services informatiques|
|6750||schéma directeur et audit en organisation|
|6751||assistance à maitrise d'ouvrage|
|6752||assistance à maitrise d'œuvre|
|6753||achat et développement de progiciels et logiciels (y compris dispositif technique de FOAD)|
|6754||maintenance logicielle|
|6755||traitements informatiques|
|6756||infogérance d'un système d'information|
|6757||services de banques de données|
|6758||maintenance des gros ordinateurs, serveurs et calculateurs spécialisés|
|6759||maintenance des micro ordinateurs, stations de travail, périphériques et équipements de réseaux|
|6760||maintenance des équipements de réseaux informatiques|
|68||services d'hôtellerie et de restauration|
|6850||hébergement en hôtel, pensions, demipension, auberges de jeunese, refuges, camping ou autres|
|6851||services de restauration et traiteurs|
|69||services de sécurité|
|6950||surveillance d'immeubles, garde, protection par vigiles ou télésurveillance|
|6951||autres services de sécurité|
|70||services d'études, de conseil et d'assistance|
|7050||gestion de personnel : recrutement, conseil, organisation|
|7051||organisation des services : démarche qualité, audit, conseil, contrôle de gestion|
|7052||prestations de secrétariat et traduction|
|7053||enquêtes et sondages (hors communication)|
|7054||études à caractère général (hors communication)|
|7055||services de conseils juridiques|
|7056||conseil en immobilier|
|7057||activité de conseil en assurance|
|7058||services de conseil en télécommunication|
|7059||intermédiation financière et activié de conseil :|
|7060||conseil en sécurité|
|7061||études, conseils et assistance en urbanisme, politique de la ville et aménagement, y compris services de maîtrise d'œuvre pour les projets urbains|
|7062||conseil en formation : élaboration des plans de formation, conseil à maîtrise d'ouvrage dans les processus d'achat (accompagnement-assistance)|
|71||services liés à la construction|
|7150||maîtrise d'oeuvre (hors services de maîtrise d'œuvre pour les projets urbains) et ordonnancement, pilotage et coordination|
|7151||contrat de mandat ou conduite d'opération|
|7152||études, analyses et contrôles nécessaires à la réalisation d'un ouvrage (à l'exclusion des analyses et essais de matériaux, produits et matériels d'installation et d'équipement immobilier (cf 8052)|
|7153||contrôles techniques liés à la construction|
|7154||essais et missions de sécurité liées à la construction|
|72||services de communication|
|7250||agences de communication et publicité (hors conseil)|
|7251||achat et gestion d'espaces publicitaires|
|7252||organisation de colloques et évènements (foires et salons)|
|7253||publications (conception)|
|7254||sondages et enquêtes de communication|
|7255||services photographiques et audiovisuels de communication|
|7256||réalisation de sites internet|
|7257||traitement de l'information|
|7258||mise en place de platesformes téléphoniques|
|7259||travaux graphiques de communication|
|73||services de nettoyage|
|7350||nettoyage des locaux|
|7351||ramonage|
|7352||désinfection, dératisation, désinsectisation|
|7353||nettoyage des véhicules|
|7354||blanchisserie, teinturerie|
|7355||location entretien de linge (y compris hospitalier)|
|7356||services de décontamination nucléaire, biologique ou chimique|
|7357||location entretien d'appareils d'hygiène|
|74||services d'assainissement, de voirie et de traitement des déchets|
|7450||services d'assainissement, de voirie et de traitement des déchets|
|75||services juridiques|
|7550||services d'établissements d'actes authentiques et des auxiliaires de justice|
|7551||services de représentation juridique|
|76||services sanitaires et sociaux|
|7650||services de soins médicaux|
|7651||prestations de transport sanitaire d'urgence et d'ambulance|
|7652||services de prévention et de soins vétérinaires y compris les services d'analyses officielles réalisées dans le cadre des contrôles sanitaires vétérinaires relatifs à la protection de la santé humaine et de la santé animale|
|7653||contrôle et analyses biologiques, et physicochimiques de produits alimentaires et agro alimentaires : à l'exclusion des analyses officielles réalisées dans le cadre des contrôles sanitaires vétérinaires relatifs à la protection de la santé|
|77||services récréatifs, culturels et sportifs|
|7750||services de spectables, services artistiques et services d'organisation et de promotion des manifestations sportives|
|7751||services d'agence de presse écrite, photographique, radio ou télédiffusée ou cinématographique|
|7752||services d'acquisition, de catalogage, de conservation, de restauration et de recherche de livres et publications similaires, de disques, de vidéos et de supports multimédia (comprend également les services de prêts comme les bibliothèques, les ludo|
|7753||services de conception d'expositions temporaires|
|7754||services d'animation culturelle, socioculturelle et de loisirs|
|7755||services de conception, de production, de distribution, de projection, de traduction et de promotion ou de publicite de films ou d'oeuvres audiovisuelles et multimedia (comprend notamment les activités cinématographiques et de vidéo)|
|78||services d'éducation, de qualification et d'insertion professionnele, et de formation professionnelle|
|7850||services réalisés sous la forme de prestations d’appui et d’accompagnement à l’emploi, de formations ou d’expériences préqualifiantes ou certifiantes, et destinés aux jeunes sans emploi, aux personnes rencontrant des difficultés d’emploi ou de maint|
|7851||formation professionnelle initiale et formation d'intégration (hors services de qualification et d'insertion professionnelles)|
|7852||préparation aux concours ou examens professionnels destinée aux agents des collectivités publiques|
|7853||formation professionnelle continue destinée aux agents des collectivités publiques (y compris la formation continue obligatoire)|
|7854||services des écoles de conduite destinés aux agents des collectivités publiques|
|7855||services d'enseignement préscolaire, primaire, secondaire et supérieur à caractère général, technique ou professionnel [y compris apprentissage et hors enseignement artistique)|
|7856||ingénierie de formation et ingénierie pédagogique (élaboration de programme de formation)|
|79||services immobiliers|
|7950||services des agences immobilières|
|7951||services d'administration d'immeubles ensemble des prestations nécessaires au fonctionnement d'un immeuble (y compris prestations d'état des lieux, d'affacturage, de relevé de compterus, de diagnostic damiante, plomb, etc)|
|7952||locations ponctuelles de salles pour réunions, formation, examens et concours avec prestations annexes|
|80||services de contrôle et d'analyse techniques|
|8050||contrôle technique automobile|
|8051||autres contrôles et analyses|
|8052||analyses et essais des matériaux, produits et matériels d'installation et d'équipement immobilier (hors services de contrôles des constructions)|
|81||services d'entretien et de maintenance (non prévus par ailleurs)|
|8150||maintenance des véhicules de transport|
|8151||maintenance d'équipements mécaniques et de machines diverses|
|8152||maintenance des appareils ménagers|
|8153||maintenance des photocopieurs et machines de bureau|
|8154||maintenance des machines et appareils électriques|
|8155||maintenance des machines et matériels de chauffage|
|8156||maintenance des appareils sanitaires et de plomberie|
|8157||maintenance d'installations de levage et de transport electromécanique (ascenseurs)|
|8158||maintenance d'installations et d'équipements de protection contre l'incendie|
|8159||maintenance d'installations et d'équipements de contrôle des accès, de portes automatiques|
|8160||maintenance de matériels et équipements pour la gestion de biens immobiliers|
|8161||maintenance des matériels optiques, de précision et photographiques d'équipements de radio, télévision et communication, et des instruments de mesure et contrôle|
|8162||maintenance des instruments de musique|
|8163||maintenance des armes munitions, materiels de maintien de l'ordre ou de securite|
|8164||maintenance des équipements médicaux|
|82||travaux de la chaîne graphique, d'impression et de reprographie|
|8250||conception graphique, maquette liées aux travaux d'impression|
|8251||travaux d'impression offset|
|8252||autres travaux d'impression ou de reprographie|
|8253||travaux de façonnage de produits imprimés|
|8254||autres travaux de la chaîne graphique|
|8255||reproduction d'enregistrements sonores et vidéo|
|83||services personnels|
|8350||services personnels|
|84||services annexes à l'agriculture|
|8450||maintenance des espaces verts|
|85||services industriels|
|8550||prestations connexes de l'ameublement|
|8551||services de conditionnement à façon (hors routage) :|
|86||prestations scientifiques et techniques liées aux sciences de la terre (hors services liés à la réalisation d'opérations de construction de bâtiment, infrastructures ou ouvrages industriels)|
|8650||prestations scientifiques et techniques liées aux sciences de la terre|
