|A|ESS|Economie Sociale et Solidaire|
|A.1|ESS1|Type d'entreprise : Association|
|A.2|ESS2|Type d'entreprise : Coopérative|
|A.3|ESS3|Type d'entreprise : Mutuelle|
|A.4|ESS4|Type d'entreprise : Fondation|
|A.5|ESS5|Mon entreprise dispose d'un agrément solidaire|
|B|IAE|Handicap - Insertion par l'Activité Economique|
|B.1|IAE1|Entreprise adaptée|
|B.2|IAE2|Etablissement et service d'aide par le travail|
|B.3|IAE3|Atelier Chantier d'insertion|
|B.4|IAE4|Association intermédiaire|
|B.5|IAE5|Entreprise de travail temporaire d'insertion|
|B.6|IAE6|Entreprise d'insertion|
|B.7|IAE7|Régie de Quartier|
|C|Activité|Taille de l'entreprise|
|C.1|TPE|Très petites entreprises : moins de 20 salariés|
|C.2|PME|Petites et moyennes entreprise : de 20 à 249 salariés|
|C.3|ETI|Entreprises de taille intermédiaire : de 250 et 4999 salariés|
|C.4|GE|Grandes entreprises : plus de 5 000 salariés|
