|A|75|Paris (75)|
|B|77|Seine-et-Marne (77)|
|C|78|Yvelines (78)|
|D|91|Essonne (91)|
|E|92|Hauts-de-Seine (92)|
|F|93|Seine-Saint-Denis (93)|
|F.1|ATOL 93|Réseau de la commande publique du territoire de Plaine Commune|
|G|94|Val-de-Marne (94)|
|H|95|Val d'Oise (95)|