|FR0001|99|PICARDIE|
|FR0002|80|SOMME|
|FR0003|60|OISE|
|FR0004|02|AISNE|
|FR0005|9|CHAUNOIS|
|FR0006|6|GRAND LAONNOIS|
|FR0007|4|SAINT-QUENTINOIS|
|FR0008|14|SOISSONNAIS|
|FR0009|15|SUD DE L'AISNE|
|FR0010|5|THIERACHE|
|FR0011|7|CLERMONTOIS - PLATEAU PICARD|
|FR0012|16|COMPIEGNOIS|
|FR0013|10|CREILLOIS ET VALLEE BREITHOISE|
|FR0014|12|GRAND BEAUVAISIS|
|FR0015|8|SOURCES ET VALLEES|
|FR0016|13|SUD DE L'OISE|
|FR0017|11|THELLE VEXIN - SABLONS|
|FR0018|91|Z_HORS_ACIT (SECTEUR LIANCOURT)|
|FR0019|92|AUXILOIS|
|FR0020|2|GRAND AMIENOIS|
|FR0021|1|PICARDIE MARITIME|
|FR0022|19|SANTERRE HAUTE SOMME|
|FR0023|20|TRAIT VERT|
|FR0024|18|TROIS VALLEES|
|FR0025|17|VALLEES BRESLES ET YERES|
|FR0026|02001|ABBECOURT|
|FR0027|02002|ACHERY|
|FR0028|02014|AMIGNY ROUY|
|FR0029|02016|ANDELAIN|
|FR0030|02017|ANGUILCOURT LE SART|
|FR0031|02041|AUTREVILLE|
|FR0032|02049|BARISIS|
|FR0033|02056|BEAUMONT EN BEINE|
|FR0034|02059|BEAUTOR|
|FR0035|02074|BERTAUCOURT EPOURDON|
|FR0036|02078|BESME|
|FR0037|02081|BETHANCOURT EN VAUX|
|FR0038|02086|BICHANCOURT|
|FR0039|02093|BLERANCOURT|
|FR0040|02107|BOURGUIGNON SOUS COUCY|
|FR0041|02122|BRIE|
|FR0042|02139|CAILLOUEL CREPIGNY|
|FR0043|02140|CAMELIN|
|FR0044|02145|CAUMONT|
|FR0045|02159|CHAMPS|
|FR0046|02165|CHARMES|
|FR0047|02173|CHAUNY|
|FR0048|02207|COMMENCHON|
|FR0049|02212|CONDREN|
|FR0050|02217|COUCY LE CHATEAU|
|FR0051|02219|COUCY LA VILLE|
|FR0052|02222|COURBES|
|FR0053|02236|CRECY AU MONT|
|FR0054|02260|DANIZY|
|FR0055|02262|DEUILLET|
|FR0056|02304|LA FERE|
|FR0057|02318|FOLEMBRAY|
|FR0058|02329|FOURDRAIN|
|FR0059|02333|FRESNES|
|FR0060|02335|FRESSANCOURT|
|FR0061|02336|FRIERES FAILLOUEL|
|FR0062|02362|GUIVRY|
|FR0063|02363|GUNY|
|FR0064|02395|JUMENCOURT|
|FR0065|02406|LANDRICOURT|
|FR0066|02423|LEUILLY SOUS COUCY|
|FR0067|02431|LIEZ|
|FR0068|02456|MANICAMP|
|FR0069|02461|MAREST DAMPCOURT|
|FR0070|02473|MAYOT|
|FR0071|02474|MENNESSIS|
|FR0072|02492|MONCEAU LES LEUPS|
|FR0073|02542|NEUFLIEUX|
|FR0074|02546|LA NEUVILLE EN BEINE|
|FR0075|02566|OGNES|
|FR0076|02599|PIERREMANDE|
|FR0077|02616|PONT SAINT MARD|
|FR0078|02630|QUESSY|
|FR0079|02631|QUIERZY SUR OISE|
|FR0080|02632|QUINCY BASSE|
|FR0081|02651|ROGECOURT|
|FR0082|02671|SAINT AUBIN|
|FR0083|02680|SAINT GOBAIN|
|FR0084|02685|SAINT NICOLAS AUX BOIS|
|FR0085|02686|SAINT PAUL AUX BOIS|
|FR0086|02704|SELENS|
|FR0087|02707|SEPTVAUX|
|FR0088|02716|SERVAIS|
|FR0089|02719|SINCENY|
|FR0090|02738|TERGNIER|
|FR0091|02746|TRAVECY|
|FR0092|02750|TROSLY LOIRE|
|FR0093|02754|UGNY LE GAY|
|FR0094|02786|VERNEUIL SOUS COUCY|
|FR0095|02788|VERSIGNY|
|FR0096|02807|VILLEQUIER AUMONT|
|FR0097|02820|VIRY NOUREUIL|
|FR0098|02004|AGNICOURT ET SECHELLES|
|FR0099|02005|AGUILCOURT|
|FR0100|02007|AIZELLES|
|FR0101|02013|AMIFONTAINE|
|FR0102|02018|ANIZY LE CHATEAU|
|FR0103|02024|ARRANCY|
|FR0104|02027|ASSIS SUR SERRE|
|FR0105|02028|ATHIES SOUS LAON|
|FR0106|02033|AUBIGNY EN LAONNOIS|
|FR0107|02037|AULNOIS SOUS LAON|
|FR0108|02039|AUTREMENCOURT|
|FR0109|02046|BARENTON BUGNY|
|FR0110|02047|BARENTON CEL|
|FR0111|02048|BARENTON SUR SERRE|
|FR0112|02052|BASSOLES AULERS|
|FR0113|02058|BEAURIEUX|
|FR0114|02072|BERRIEUX|
|FR0115|02073|BERRY AU BAC|
|FR0116|02076|BERTRICOURT|
|FR0117|02080|BESNY ET LOIZY|
|FR0118|02088|BIEVRES|
|FR0119|02096|BOIS LES PARGNY|
|FR0120|02097|BONCOURT|
|FR0121|02101|BOSMONT SUR SERRE|
|FR0122|02102|BOUCONVILLE VAUCLAIR|
|FR0123|02104|BOUFFIGNEREUX|
|FR0124|02106|BOURG ET COMIN|
|FR0125|02108|BOURGNUIGNON S MONTBAVIN|
|FR0126|02111|BRANCOURT EN LAONNOIS|
|FR0127|02115|BRAYE EN LAONNOIS|
|FR0128|02128|BRUYERES ET MONTBERAULT|
|FR0129|02132|BUCY LES CERNY|
|FR0130|02133|BUCY LES PIERREPONT|
|FR0131|02150|CERNY EN LAONNOIS|
|FR0132|02151|CERNY LES BUCY|
|FR0133|02153|CESSIERES|
|FR0134|02155|CHAILLEVOIS|
|FR0135|02156|CHALANDRY|
|FR0136|02157|CHAMBRY|
|FR0137|02158|CHAMOUILLE|
|FR0138|02169|CHATILLON LES SONS|
|FR0139|02171|CHAUDARDES|
|FR0140|02177|CHERET|
|FR0141|02178|CHERMIZY AILLES|
|FR0142|02180|CHERY LES POUILLY|
|FR0143|02183|CHEVREGNY|
|FR0144|02189|CHIVRES EN LAONNOIS|
|FR0145|02191|CHIVY LES ETOUVELLES|
|FR0146|02194|CILLY|
|FR0147|02196|CLACY ET THIERRET|
|FR0148|02205|COLLIGIS CRANDELAIN|
|FR0149|02208|CONCEVREUX|
|FR0150|02211|CONDE SUR SUIPPE|
|FR0151|02215|CORBENY|
|FR0152|02218|COUCY LES EPPES|
|FR0153|02229|COURTRIZY ET FUSSIGNY|
|FR0154|02231|COUVRON ET AUMENCOURT|
|FR0155|02234|CRAONNE|
|FR0156|02235|CRAONNELLE|
|FR0157|02237|CRECY SUR SERRE|
|FR0158|02238|CREPY|
|FR0159|02248|CUIRIEUX|
|FR0160|02250|CUIRY LES CHAUDARDES|
|FR0161|02252|CUISSY ET GENY|
|FR0162|02261|DERCY|
|FR0163|02274|EBOULEAU|
|FR0164|02282|EPPES|
|FR0165|02283|ERLON|
|FR0166|02294|ETOUVELLES|
|FR0167|02299|EVERGNICOURT|
|FR0168|02301|FAUCOUCOURT|
|FR0169|02309|FESTIEUX|
|FR0170|02338|FROIDMONT COHARTILLE|
|FR0171|02344|GERNICOURT|
|FR0172|02346|GIZY|
|FR0173|02349|GOUDELANCOURT LES BERRIEUX|
|FR0174|02350|GOUDELANCOURT LES PIERREPONT|
|FR0175|02353|GRANDLUP ET FAY|
|FR0176|02360|GUIGNICOURT|
|FR0177|02364|GUYENCOURT|
|FR0178|02396|JUMIGNY|
|FR0179|02399|JUVINCOURT ET DAMARY|
|FR0180|02407|LANISCOURT|
|FR0181|02408|LAON|
|FR0182|02409|LAPPION|
|FR0183|02413|LAVAL EN LAONNOIS|
|FR0184|02429|LIERVAL|
|FR0185|02430|LIESSE NOTRE DAME|
|FR0186|02434|LIZY|
|FR0187|02440|LOR|
|FR0188|02448|MACHECOURT|
|FR0189|02453|MAIZY|
|FR0190|02454|LA MALMAISON|
|FR0191|02457|MARCHAIS|
|FR0192|02460|MARCY SOUS MARLE|
|FR0193|02468|MARLE|
|FR0194|02471|MARTIGNY COURPIERRE|
|FR0195|02472|MAUREGNY EN HAYE|
|FR0196|02475|MENNEVILLE|
|FR0197|02478|MERLIEUX ET FOUQUEROLLES|
|FR0198|02480|MESBRECOURT RICHECOURT|
|FR0199|02482|MEURIVAL|
|FR0200|02486|MISSY LES PIERREPONT|
|FR0201|02489|MOLINCHART|
|FR0202|02493|MONCEAU LE WAAST|
|FR0203|02497|MONS EN LAONNOIS|
|FR0204|02498|MONTAIGU|
|FR0205|02499|MONTBAVIN|
|FR0206|02501|MONTCHALONS|
|FR0207|02508|MONTHENAULT|
|FR0208|02513|MONTIGNY LE FRANC|
|FR0209|02516|MONTIGNY SOUS MARLE|
|FR0210|02517|MONTIGNY SUR CRECY|
|FR0211|02529|MORTIERS|
|FR0212|02530|MOULINS|
|FR0213|02531|MOUSSY VERNEUIL|
|FR0214|02534|MUSCOURT|
|FR0215|02541|NEUFCHATEL SUR AISNE|
|FR0216|02545|LA NEUVILLE BOSMONT|
|FR0217|02550|NEUVILLE SUR AILETTE|
|FR0218|02553|NIZY LE COMTE|
|FR0219|02559|NOUVION ET CATILLON|
|FR0220|02560|NOUVION LE COMTE|
|FR0221|02561|NOUVION LE VINEUX|
|FR0222|02565|OEUILLY|
|FR0223|02572|ORAINVILLE|
|FR0224|02573|ORGEVAL|
|FR0225|02578|OULCHES LA VALLEE FOULON|
|FR0226|02582|PAISSY|
|FR0227|02583|PANCY COURTECON|
|FR0228|02587|PARFONDRU|
|FR0229|02588|PARGNAN|
|FR0230|02591|PARGNY LES BOIS|
|FR0231|02600|PIERREPONT|
|FR0232|02601|PIGNICOURT|
|FR0233|02602|PINON|
|FR0234|02609|PLOYART ET VAURSEINE|
|FR0235|02613|PONTAVERT|
|FR0236|02617|POUILLY SUR SERRE|
|FR0237|02619|PREMONTRE|
|FR0238|02621|PRESLES ET THIERNY|
|FR0239|02626|PROUVAIS|
|FR0240|02627|PROVISEUX ET PLESNOY|
|FR0241|02638|REMIES|
|FR0242|02656|ROUCY|
|FR0243|02661|ROYAUCOURT ET CHAILVET|
|FR0244|02675|SAINTE CROIX|
|FR0245|02676|SAINT ERME OUTRE ET RAMECOURT|
|FR0246|02689|SAINT PIERREMONT|
|FR0247|02690|SAINTE PREUVE|
|FR0248|02696|SAINT THOMAS|
|FR0249|02697|SAMOUSSY|
|FR0250|02705|LA SELVE|
|FR0251|02720|SISSONNE|
|FR0252|02727|SONS ET RONCHERES|
|FR0253|02733|SUZY|
|FR0254|02737|TAVAUX ET PONTSERICOURT|
|FR0255|02742|THIERNU|
|FR0256|02745|TOULIS ET ATTENCOURT|
|FR0257|02751|TRUCY|
|FR0258|02755|URCEL|
|FR0259|02761|VARISCOURT|
|FR0260|02764|VASSOGNE|
|FR0261|02765|VAUCELLES ET BEFFECOURT|
|FR0262|02768|VAUXAILLON|
|FR0263|02778|VENDRESSE BEAULNE|
|FR0264|02787|VERNEUIL SUR SERRE|
|FR0265|02790|VESLES ET CAUMONT|
|FR0266|02791|VESLUD|
|FR0267|02803|LA VILLE AUX BOIS LES PONTAVERT|
|FR0268|02821|VIVAISE|
|FR0269|02824|VORGES|
|FR0270|02827|VOYENNE|
|FR0271|02834|WISSIGNICOURT|
|FR0272|02009|ALAINCOURT|
|FR0273|02019|ANNOIS|
|FR0274|02025|ARTEMPS|
|FR0275|02029|ATTILLY|
|FR0276|02030|AUBENCHEUL AUX BOIS|
|FR0277|02032|AUBIGNY AUX KAISNES|
|FR0278|02057|BEAUREVOIR|
|FR0279|02060|BEAUVOIS EN VERMANDOIS|
|FR0280|02061|BECQUIGNY|
|FR0281|02063|BELLENGLISE|
|FR0282|02065|BELLICOURT|
|FR0283|02066|BENAY|
|FR0284|02075|BERTHENICOURT|
|FR0285|02095|BOHAIN EN VERMANDOIS|
|FR0286|02100|BONY|
|FR0287|02112|BRANCOURT LE GRAND|
|FR0288|02117|BRAY SAINT CHRISTOPHE|
|FR0289|02123|BRISSAY CHOIGNY|
|FR0290|02124|BRISSY HAMEGICOURT|
|FR0291|02142|CASTRES|
|FR0292|02143|LE CATELET|
|FR0293|02144|CAULAINCOURT|
|FR0294|02149|CERIZY|
|FR0295|02170|CHATILLON SUR OISE|
|FR0296|02184|CHEVRESIS MONCEAU|
|FR0297|02199|CLASTRES|
|FR0298|02214|CONTESCOURT|
|FR0299|02240|CROIX FONSOMMES|
|FR0300|02246|CUGNY|
|FR0301|02257|DALLON|
|FR0302|02270|DOUCHY|
|FR0303|02273|DURY|
|FR0304|02287|ESSIGNY LE GRAND|
|FR0305|02288|ESSIGNY LE PETIT|
|FR0306|02291|ESTREES|
|FR0307|02293|ETAVES ET BOCQUIAUX|
|FR0308|02296|ETREILLERS|
|FR0309|02303|FAYET|
|FR0310|02306|LA FERTE CHEVRESIS|
|FR0311|02310|FIEULAINE|
|FR0312|02315|FLAVY LE MARTEL|
|FR0313|02317|FLUQUIERES|
|FR0314|02319|FONSOMMES|
|FR0315|02320|FONTAINE LES CLERCS|
|FR0316|02322|FONTAINE NOTRE DAME|
|FR0317|02323|FONTAINE UTERTE|
|FR0318|02327|FORESTE|
|FR0319|02330|FRANCILLY SELENCY|
|FR0320|02334|FRESNOY LE GRAND|
|FR0321|02340|GAUCHY|
|FR0322|02343|GERMAINE|
|FR0323|02345|GIBERCOURT|
|FR0324|02352|GOUY|
|FR0325|02355|GRICOURT|
|FR0326|02359|GRUGIES|
|FR0327|02367|HAPPENCOURT|
|FR0328|02370|HARGICOURT|
|FR0329|02371|HARLY|
|FR0330|02374|LEHAUCOURT|
|FR0331|02380|HINACOURT|
|FR0332|02382|HOLNON|
|FR0333|02383|HOMBLIERES|
|FR0334|02387|ITANCOURT|
|FR0335|02390|JEANCOURT|
|FR0336|02392|JONCOURT|
|FR0337|02397|JUSSY|
|FR0338|02402|LANCHY|
|FR0339|02417|LEMPIRE|
|FR0340|02420|LESDINS|
|FR0341|02426|LEVERGIES|
|FR0342|02446|LY FONTAINE|
|FR0343|02451|MAGNY LA FOSSE|
|FR0344|02452|MAISSEMY|
|FR0345|02459|MARCY|
|FR0346|02481|MESNIL SAINT LAURENT|
|FR0347|02483|MEZIERES SUR OISE|
|FR0348|02500|MONTBREHAIN|
|FR0349|02503|MONT D'ORIGNY|
|FR0350|02504|MONTESCOURT LIZEROLLES|
|FR0351|02511|MONTIGNY EN ARROUAISE|
|FR0352|02525|MORCOURT|
|FR0353|02532|MOY DE L'AISNE|
|FR0354|02539|NAUROY|
|FR0355|02549|NEUVILLE SAINT AMAND|
|FR0356|02552|NEUVILLETTE|
|FR0357|02570|OLLEZY|
|FR0358|02571|OMISSY|
|FR0359|02575|ORIGNY SAINTE BENOITE|
|FR0360|02592|PARPEVILLE|
|FR0361|02604|PITHON|
|FR0362|02605|PLEINE SELVE|
|FR0363|02614|PONTRU|
|FR0364|02615|PONTRUET|
|FR0365|02618|PREMONT|
|FR0366|02635|RAMICOURT|
|FR0367|02636|REGNY|
|FR0368|02637|REMAUCOURT|
|FR0369|02639|REMIGNY|
|FR0370|02640|RENANSART|
|FR0371|02648|RIBEMONT|
|FR0372|02658|ROUPY|
|FR0373|02659|ROUVROY|
|FR0374|02691|SAINT QUENTIN|
|FR0375|02694|SAINT SIMON|
|FR0376|02702|SAVY|
|FR0377|02703|SEBONCOURT|
|FR0378|02708|SEQUEHART|
|FR0379|02709|SERAIN|
|FR0380|02710|SERAUCOURT LE GRAND|
|FR0381|02717|SERY LES MEZIERES|
|FR0382|02721|SISSY|
|FR0383|02726|SOMMETTE EAUCOURT|
|FR0384|02732|SURFONTAINE|
|FR0385|02741|THENELLES|
|FR0386|02747|TREFCON|
|FR0387|02752|TUGNY ET PONT|
|FR0388|02756|URVILLERS|
|FR0389|02772|VAUX EN VERMANDOIS|
|FR0390|02774|VENDELLES|
|FR0391|02775|VENDEUIL|
|FR0392|02776|VENDHUILE|
|FR0393|02782|LE VERGUIER|
|FR0394|02785|VERMAND|
|FR0395|02808|VILLERET|
|FR0396|02813|VILLERS LE SEC|
|FR0397|02815|VILLERS SAINT CHRISTOPHE|
|FR0398|02003|ACY|
|FR0399|02008|AIZY JOUY|
|FR0400|02010|ALLEMANT|
|FR0401|02011|AMBLENY|
|FR0402|02012|AMBRIEF|
|FR0403|02022|ARCY SAINTE RESTITUE|
|FR0404|02034|AUDIGNICOURT|
|FR0405|02036|AUGY|
|FR0406|02043|BAGNEUX|
|FR0407|02054|BAZOCHES SUR VESLES|
|FR0408|02064|BELLEU|
|FR0409|02071|BERNY RIVIERE|
|FR0410|02077|BERZY LE SEC|
|FR0411|02082|BEUGNEUX|
|FR0412|02087|BIEUXI|
|FR0413|02089|BILLY SUR AISNE|
|FR0414|02090|BILLY SUR OURCQ|
|FR0415|02091|BLANZY LES FISMES|
|FR0416|02110|BRAINE|
|FR0417|02118|BRAYE|
|FR0418|02120|BRENELLE|
|FR0419|02121|BRENY|
|FR0420|02129|BRUYS|
|FR0421|02131|BUCY LE LONG|
|FR0422|02138|BUZANCY|
|FR0423|02148|CELLES SUR AISNE|
|FR0424|02152|CERSEUIL|
|FR0425|02154|CHACRISE|
|FR0426|02167|CHASSEMY|
|FR0427|02172|CHAUDUN|
|FR0428|02174|CHAVIGNON|
|FR0429|02175|CHAVIGNY|
|FR0430|02176|CHAVONNE|
|FR0431|02179|CHERY CHARTREUVE|
|FR0432|02190|CHIVRES VAL|
|FR0433|02195|CIRY SALSOGNE|
|FR0434|02198|CLAMECY|
|FR0435|02201|COEUVRES ET VALSERY|
|FR0436|02210|CONDE SUR AISNE|
|FR0437|02216|CORCY|
|FR0438|02224|COURCELLES SUR VESLES|
|FR0439|02226|COURMELLES|
|FR0440|02230|COUVRELLES|
|FR0441|02232|COYOLLES|
|FR0442|02233|CRAMAILLE|
|FR0443|02243|CROUY|
|FR0444|02245|CUFFIES|
|FR0445|02249|CUIRY HOUSSE|
|FR0446|02253|CUISY EN ALMONT|
|FR0447|02254|CUTRY|
|FR0448|02255|CYS LA COMMUNE|
|FR0449|02259|DAMPLEUX|
|FR0450|02263|DHUIZEL|
|FR0451|02267|DOMMIERS|
|FR0452|02272|DROIZY|
|FR0453|02277|EPAGNY|
|FR0454|02302|FAVEROLLES|
|FR0455|02311|FILAIN|
|FR0456|02316|FLEURY|
|FR0457|02326|FONTENOY|
|FR0458|02348|GLENNES|
|FR0459|02368|HARAMONT|
|FR0460|02372|HARTENNES ET TAUX|
|FR0461|02393|JOUAIGNES|
|FR0462|02398|JUVIGNY|
|FR0463|02400|LAFFAUX|
|FR0464|02410|LARGNY SUR AUTOMNE|
|FR0465|02412|LAUNOY|
|FR0466|02415|LAVERSINE|
|FR0467|02421|LESGES|
|FR0468|02424|LEURY|
|FR0469|02427|LHUYS|
|FR0470|02432|LIME|
|FR0471|02438|LONGPONT|
|FR0472|02439|LONGUEVAL BARBONVAL|
|FR0473|02441|LOUATRE|
|FR0474|02447|MAAST ET VIOLAINE|
|FR0475|02464|MARGIVAL|
|FR0476|02477|MERCIN ET VAUX|
|FR0477|02479|MERVAL|
|FR0478|02485|MISSY AUX BOIS|
|FR0479|02487|MISSY SUR AISNE|
|FR0480|02490|MONAMPTEUIL|
|FR0481|02506|MONTGOBERT|
|FR0482|02507|MONTGRU SAINT HILAIRE|
|FR0483|02514|MONTIGNY LENGRAIN|
|FR0484|02520|MONT NOTRE DAME|
|FR0485|02523|MONT SAINT MARTIN|
|FR0486|02527|MORSAIN|
|FR0487|02528|MORTEFONTAINE|
|FR0488|02533|MURET ET CROUTTES|
|FR0489|02536|NAMPTEUIL SOUS MURET|
|FR0490|02537|NANTEUIL LA FOSSE|
|FR0491|02551|NEUVILLE SUR MARGIVAL|
|FR0492|02562|NOUVRON VINGRE|
|FR0493|02564|NOYANT ET ACONIN|
|FR0494|02568|OIGNY EN VALOIS|
|FR0495|02576|OSLY COURTIL|
|FR0496|02577|OSTEL|
|FR0497|02579|OULCHY LA VILLE|
|FR0498|02580|OULCHY LE CHATEAU|
|FR0499|02581|PAARS|
|FR0500|02585|PARCY ET TIGNY|
|FR0501|02589|PARGNY FILAIN|
|FR0502|02593|PASLY|
|FR0503|02597|PERLES|
|FR0504|02598|PERNANT|
|FR0505|02606|LE PLESSIER HULEU|
|FR0506|02607|PLOISY|
|FR0507|02610|POMMIERS|
|FR0508|02612|PONT ARCY|
|FR0509|02620|PRESLES ET BOVES|
|FR0510|02628|PUISEUX EN RETZ|
|FR0511|02633|QUINCY SOUS LE MONT|
|FR0512|02643|RESSONS LE LONG|
|FR0513|02644|RETHEUIL|
|FR0514|02646|REVILLON|
|FR0515|02663|ROZIERES SUR CRISE|
|FR0516|02665|GRAND ROZOY|
|FR0517|02667|SACONIN ET BREUIL|
|FR0518|02672|SAINT BANDRY|
|FR0519|02673|SAINT CHRISTOPHE A BERRY|
|FR0520|02682|SAINT MARD|
|FR0521|02687|SAINT PIERRE AIGLE|
|FR0522|02693|SAINT REMY BLANZY|
|FR0523|02695|SAINT THIBAUT|
|FR0524|02698|SANCY LES CHEMINOTS|
|FR0525|02706|SEPTMONTS|
|FR0526|02711|SERCHES|
|FR0527|02714|SERMOISE|
|FR0528|02715|SERVAL|
|FR0529|02722|SOISSONS|
|FR0530|02729|SOUCY|
|FR0531|02730|SOUPIR|
|FR0532|02734|TAILLEFONTAINE|
|FR0533|02735|TANNIERES|
|FR0534|02736|TARTIERS|
|FR0535|02739|TERNY SORNY|
|FR0536|02758|VAILLY SUR AISNE|
|FR0537|02762|VASSENS|
|FR0538|02763|VASSENY|
|FR0539|02766|VAUDESSON|
|FR0540|02767|VAUXREZIS|
|FR0541|02770|VAUXBUIN|
|FR0542|02771|VAUXCERE|
|FR0543|02773|VAUXTIN|
|FR0544|02780|VENIZEL|
|FR0545|02793|VEZAPONIN|
|FR0546|02795|VIC SUR AISNE|
|FR0547|02797|VIEL ARCY|
|FR0548|02799|VIERZY|
|FR0549|02804|VILLEMONTOIRE|
|FR0550|02805|VILLENEUVE SAINT GERMAIN|
|FR0551|02810|VILLERS COTTERETS|
|FR0552|02811|VILLERS EN PRAYERES|
|FR0553|02812|VILLERS HELON|
|FR0554|02817|VILLE SAVOYE|
|FR0555|02822|VIVIERES|
|FR0556|02828|VREGNY|
|FR0557|02829|VUILLERY|
|FR0558|02015|ANCIENVILLE|
|FR0559|02023|ARMENTIERES SUR OURCQ|
|FR0560|02026|ARTONGES|
|FR0561|02042|AZY SUR MARNE|
|FR0562|02051|BARZY SUR MARNE|
|FR0563|02053|BAULNE EN BRIE|
|FR0564|02062|BELLEAU|
|FR0565|02083|BEUVARDES|
|FR0566|02084|BEZU LE GUERY|
|FR0567|02085|BEZU SAINT GERMAIN|
|FR0568|02094|BLESMES|
|FR0569|02098|BONNEIL|
|FR0570|02099|BONNESVALYN|
|FR0571|02105|BOURESCHES|
|FR0572|02114|BRASLES|
|FR0573|02119|BRECY|
|FR0574|02125|BRUMETZ|
|FR0575|02127|BRUYERES SUR FERE|
|FR0576|02137|BUSSIARES|
|FR0577|02146|CELLES LES CONDE|
|FR0578|02147|LA CELLE SOUS MONTMIRAIL|
|FR0579|02161|LA CHAPELLE MONTHODON|
|FR0580|02162|LA CHAPELLE SUR CHEZY|
|FR0581|02163|CHARLY SUR MARNE|
|FR0582|02164|LE CHARMEL|
|FR0583|02166|CHARTEVES|
|FR0584|02168|CHATEAU THIERRY|
|FR0585|02185|CHEZY EN ORXOIS|
|FR0586|02186|CHEZY SUR MARNE|
|FR0587|02187|CHIERRY|
|FR0588|02192|CHOUY|
|FR0589|02193|CIERGES|
|FR0590|02203|COINCY|
|FR0591|02209|CONDE EN BRIE|
|FR0592|02213|CONNIGIS|
|FR0593|02220|COULONGES COHAN|
|FR0594|02221|COUPRU|
|FR0595|02223|COURBOIN|
|FR0596|02225|COURCHAMPS|
|FR0597|02227|COURMONT|
|FR0598|02228|COURTEMONT VARENNES|
|FR0599|02239|CREZANCY|
|FR0600|02241|LA CROIX SUR OURCQ|
|FR0601|02242|CROUTTES SUR MARNE|
|FR0602|02258|DAMMARD|
|FR0603|02268|DOMPTIN|
|FR0604|02271|DRAVEGNY|
|FR0605|02279|EPAUX BEZU|
|FR0606|02280|EPIEDS|
|FR0607|02281|L'EPINE AUX BOIS|
|FR0608|02289|ESSISES|
|FR0609|02290|ESSOMES SUR MARNE|
|FR0610|02292|ETAMPES SUR MARNE|
|FR0611|02297|ETREPILLY|
|FR0612|02305|FERE EN TARDENOIS|
|FR0613|02307|LA FERTE MILON|
|FR0614|02325|FONTENELLE EN BRIE|
|FR0615|02328|FOSSOY|
|FR0616|02332|FRESNES EN TARDENOIS|
|FR0617|02339|GANDELU|
|FR0618|02347|GLAND|
|FR0619|02351|GOUSSANCOURT|
|FR0620|02356|GRISOLLES|
|FR0621|02375|HAUTEVESNES|
|FR0622|02389|JAULGONNE|
|FR0623|02411|LATILLY|
|FR0624|02428|LICY CLIGNON|
|FR0625|02442|LOUPEIGNE|
|FR0626|02443|LUCY LE BOCAGE|
|FR0627|02449|MACOGNY|
|FR0628|02458|MARCHAIS EN BRIE|
|FR0629|02462|MAREUIL EN DOLE|
|FR0630|02465|MARIGNY EN ORXOIS|
|FR0631|02466|MARIZY SAINTE GENEVIEVE|
|FR0632|02467|MARIZY SAINT MARD|
|FR0633|02484|MEZY MOULINS|
|FR0634|02496|MONNES|
|FR0635|02505|MONTFAUCON|
|FR0636|02509|MONTHIERS|
|FR0637|02510|MONTHUREL|
|FR0638|02512|MONTIGNY L'ALLIER|
|FR0639|02515|MONTIGNY LES CONDE|
|FR0640|02518|MONTLEVON|
|FR0641|02521|MONTREUIL AUX LIONS|
|FR0642|02524|MONT ST PERE|
|FR0643|02538|NANTEUIL NOTRE DAME|
|FR0644|02540|NESLES LA MONTAGNE|
|FR0645|02543|NEUILLY SAINT FRONT|
|FR0646|02554|NOGENTEL|
|FR0647|02555|NOGENT L'ARTAUD|
|FR0648|02557|NOROY SUR OURCQ|
|FR0649|02590|PARGNY LA DHUYS|
|FR0650|02594|PASSY EN VALOIS|
|FR0651|02595|PASSY SUR MARNE|
|FR0652|02596|PAVANT|
|FR0653|02622|PRIEZ|
|FR0654|02645|REUILLY SAUVIGNY|
|FR0655|02649|ROCOURT SAINT MARTIN|
|FR0656|02653|ROMENY SUR MARNE|
|FR0657|02655|RONCHERES|
|FR0658|02662|ROZET SAINT ALBIN|
|FR0659|02664|ROZOY BELLEVALLE|
|FR0660|02669|SAINT AGNAN|
|FR0661|02677|SAINT EUGENE|
|FR0662|02679|SAINT GENGOULPH|
|FR0663|02699|SAPONAY|
|FR0664|02701|SAULCHERY|
|FR0665|02712|SERGY|
|FR0666|02713|SERINGES ET NESLES|
|FR0667|02718|SILLY LA POTERIE|
|FR0668|02724|SOMMELANS|
|FR0669|02744|TORCY EN VALOIS|
|FR0670|02748|TRELOU SUR MARNE|
|FR0671|02749|TROESNES|
|FR0672|02777|VENDIERES|
|FR0673|02781|VERDILLY|
|FR0674|02792|VEUILLY LA POTERIE|
|FR0675|02794|VEZILLY|
|FR0676|02796|VICHEL NANTEUIL|
|FR0677|02798|VIELS MAISONS|
|FR0678|02800|VIFFORT|
|FR0679|02806|VILLENEUVE SUR FERE|
|FR0680|02809|VILLERS AGRON AIGUIZY|
|FR0681|02816|VILLERS SUR FERE|
|FR0682|02818|VILLIERS SAINT DENIS|
|FR0683|02006|AISONVILLE ET BERNOVILLE|
|FR0684|02020|ANY MARTIN RIEUX|
|FR0685|02021|ARCHON|
|FR0686|02031|AUBENTON|
|FR0687|02035|AUDIGNY|
|FR0688|02038|LES AUTELS|
|FR0689|02040|AUTREPPES|
|FR0690|02044|BANCIGNY|
|FR0691|02050|BARZY EN THIERACHE|
|FR0692|02055|BEAUME|
|FR0693|02067|BERGUES SUR SAMBRE|
|FR0694|02068|BERLANCOURT|
|FR0695|02069|BERLISE|
|FR0696|02070|BERNOT|
|FR0697|02079|BESMONT|
|FR0698|02103|BOUE|
|FR0699|02109|LA BOUTEILLE|
|FR0700|02116|BRAYE EN THIERACHE|
|FR0701|02126|BRUNEHAMEL|
|FR0702|02130|BUCILLY|
|FR0703|02134|BUIRE|
|FR0704|02135|BUIRONFOSSE|
|FR0705|02136|BURELLES|
|FR0706|02141|LA CAPELLE|
|FR0707|02160|CHAOURSE|
|FR0708|02181|CHERY LES ROZOY|
|FR0709|02182|CHEVENNES|
|FR0710|02188|CHIGNY|
|FR0711|02197|CLAIRFONTAINE|
|FR0712|02200|CLERMONT LES FERMES|
|FR0713|02204|COINGT|
|FR0714|02206|COLONFAY|
|FR0715|02244|CRUPILLY|
|FR0716|02251|CUIRY LES IVIERS|
|FR0717|02256|DAGNY LAMBERCY|
|FR0718|02264|DIZY LE GROS|
|FR0719|02265|DOHIS|
|FR0720|02266|DOLIGNON|
|FR0721|02269|DORENGT|
|FR0722|02275|EFFRY|
|FR0723|02276|ENGLANCOURT|
|FR0724|02278|EPARCY|
|FR0725|02284|ERLOY|
|FR0726|02286|ESQUEHERIES|
|FR0727|02295|ETREAUPONT|
|FR0728|02298|ETREUX|
|FR0729|02308|FESMY LE SART|
|FR0730|02312|LA FLAMENGRIE|
|FR0731|02313|FLAVIGNY LE GRAND ET BEAURAIN|
|FR0732|02321|FONTAINE LES VERVINS|
|FR0733|02324|FONTENELLE|
|FR0734|02331|FRANQUEVILLE|
|FR0735|02337|FROIDESTREES|
|FR0736|02341|GERCY|
|FR0737|02342|GERGNY|
|FR0738|02354|GRANDRIEUX|
|FR0739|02357|GRONARD|
|FR0740|02358|GROUGIS|
|FR0741|02361|GUISE|
|FR0742|02366|HANNAPES|
|FR0743|02369|HARCIGNY|
|FR0744|02373|HARY|
|FR0745|02376|HAUTEVILLE|
|FR0746|02377|HAUTION|
|FR0747|02378|LA HERIE|
|FR0748|02379|LE HERIE LA VIEVILLE|
|FR0749|02381|HIRSON|
|FR0750|02384|HOURY|
|FR0751|02385|HOUSSET|
|FR0752|02386|IRON|
|FR0753|02388|IVIERS|
|FR0754|02391|JEANTES|
|FR0755|02401|LAIGNY|
|FR0756|02403|LANDIFAY & BERTAIGNEMONT|
|FR0757|02404|LANDOUZY LA COUR|
|FR0758|02405|LANDOUZY LA VILLE|
|FR0759|02414|LAVAQUERESSE|
|FR0760|02416|LEME|
|FR0761|02418|LERZY|
|FR0762|02419|LESCHELLES|
|FR0763|02422|LESQUIELLES ST GERMAIN|
|FR0764|02425|LEUZE|
|FR0765|02433|LISLET|
|FR0766|02435|LOGNY LES AUBENTON|
|FR0767|02444|LUGNY|
|FR0768|02445|LUZOIR|
|FR0769|02450|MACQUIGNY|
|FR0770|02455|MALZY|
|FR0771|02463|MARFONTAINE|
|FR0772|02469|MARLY GOMONT|
|FR0773|02470|MARTIGNY|
|FR0774|02476|MENNEVRET|
|FR0775|02488|MOLAIN|
|FR0776|02491|MONCEAU LE NEUF ET FOUCAUZY|
|FR0777|02494|MONCEAU SUR OISE|
|FR0778|02495|MONDREPUIS|
|FR0779|02502|MONTCORNET|
|FR0780|02519|MONTLOUE|
|FR0781|02522|MONT SAINT JEAN|
|FR0782|02526|MORGNY EN THIERACHE|
|FR0783|02535|NAMPCELLES LA COUR|
|FR0784|02544|NEUVE MAISON|
|FR0785|02547|LA NEUVILLE HOUSSET|
|FR0786|02548|LA NEUVILLE LES DORENGT|
|FR0787|02556|NOIRCOURT|
|FR0788|02558|LE NOUVION EN THIERACHE|
|FR0789|02563|NOYALES|
|FR0790|02567|OHIS|
|FR0791|02569|OISY|
|FR0792|02574|ORIGNY EN THIERACHE|
|FR0793|02584|PAPLEUX|
|FR0794|02586|PARFONDEVAL|
|FR0795|02608|VERVINS|
|FR0796|02623|PRISCES|
|FR0797|02624|PROISY|
|FR0798|02625|PROIX|
|FR0799|02629|PUISIEUX ET CLANLIEU|
|FR0800|02634|RAILLIMONT|
|FR0801|02641|RENNEVAL|
|FR0802|02642|RESIGNY|
|FR0803|02647|RIBEAUVILLE|
|FR0804|02650|ROCQUIGNY|
|FR0805|02652|ROGNY|
|FR0806|02654|ROMERY|
|FR0807|02657|ROUGERIES|
|FR0808|02660|ROUVROY SUR SERRE|
|FR0809|02666|ROZOY SUR SERRE|
|FR0810|02668|SAINS RICHAUMONT|
|FR0811|02670|SAINT ALGIS|
|FR0812|02674|SAINT CLEMENT|
|FR0813|02678|SAINTE GENEVIEVE|
|FR0814|02681|SAINT GOBERT|
|FR0815|02683|SAINT MARTIN RIVIERE|
|FR0816|02684|SAINT MICHEL|
|FR0817|02688|SAINT PIERRE LES FRANQUEVILLE|
|FR0818|02723|SOIZE|
|FR0819|02725|SOMMERON|
|FR0820|02728|SORBAIS|
|FR0821|02731|LE SOURD|
|FR0822|02740|THENAILLES|
|FR0823|02743|LE THUEL|
|FR0824|02753|TUPIGNY|
|FR0825|02757|VADENCOURT|
|FR0826|02759|LA VALLEE AU BLE|
|FR0827|02760|LA VALLEE MULATRE|
|FR0828|02769|VAUX ANDIGNY|
|FR0829|02779|VENEROLLES|
|FR0830|02783|GRAND VERLY|
|FR0831|02784|PETIT VERLY|
|FR0832|02789|PLOMION|
|FR0833|02801|VIGNEUX HOCQUET|
|FR0834|02802|VILLE AUX BOIS LES DIZY|
|FR0835|02814|VILLERS LES GUISE|
|FR0836|02819|VINCY REUIL ET MAGNY|
|FR0837|02823|VOHARIES|
|FR0838|02826|VOULPAIX|
|FR0839|02830|WASSIGNY|
|FR0840|02831|WATIGNY|
|FR0841|02832|WIEGE FATY|
|FR0842|02833|WIMY|
|FR0843|60007|AGNETZ|
|FR0844|60008|AIRION|
|FR0845|60014|ANGIVILLERS|
|FR0846|60016|ANSACQ|
|FR0847|60034|AVRECHY|
|FR0848|60106|BREUIL LE SEC|
|FR0849|60107|BREUIL LE VERT|
|FR0850|60112|BRUNVILLERS LA MOTTE|
|FR0851|60115|BULLES|
|FR0852|60116|BURY|
|FR0853|60120|CAMBRONNE LES CLERMONT|
|FR0854|60133|CATILLON FUMECHON|
|FR0855|60137|CERNOY|
|FR0856|60157|CLERMONT|
|FR0857|60158|COIVREL|
|FR0858|60168|COURCELLES EPAYELLES|
|FR0859|60177|CRESSONSACQ|
|FR0860|60179|CREVECOEUR LE PETIT|
|FR0861|60186|CUIGNIERES|
|FR0862|60200|DOMFRONT|
|FR0863|60201|DOMPIERRE|
|FR0864|60215|ERQUERY|
|FR0865|60216|ERQUINVILLERS|
|FR0866|60222|ESSUILES|
|FR0867|60225|ETOUY|
|FR0868|60232|FERRIERES|
|FR0869|60234|FITZ JAMES|
|FR0870|60247|FOUILLEUSE|
|FR0871|60252|FOURNIVAL|
|FR0872|60262|LE FRESTOY VAUX|
|FR0873|60268|GANNES|
|FR0874|60276|GODENVILLERS|
|FR0875|60285|GRANDVILLERS AUX BOIS|
|FR0876|60345|LAMECOURT|
|FR0877|60357|LEGLANTIERS|
|FR0878|60364|LIEUVILLERS|
|FR0879|60374|MAIGNELAY MONTIGNY|
|FR0880|60375|MAIMBEVILLE|
|FR0881|60394|MENEVILLERS|
|FR0882|60396|MERY LA BATAILLE|
|FR0883|60400|LE MESNIL SUR BULLES|
|FR0884|60416|MONTGERAIN|
|FR0885|60418|MONTIERS|
|FR0886|60439|MOUY|
|FR0887|60440|MOYENNEVILLE|
|FR0888|60451|NEUILLY SOUS CLERMONT|
|FR0889|60456|LANEUVILLEROY|
|FR0890|60464|NOINTEL|
|FR0891|60466|NOROY|
|FR0892|60468|NOURARD LE FRANC|
|FR0893|60495|PLAINVAL|
|FR0894|60497|LE PLESSIER SUR BULLES|
|FR0895|60498|LE PLESSIER ST JUST|
|FR0896|60503|LE PLOYRON|
|FR0897|60515|PRONLEROY|
|FR0898|60522|QUINQUEMPOIX|
|FR0899|60526|RAVENEL|
|FR0900|60529|REMECOURT|
|FR0901|60553|ROUVILLERS|
|FR0902|60556|ROYAUCOURT|
|FR0903|60564|SAINS MORAINVILLERS|
|FR0904|60568|SAINT AUBIN SOUS ERQUERY|
|FR0905|60581|SAINT JUST EN CHAUSSEE|
|FR0906|60585|SAINT MARTIN AUX BOIS|
|FR0907|60595|SAINT REMY EN L'EAU|
|FR0908|60643|TRICOT|
|FR0909|60653|VALESCOURT|
|FR0910|60698|WACQUEMOULIN|
|FR0911|60701|WAVIGNIES|
|FR0912|60702|WELLES PERENNES|
|FR0913|60023|ARMANCOURT|
|FR0914|60024|ARSY|
|FR0915|60025|ATTICHY|
|FR0916|60032|AUTRECHES|
|FR0917|60036|AVRIGNY|
|FR0918|60040|BAILLEUL LE SOC|
|FR0919|60064|BERNEUIL SUR AISNE|
|FR0920|60067|BETHISY SAINT MARTIN|
|FR0921|60068|BETHISY SAINT PIERRE|
|FR0922|60070|BIENVILLE|
|FR0923|60072|BITRY|
|FR0924|60078|BLINCOURT|
|FR0925|60125|CANLY|
|FR0926|60145|CHELLES|
|FR0927|60149|CHEVRIERES|
|FR0928|60151|CHOISY AU BAC|
|FR0929|60152|CHOISY LA VICTOIRE|
|FR0930|60156|CLAIROIX|
|FR0931|60159|COMPIEGNE|
|FR0932|60167|COULOISY|
|FR0933|60171|COURTIEUX|
|FR0934|60184|CROUTOY|
|FR0935|60188|CUISE LA MOTTE|
|FR0936|60210|EPINEUSE|
|FR0937|60223|ESTREES SAINT DENIS|
|FR0938|60229|LE FAYEL|
|FR0939|60254|FRANCIERES|
|FR0940|60284|GRANDFRESNOY|
|FR0941|60305|HAUTEFONTAINE|
|FR0942|60308|HEMEVILLERS|
|FR0943|60318|HOUDANCOURT|
|FR0944|60323|JANVILLE|
|FR0945|60324|JAULZY|
|FR0946|60325|JAUX|
|FR0947|60326|JONQUIERES|
|FR0948|60337|LACHELLE|
|FR0949|60338|LACROIX ST OUEN|
|FR0950|60369|LONGUEIL STE MARIE|
|FR0951|60382|MARGNY LES COMPIEGNE|
|FR0952|60402|LE MEUX|
|FR0953|60424|MONTMARTIN|
|FR0954|60438|MOULIN SOUS TOUVENT|
|FR0955|60441|MOYVILLERS|
|FR0956|60445|NAMPCEL|
|FR0957|60447|NERY|
|FR0958|60491|PIERREFONDS|
|FR0959|60531|REMY|
|FR0960|60534|RETHONDES|
|FR0961|60540|RIVECOURT|
|FR0962|60569|SAINT CREPIN AUX BOIS|
|FR0963|60572|SAINT ETIENNE ROILAYE|
|FR0964|60578|SAINTINES|
|FR0965|60579|SAINT JEAN AUX BOIS|
|FR0966|60593|SAINT PIERRE LES BITRY|
|FR0967|60597|SAINT SAUVEUR|
|FR0968|60600|SAINT VAAST DE LONGMONT|
|FR0969|60641|TRACY LE MONT|
|FR0970|60647|TROSLY BREUIL|
|FR0971|60665|VENETTE|
|FR0972|60667|VERBERIE|
|FR0973|60674|VIEUX MOULIN|
|FR0974|60042|BAILLEVAL|
|FR0975|60134|CAUFFRY|
|FR0976|60173|CRAMOISY|
|FR0977|60175|CREIL|
|FR0978|60342|LAIGNEVILLE|
|FR0979|60391|MAYSEL|
|FR0980|60404|MOGNEVILLE|
|FR0981|60409|MONCHY SAINT ELOY|
|FR0982|60414|MONTATAIRE|
|FR0983|60463|NOGENT SUR OISE|
|FR0984|60524|RANTIGNY|
|FR0985|60551|ROUSSELOY|
|FR0986|60584|SAINT LEU D'ESSERENT|
|FR0987|60589|SAINT MAXIMIN|
|FR0988|60601|SAINT VAAST LES MELLO|
|FR0989|60635|THIVERNY|
|FR0990|60669|VERDERONNE|
|FR0991|60684|VILLERS SAINT PAUL|
|FR0992|60001|ABANCOURT|
|FR0993|60003|ABBEVILLE SAINT LUCIEN|
|FR0994|60004|ACHY|
|FR0995|60009|ALLONNE|
|FR0996|60017|ANSAUVILLERS|
|FR0997|60026|AUCHY LA MONTAGNE|
|FR0998|60029|AUNEUIL|
|FR0999|60030|AUTEUIL|
|FR1000|60039|BACOUEL|
|FR1001|60041|BAILLEUL SUR THERAIN|
|FR1002|60049|BAZANCOURT|
|FR1003|60051|BEAUDEDUIT|
|FR1004|60057|BEAUVAIS|
|FR1005|60058|BEAUVOIR|
|FR1006|60063|BERNEUIL EN BRAY|
|FR1007|60073|BLACOURT|
|FR1008|60075|BLANCFOSSE|
|FR1009|60076|BLARGIES|
|FR1010|60077|BLICOURT|
|FR1011|60081|BONLIER|
|FR1012|60082|BONNEUIL LES EAUX|
|FR1013|60084|BONNIERES|
|FR1014|60085|BONVILLERS|
|FR1015|60096|BOUTAVENT|
|FR1016|60098|BOUVRESSE|
|FR1017|60103|BRESLES|
|FR1018|60104|BRETEUIL|
|FR1019|60108|BRIOT|
|FR1020|60109|BROMBOS|
|FR1021|60110|BROQUIERS|
|FR1022|60111|BROYES|
|FR1023|60113|BUCAMPS|
|FR1024|60114|BUICOURT|
|FR1025|60122|CAMPEAUX|
|FR1026|60123|CAMPREMY|
|FR1027|60128|CANNY SUR THERAIN|
|FR1028|60131|CATHEUX|
|FR1029|60136|CEMPUIS|
|FR1030|60146|CHEPOIX|
|FR1031|60153|CHOQUEUSE LES BENARDS|
|FR1032|60161|CONTEVILLE|
|FR1033|60163|CORMEILLES|
|FR1034|60164|LE COUDRAY SAINT GERMER|
|FR1035|60178|CREVECOEUR LE GRAND|
|FR1036|60180|CRILLON|
|FR1037|60182|LE CROCQ|
|FR1038|60183|CROISSY SUR CELLE|
|FR1039|60187|CUIGY EN BRAY|
|FR1040|60193|DAMERAUCOURT|
|FR1041|60194|DARGIES|
|FR1042|60199|DOMELIERS|
|FR1043|60205|ELENCOURT|
|FR1044|60214|ERNEMONT BOUTAVENT|
|FR1045|60217|ESCAMES|
|FR1046|60219|ESCLES SAINT PIERRE|
|FR1047|60220|ESPAUBOURG|
|FR1048|60221|ESQUENNOY|
|FR1049|60230|LE FAY SAINT QUENTIN|
|FR1050|60233|FEUQUIERES|
|FR1051|60235|FLAVACOURT|
|FR1052|60237|FLECHY|
|FR1053|60240|FONTAINE BONNELEAU|
|FR1054|60242|FONTAINE LAVAGANNE|
|FR1055|60243|FONTAINE SAINT LUCIEN|
|FR1056|60244|FONTENAY TORCY|
|FR1057|60245|FORMERIE|
|FR1058|60248|FOUILLOY|
|FR1059|60250|FOUQUENIES|
|FR1060|60251|FOUQUEROLLES|
|FR1061|60253|FRANCASTEL|
|FR1062|60264|FROCOURT|
|FR1063|60265|FROISSY|
|FR1064|60267|LE GALLET|
|FR1065|60269|GAUDECHART|
|FR1066|60271|GERBEROY|
|FR1067|60275|GLATIGNY|
|FR1068|60277|GOINCOURT|
|FR1069|60280|GOURCHELLES|
|FR1070|60283|GOUY LES GROSEILLERS|
|FR1071|60286|GRANDVILLIERS|
|FR1072|60288|GREMEVILLERS|
|FR1073|60289|GREZ|
|FR1074|60290|GUIGNECOURT|
|FR1075|60295|HALLOY|
|FR1076|60296|HANNACHES|
|FR1077|60297|LE HAMEL|
|FR1078|60298|HANVOILE|
|FR1079|60299|HARDIVILLERS|
|FR1080|60301|HAUCOURT|
|FR1081|60302|HAUDIVILLERS|
|FR1082|60303|HAUTBOS|
|FR1083|60304|HAUTE EPINE|
|FR1084|60306|HECOURT|
|FR1085|60310|HERCHIES|
|FR1086|60311|LA HERELLE|
|FR1087|60312|HERICOURT SUR THERAIN|
|FR1088|60313|HERMES|
|FR1089|60314|HETOMESNIL|
|FR1090|60315|HODENC EN BRAY|
|FR1091|60328|JUVIGNIES|
|FR1092|60331|LABOSSE|
|FR1093|60333|LACHAPELLE AUX POTS|
|FR1094|60335|LACHAPELLE SOUS GERBEROY|
|FR1095|60336|LACHAUSSEE DU BOIS D'ECU|
|FR1096|60339|LAFRAYE|
|FR1097|60343|LALANDE EN SON|
|FR1098|60344|LALANDELLE|
|FR1099|60347|LANNOY CUILLERE|
|FR1100|60353|LAVACQUERIE|
|FR1101|60354|LAVERRIERE|
|FR1102|60355|LAVERSINES|
|FR1103|60359|LHERAULE|
|FR1104|60365|LIHUS|
|FR1105|60366|LITZ|
|FR1106|60371|LOUEUSE|
|FR1107|60372|LUCHY|
|FR1108|60376|MAISONCELLE ST PIERRE|
|FR1109|60377|MAISONCELLE TUILERIE|
|FR1110|60387|MARSEILLE/BEAUVAISIS|
|FR1111|60388|MARTINCOURT|
|FR1112|60390|MAULERS|
|FR1113|60397|LE MESNIL CONTEVILLE|
|FR1114|60399|LE MESNIL ST FIRMIN|
|FR1115|60403|MILLY SUR THERAIN|
|FR1116|60405|MOLIENS|
|FR1117|60407|MONCEAUX L'ABBAYE|
|FR1118|60425|MONTREUIL SUR BRECHE|
|FR1119|60428|LE MONT ST ADRIEN|
|FR1120|60435|MORVILLERS|
|FR1121|60436|MORY MONTCRUX|
|FR1122|60442|MUIDORGE|
|FR1123|60444|MUREAUMONT|
|FR1124|60454|LA NEUVILLE EN HEZ|
|FR1125|60457|LA NEUVILLE SAINT PIERRE|
|FR1126|60458|LA NEUVILLE SUR OUDEUIL|
|FR1127|60460|LA NEUVILLE VAULT|
|FR1128|60461|NIVILLERS|
|FR1129|60465|NOIREMONT|
|FR1130|60470|NOYERS ST MARTIN|
|FR1131|60472|OFFOY|
|FR1132|60476|OMECOURT|
|FR1133|60477|ONS EN BRAY|
|FR1134|60480|OROER|
|FR1135|60484|OUDEUIL|
|FR1136|60485|OURSEL MAISON|
|FR1137|60486|PAILLART|
|FR1138|60490|PIERREFITTE EN BEAUVAISIS|
|FR1139|60493|PISSELEU|
|FR1140|60496|PLAINVILLE|
|FR1141|60514|PREVILLERS|
|FR1142|60516|PUISEUX EN BRAY|
|FR1143|60518|PUITS LA VALLEE|
|FR1144|60520|LE QUESNEL AUBRY|
|FR1145|60521|QUINCAMPOIX FLEUZY|
|FR1146|60523|RAINVILLERS|
|FR1147|60530|REMERANGLES|
|FR1148|60535|REUIL SUR BRECHE|
|FR1149|60542|ROCHY CONDE|
|FR1150|60544|ROCQUENCOURT|
|FR1151|60545|ROMESCAMPS|
|FR1152|60549|ROTANGY|
|FR1153|60550|ROTHOIS|
|FR1154|60555|ROUVROY LES MERLES|
|FR1155|60557|ROY BOISSY|
|FR1156|60559|LA RUE SAINT PIERRE|
|FR1157|60565|SAINT ANDRE FARIVILLERS|
|FR1158|60566|SAINT ARNOULT|
|FR1159|60567|SAINT AUBIN EN BRAY|
|FR1160|60571|SAINT DENISCOURT|
|FR1161|60573|SAINTE EUSOYE|
|FR1162|60576|SAINT GERMAIN LA POTERIE|
|FR1163|60577|SAINT GERMER DE FLY|
|FR1164|60583|SAINT LEGER EN BRAY|
|FR1165|60586|SAINT MARTIN LE NOEUD|
|FR1166|60588|SAINT MAUR|
|FR1167|60590|SAINT OMER EN CHAUSSEE|
|FR1168|60591|SAINT PAUL|
|FR1169|60592|SAINT PIERRE ES CHAMPS|
|FR1170|60594|SAINT QUENTIN DES PRES|
|FR1171|60596|SAINT SAMSON LA POTERIE|
|FR1172|60599|SAINT THIBAULT|
|FR1173|60602|SAINT VALERY|
|FR1174|60604|SARCUS|
|FR1175|60605|SARNOIS|
|FR1176|60608|LE SAULCHOY|
|FR1177|60609|SAVIGNIES|
|FR1178|60611|SENANTES|
|FR1179|60615|SEREVILLERS|
|FR1180|60616|SERIFONTAINE|
|FR1181|60622|SOMMEREUX|
|FR1182|60623|SONGEONS|
|FR1183|60624|SULLY|
|FR1184|60626|TALMONTIERS|
|FR1185|60627|TARTIGNY|
|FR1186|60628|THERDONNE|
|FR1187|60629|THERINES|
|FR1188|60633|THIEULOY ST ANTOINE|
|FR1189|60634|THIEUX|
|FR1190|60639|TILLE|
|FR1191|60646|TROISSEREUX|
|FR1192|60648|TROUSSENCOURT|
|FR1193|60660|LE VAUMAIN|
|FR1194|60662|LE VAUROUX|
|FR1195|60663|VELENNES|
|FR1196|60664|VENDEUIL CAPLY|
|FR1197|60668|VERDEREL LES SAUQUEUSE|
|FR1198|60673|VIEFVILLERS|
|FR1199|60677|VILLEMBRAY|
|FR1200|60681|VILLERS ST BARTHELEMY|
|FR1201|60687|VILLERS SUR AUCHY|
|FR1202|60688|VILLERS SUR BONNIERES|
|FR1203|60691|VILLERS VERMONT|
|FR1204|60692|VILLERS VICOMTE|
|FR1205|60697|VROCOURT|
|FR1206|60699|WAMBEZ|
|FR1207|60700|WARLUIS|
|FR1208|60703|AUX MARAIS|
|FR1209|60011|AMY|
|FR1210|60019|ANTHEUIL PORTES|
|FR1211|60021|APPILLY|
|FR1212|60035|AVRICOURT|
|FR1213|60037|BABOEUF|
|FR1214|60043|BAILLY|
|FR1215|60048|BAUGY|
|FR1216|60052|BEAUGIES SOUS BOIS|
|FR1217|60053|BEAULIEU LES FONTAINES|
|FR1218|60055|BEAURAINS LES NOYON|
|FR1219|60059|BEHERICOURT|
|FR1220|60061|BELLOY|
|FR1221|60062|BERLANCOURT|
|FR1222|60071|BIERMONT|
|FR1223|60093|BOULOGNE LA GRASSE|
|FR1224|60099|BRAISNES|
|FR1225|60105|BRETIGNY|
|FR1226|60117|BUSSY|
|FR1227|60118|CAISNES|
|FR1228|60119|CAMBRONNE LES RIBECOURT|
|FR1229|60121|CAMPAGNE|
|FR1230|60124|CANDOR|
|FR1231|60126|CANNECTANCOURT|
|FR1232|60127|CANNY SUR MATZ|
|FR1233|60129|CARLEPONT|
|FR1234|60132|CATIGNY|
|FR1235|60147|CHEVINCOURT|
|FR1236|60150|CHIRY OURSCAMPS|
|FR1237|60160|CONCHY LES POTS|
|FR1238|60166|COUDUN|
|FR1239|60174|CRAPEAUMESNIL|
|FR1240|60181|CRISOLLES|
|FR1241|60189|CUTS|
|FR1242|60191|CUVILLY|
|FR1243|60192|CUY|
|FR1244|60198|DIVES|
|FR1245|60204|ECUVILLY|
|FR1246|60206|ELINCOURT STE MARGUERITE|
|FR1247|60227|EVRICOURT|
|FR1248|60236|FLAVY LE MELDEUX|
|FR1249|60255|FRENICHES|
|FR1250|60258|FRESNIERES|
|FR1251|60263|FRETOY LE CHATEAU|
|FR1252|60270|GENVRY|
|FR1253|60273|GIRAUMONT|
|FR1254|60278|GOLANCOURT|
|FR1255|60281|GOURNAY SUR ARONDE|
|FR1256|60287|GRANDRU|
|FR1257|60291|GUISCARD|
|FR1258|60292|GURY|
|FR1259|60294|HAINVILLERS|
|FR1260|60329|LABERLIERE|
|FR1261|60340|LAGNY|
|FR1262|60348|LARBROYE|
|FR1263|60350|LASSIGNY|
|FR1264|60351|LATAULE|
|FR1265|60362|LIBERMONT|
|FR1266|60368|LONGUEIL ANNEL|
|FR1267|60373|MACHEMONT|
|FR1268|60378|MAREST/MATZ|
|FR1269|60379|MAREUIL LA MOTTE|
|FR1270|60381|MARGNY AUX CERISES|
|FR1271|60383|MARGNY/MATZ|
|FR1272|60386|MARQUEGLISE|
|FR1273|60389|MAUCOURT|
|FR1274|60392|MELICOCQ|
|FR1275|60408|MONCHY HUMIERES|
|FR1276|60410|MONDESCOURT|
|FR1277|60423|MONTMACQ|
|FR1278|60431|MORLINCOURT|
|FR1279|60434|MORTEMER|
|FR1280|60443|MUIRAUCOURT|
|FR1281|60449|NEUFVY/ARONDE|
|FR1282|60459|LA NEUVILLE SUR RESSONS|
|FR1283|60471|NOYON|
|FR1284|60474|OGNOLLES|
|FR1285|60483|ORVILLERS SOREL|
|FR1286|60488|PASSEL|
|FR1287|60492|PIMPREZ|
|FR1288|60499|PLESSIER DE ROYE|
|FR1289|60501|LE PLESSIS BRION|
|FR1290|60502|LE PLESSIS PATTE D'OIE|
|FR1291|60506|PONT L'EVEQUE|
|FR1292|60507|PONTOISE LES NOYON|
|FR1293|60511|PORQUERICOURT|
|FR1294|60519|QUESMY|
|FR1295|60533|RESSONS/MATZ|
|FR1296|60537|RIBECOURT DRESLINCOURT|
|FR1297|60538|RICQUEBOURG|
|FR1298|60558|ROYE/MATZ|
|FR1299|60582|SAINT LEGER AUX BOIS|
|FR1300|60603|SALENCY|
|FR1301|60610|SEMPIGNY|
|FR1302|60617|SERMAIZE|
|FR1303|60621|SOLENTE|
|FR1304|60625|SUZOY|
|FR1305|60632|THIESCOURT|
|FR1306|60636|THOUROTTE|
|FR1307|60642|TRACY LE VAL|
|FR1308|60654|VANDELICOURT|
|FR1309|60655|VARESNES|
|FR1310|60657|VAUCHELLES|
|FR1311|60675|VIGNEMONT|
|FR1312|60676|VILLE|
|FR1313|60689|VILLERS SUR COUDUN|
|FR1314|60693|VILLESELVE|
|FR1315|60005|ACY EN MULTIEN|
|FR1316|60006|LES AGEUX|
|FR1317|60013|ANGICOURT|
|FR1318|60020|ANTILLY|
|FR1319|60022|APREMONT|
|FR1320|60027|AUGER SAINT VINCENT|
|FR1321|60028|AUMONT EN HALATTE|
|FR1322|60031|AUTHEUIL EN VALOIS|
|FR1323|60033|AVILLY SAINT LEONARD|
|FR1324|60045|BARBERY|
|FR1325|60046|BARGNY|
|FR1326|60047|BARON|
|FR1327|60050|BAZICOURT|
|FR1328|60056|BEAUREPAIRE|
|FR1329|60066|BETHANCOURT EN VALOIS|
|FR1330|60069|BETZ|
|FR1331|60074|BLAINCOURT LES PRECY|
|FR1332|60079|BOISSY FRESNOY|
|FR1333|60083|BONNEUIL EN VALOIS|
|FR1334|60086|BORAN SUR OISE|
|FR1335|60087|BOREST|
|FR1336|60091|BOUILLANCY|
|FR1337|60092|BOULLARRE|
|FR1338|60094|BOURSONNE|
|FR1339|60100|BRASSEUSE|
|FR1340|60101|BREGY|
|FR1341|60102|BRENOUILLE|
|FR1342|60138|CHAMANT|
|FR1343|60141|CHANTILLY|
|FR1344|60142|LA CHAPELLE EN SERVAL|
|FR1345|60148|CHEVREVILLE|
|FR1346|60154|CINQUEUX|
|FR1347|60155|CIRES LES MELLO|
|FR1348|60170|COURTEUIL|
|FR1349|60172|COYE LA FORET|
|FR1350|60176|CREPY EN VALOIS|
|FR1351|60190|CUVERGNON|
|FR1352|60203|DUVY|
|FR1353|60207|EMEVILLE|
|FR1354|60213|ERMENONVILLE|
|FR1355|60224|ETAVIGNY|
|FR1356|60226|EVE|
|FR1357|60231|FEIGNEUX|
|FR1358|60238|FLEURINES|
|FR1359|60241|FONTAINE CHAALIS|
|FR1360|60260|FRESNOY LA RIVIERE|
|FR1361|60261|FRESNOY LE LUAT|
|FR1362|60272|GILLOCOURT|
|FR1363|60274|GLAIGNES|
|FR1364|60279|GONDREVILLE|
|FR1365|60282|GOUVIEUX|
|FR1366|60320|IVORS|
|FR1367|60341|LAGNY LE SEC|
|FR1368|60346|LAMORLAYE|
|FR1369|60358|LEVIGNEN|
|FR1370|60380|MAREUIL/OURCQ|
|FR1371|60385|MAROLLES|
|FR1372|60393|MELLO|
|FR1373|60406|MONCEAUX|
|FR1374|60413|MONTAGNY STE FELICITE|
|FR1375|60415|MONTEPILLOY|
|FR1376|60421|MONT L'EVEQUE|
|FR1377|60422|MONTLOGNON|
|FR1378|60430|MORIENVAL|
|FR1379|60432|MORTEFONTAINE|
|FR1380|60446|NANTEUIL LE HAUDOUIN|
|FR1381|60448|NEUFCHELLES|
|FR1382|60473|OGNES|
|FR1383|60475|OGNON|
|FR1384|60478|ORMOY LE DAVIEN|
|FR1385|60479|ORMOY VILLERS|
|FR1386|60481|ORROUY|
|FR1387|60482|ORRY LA VILLE|
|FR1388|60489|PEROY LES GOMBRIES|
|FR1389|60494|PLAILLY|
|FR1390|60500|LE PLESSIS BELLEVILLE|
|FR1391|60505|PONTARME|
|FR1392|60508|PONTPOINT|
|FR1393|60509|PONT STE MAXENCE|
|FR1394|60513|PRECY SUR OISE|
|FR1395|60525|RARAY|
|FR1396|60527|REEZ FOSSE MARTIN|
|FR1397|60536|RHUIS|
|FR1398|60539|RIEUX|
|FR1399|60541|ROBERVAL|
|FR1400|60543|ROCQUEMONT|
|FR1401|60546|ROSIERES|
|FR1402|60548|ROSOY EN MULTIEN|
|FR1403|60552|ROUVILLE|
|FR1404|60554|ROUVRES|
|FR1405|60560|RULLY|
|FR1406|60561|RUSSY BEMONT|
|FR1407|60562|SACY LE GRAND|
|FR1408|60563|SACY LE PETIT|
|FR1409|60587|SAINT MARTIN LONGUEAU|
|FR1410|60612|SENLIS|
|FR1411|60618|SERY MAGNEVAL|
|FR1412|60619|SILLY LE LONG|
|FR1413|60631|THIERS SUR THEVE|
|FR1414|60637|THURY EN VALOIS|
|FR1415|60650|TRUMILLY|
|FR1416|60656|VARINFROY|
|FR1417|60658|VAUCIENNES|
|FR1418|60661|VAUMOISE|
|FR1419|60666|VER SUR LAUNETTE|
|FR1420|60670|VERNEUIL EN HALATTE|
|FR1421|60671|VERSIGNY|
|FR1422|60672|VEZ|
|FR1423|60679|LA VILLENEUVE SOUS THURY|
|FR1424|60680|VILLENEUVE/VERBERIE|
|FR1425|60682|VILLERS ST FRAMBOURG|
|FR1426|60683|VILLERS SAINT GENEST|
|FR1427|60686|VILLERS SOUS SAINT LEU|
|FR1428|60695|VINEUIL SAINT FIRMIN|
|FR1429|60002|ABBECOURT|
|FR1430|60010|AMBLAINVILLE|
|FR1431|60012|ANDEVILLE|
|FR1432|60015|ANGY|
|FR1433|60018|ANSERVILLE|
|FR1434|60038|BACHIVILLERS|
|FR1435|60044|BALAGNY SUR THERAIN|
|FR1436|60054|BEAUMONT LES NONAINS|
|FR1437|60060|BELLE EGLISE|
|FR1438|60065|BERTHECOURT|
|FR1439|60080|BOISSY LE BOIS|
|FR1440|60088|BORNEL|
|FR1441|60089|BOUBIERS|
|FR1442|60090|BOUCONVILLERS|
|FR1443|60095|BOURY EN VEXIN|
|FR1444|60097|BOUTENCOURT|
|FR1445|60135|CAUVIGNY|
|FR1446|60139|CHAMBLY|
|FR1447|60140|CHAMBORS|
|FR1448|60143|CHAUMONT EN VEXIN|
|FR1449|60144|CHAVENCON|
|FR1450|60162|CORBEIL CERF|
|FR1451|60165|COUDRAY SUR THELLE|
|FR1452|60169|COURCELLES LES GISORS|
|FR1453|60185|CROUY EN THELLE|
|FR1454|60195|DELINCOURT|
|FR1455|60196|LE DELUGE|
|FR1456|60197|DIEUDONNE|
|FR1457|60208|ENENCOURT LEAGE|
|FR1458|60209|ENENCOURT LE SEC|
|FR1459|60211|ERAGNY SUR EPTE|
|FR1460|60212|ERCUIS|
|FR1461|60218|ESCHES|
|FR1462|60228|FAY LES ETANGS|
|FR1463|60239|FLEURY|
|FR1464|60246|FOSSEUSE|
|FR1465|60249|FOULANGUES|
|FR1466|60256|FRESNEAUX MONTCHEVREUIL|
|FR1467|60257|FRESNES LEGUILLON|
|FR1468|60259|FRESNOY EN THELLE|
|FR1469|60293|HADANCOURT LE HT CLOCHER|
|FR1470|60300|HARDIVILLERS EN VEXIN|
|FR1471|60307|HEILLES|
|FR1472|60309|HENONVILLE|
|FR1473|60316|HODENC L'EVEQUE|
|FR1474|60317|HONDAINVILLE|
|FR1475|60319|LA HOUSSOYE|
|FR1476|60321|IVRY LE TEMPLE|
|FR1477|60322|JAMERICOURT|
|FR1478|60327|JOUY SOUS THELLE|
|FR1479|60330|LABOISSIERE EN THELLE|
|FR1480|60334|LACHAPELLE ST PIERRE|
|FR1481|60352|LATTAINVILLE|
|FR1482|60356|LAVILLETERTRE|
|FR1483|60361|LIANCOURT ST PIERRE|
|FR1484|60363|LIERVILLE|
|FR1485|60367|LOCONVILLE|
|FR1486|60370|LORMAISON|
|FR1487|60395|MERU|
|FR1488|60398|LE MESNIL EN THELLE|
|FR1489|60401|LE MESNIL THERIBUS|
|FR1490|60411|MONNEVILLE|
|FR1491|60412|MONTAGNY EN VEXIN|
|FR1492|60417|MONTHERLANT|
|FR1493|60420|MONTJAVOULT|
|FR1494|60426|MONTREUIL/THERAIN|
|FR1495|60427|MONTS|
|FR1496|60429|MORANGLES|
|FR1497|60433|MORTEFONTAINE EN THELLE|
|FR1498|60437|MOUCHY LE CHATEL|
|FR1499|60450|NEUILLY EN THELLE|
|FR1500|60452|NEUVILLE BOSC|
|FR1501|60453|LA NEUVILLE D'AUMONT|
|FR1502|60455|LA NEUVILLE GARNIER|
|FR1503|60462|NOAILLES|
|FR1504|60469|NOVILLERS LES CAILLOUX|
|FR1505|60487|PARNES|
|FR1506|60504|PONCHON|
|FR1507|60510|PORCHEUX|
|FR1508|60512|POUILLY|
|FR1509|60517|PUISEUX LE HAUBERGER|
|FR1510|60528|REILLY|
|FR1511|60532|RESSONS|
|FR1512|60570|SAINT CREPIN IBOUVILLERS|
|FR1513|60574|SAINT FELIX|
|FR1514|60575|SAINTE GENEVIEVE|
|FR1515|60598|SAINT SULPICE|
|FR1516|60613|SENOTS|
|FR1517|60614|SERANS|
|FR1518|60620|SILLY TILLARD|
|FR1519|60630|THIBIVILLERS|
|FR1520|60638|THURY SOUS CLERMONT|
|FR1521|60640|TOURLY|
|FR1522|60644|TRIE CHATEAU|
|FR1523|60645|TRIE LA VILLE|
|FR1524|60649|TROUSSURES|
|FR1525|60651|ULLY SAINT GEORGES|
|FR1526|60652|VALDAMPIERRE|
|FR1527|60659|VAUDANCOURT|
|FR1528|60678|VILLENEUVE LES SABLONS|
|FR1529|60685|VILLERS ST SEPULCRE|
|FR1530|60690|VILLERS SUR TRIE|
|FR1531|60694|VILLOTRAN|
|FR1532|60130|CATENOY|
|FR1533|60332|LABRUYERE|
|FR1534|60360|LIANCOURT|
|FR1535|60547|ROSOY|
|FR1536|80003|ACHEUX EN AMIENOIS|
|FR1537|80005|AGENVILLE|
|FR1538|80010|AILLY SUR NOYE|
|FR1539|80011|AILLY SUR SOMME|
|FR1540|80013|AIRAINES|
|FR1541|80016|ALBERT|
|FR1542|80020|ALLONVILLE|
|FR1543|80021|AMIENS|
|FR1544|80022|ANDAINVILLE|
|FR1545|80024|ARGOEUVES|
|FR1546|80026|ARGUEL|
|FR1547|80028|ARQUEVES|
|FR1548|80036|AUBIGNY|
|FR1549|80037|AUBVILLERS|
|FR1550|80038|AUCHONVILLERS|
|FR1551|80040|AUMATRE|
|FR1552|80041|AUMONT|
|FR1553|80042|AUTHEUX|
|FR1554|80043|AUTHIE|
|FR1555|80044|AUTHIEULE|
|FR1556|80045|AUTHUILLE|
|FR1557|80046|AVELESGES|
|FR1558|80047|AVELUY|
|FR1559|80048|AVESNES CHAUSSOY|
|FR1560|80050|BACOUEL SUR SELLE|
|FR1561|80052|BAIZIEUX|
|FR1562|80055|BARLY|
|FR1563|80056|BAVELINCOURT|
|FR1564|80057|BAYENCOURT|
|FR1565|80059|BAZENTIN|
|FR1566|80060|BEALCOURT|
|FR1567|80061|BEAUCAMPS LE JEUNE|
|FR1568|80062|BEAUCAMPS LE VIEUX|
|FR1569|80065|BEAUCOURT SUR L'ANCRE|
|FR1570|80066|BEAUCOURT SUR L'HALLUE|
|FR1571|80068|BEAUMETZ|
|FR1572|80069|BEAUMONT HAMEL|
|FR1573|80070|BEAUQUESNE|
|FR1574|80071|BEAUVAL|
|FR1575|80073|BECORDEL BECOURT|
|FR1576|80077|BEHENCOURT|
|FR1577|80079|BELLEUSE|
|FR1578|80081|BELLOY SAINT LEONARD|
|FR1579|80082|BELLOY SUR SOMME|
|FR1580|80083|BERGICOURT|
|FR1581|80084|BERMESNIL|
|FR1582|80085|BERNATRE|
|FR1583|80086|BERNAVILLE|
|FR1584|80089|BERNEUIL|
|FR1585|80092|BERTANGLES|
|FR1586|80093|BERTEAUCOURT LES DAMES|
|FR1587|80095|BERTRANCOURT|
|FR1588|80098|BETTEMBOS|
|FR1589|80100|BETTENCOURT SAINT OUEN|
|FR1590|80106|BLANGY SOUS POIX|
|FR1591|80107|BLANGY TRONVILLE|
|FR1592|80108|BOISBERGUES|
|FR1593|80112|BONNAY|
|FR1594|80113|BONNEVILLE|
|FR1595|80114|BOSQUEL|
|FR1596|80117|BOUCHON|
|FR1597|80119|BOUGAINVILLE|
|FR1598|80122|BOUQUEMAISON|
|FR1599|80123|BOURDON|
|FR1600|80129|BOUZINCOURT|
|FR1601|80130|BOVELLES|
|FR1602|80131|BOVES|
|FR1603|80134|BRASSY|
|FR1604|80136|BRAY SUR SOMME|
|FR1605|80137|BREILLY|
|FR1606|80138|BRESLE|
|FR1607|80140|BREVILLERS|
|FR1608|80142|BRIQUEMESNIL FLOXICOURT|
|FR1609|80143|BROCOURT|
|FR1610|80151|BUIRE SUR L'ANCRE|
|FR1611|80153|BUS LES ARTOIS|
|FR1612|80156|BUSSY LES DAOURS|
|FR1613|80157|BUSSY LES POIX|
|FR1614|80159|CACHY|
|FR1615|80160|CAGNY|
|FR1616|80164|CAMON|
|FR1617|80165|CAMPS EN AMIENOIS|
|FR1618|80166|CANAPLES|
|FR1619|80168|CANDAS|
|FR1620|80169|CANNESSIERES|
|FR1621|80172|CAPPY|
|FR1622|80173|CARDONNETTE|
|FR1623|80179|CAULIERES|
|FR1624|80180|CAVILLON|
|FR1625|80183|CERISY BULEUX|
|FR1626|80184|CERISY|
|FR1627|80187|LA CHAUSSEE TIRANCOURT|
|FR1628|80188|CHAUSSOY EPAGNY|
|FR1629|80192|CHIPILLY|
|FR1630|80193|CHIRMONT|
|FR1631|80195|CHUIGNOLLES|
|FR1632|80198|CLAIRY SAULCHOIX|
|FR1633|80201|COIGNEUX|
|FR1634|80202|COISY|
|FR1635|80203|COLINCAMPS|
|FR1636|80206|CONTALMAISON|
|FR1637|80207|CONTAY|
|FR1638|80208|CONTEVILLE|
|FR1639|80210|CONTRE|
|FR1640|80211|CONTY|
|FR1641|80212|CORBIE|
|FR1642|80213|COTTENCHY|
|FR1643|80214|COULLEMELLE|
|FR1644|80216|COURCELETTE|
|FR1645|80217|COURCELLES AU BOIS|
|FR1646|80218|COURCELLES SOUS MOYENCOUR|
|FR1647|80219|COURCELLES SOUS THOIX|
|FR1648|80225|CREUSE|
|FR1649|80227|CROIXRAULT|
|FR1650|80229|CROUY SAINT PIERRE|
|FR1651|80234|DAOURS|
|FR1652|80238|DERNANCOURT|
|FR1653|80241|DOMART EN PONTHIEU|
|FR1654|80243|DOMESMONT|
|FR1655|80245|DOMLEGER LONGVILLERS|
|FR1656|80246|DOMMARTIN|
|FR1657|80253|DOULLENS|
|FR1658|80256|DREUIL LES AMIENS|
|FR1659|80259|DROMESNIL|
|FR1660|80261|DURY|
|FR1661|80264|ECLUSIER VAUX|
|FR1662|80266|ENGLEBELMER|
|FR1663|80269|EPAUMESNIL|
|FR1664|80270|EPECAMPS|
|FR1665|80273|EPLESSIER|
|FR1666|80276|EQUENNES ERAMECOURT|
|FR1667|80283|ESCLAINVILLERS|
|FR1668|80285|ESSERTAUX|
|FR1669|80291|ESTREES SUR NOYE|
|FR1670|80295|ETINEHEM|
|FR1671|80296|L'ETOILE|
|FR1672|80297|ETREJUST|
|FR1673|80299|LA FALOISE|
|FR1674|80301|FAMECHON|
|FR1675|80305|FERRIERES|
|FR1676|80310|FIENVILLERS|
|FR1677|80315|FLERS SUR NOYE|
|FR1678|80316|FLESSELLES|
|FR1679|80317|FLEURY|
|FR1680|80318|FLIXECOURT|
|FR1681|80319|FLUY|
|FR1682|80321|FOLLEVILLE|
|FR1683|80324|FONTAINE LE SEC|
|FR1684|80329|FORCEVILLE|
|FR1685|80330|FORCEVILLE EN VIMEU|
|FR1686|80334|FOSSEMANANT|
|FR1687|80336|FOUCAUCOURT HORS NESLE|
|FR1688|80337|FOUENCAMPS|
|FR1689|80338|FOUILLOY|
|FR1690|80340|FOURCIGNY|
|FR1691|80341|FOURDRINOY|
|FR1692|80343|FRAMICOURT|
|FR1693|80346|FRANQUEVILLE|
|FR1694|80348|FRANSU|
|FR1695|80349|FRANSURES|
|FR1696|80350|FRANVILLERS|
|FR1697|80351|FRECHENCOURT|
|FR1698|80352|FREMONTIERS|
|FR1699|80354|FRESNES TILLOLOY|
|FR1700|80355|FRESNEVILLE|
|FR1701|80356|FRESNOY ANDAINVILLE|
|FR1702|80357|FRESNOY AU VAL|
|FR1703|80361|FRETTECUISSE|
|FR1704|80365|FRICAMPS|
|FR1705|80366|FRICOURT|
|FR1706|80367|FRISE|
|FR1707|80369|FROHEN LE GRAND|
|FR1708|80370|FROHEN LE PETIT|
|FR1709|80375|GAUVILLE|
|FR1710|80376|GENTELLES|
|FR1711|80377|GEZAINCOURT|
|FR1712|80379|GLISY|
|FR1713|80381|GORGES|
|FR1714|80384|GRANDCOURT|
|FR1715|80387|GRATTEPANCHE|
|FR1716|80390|GRIVESNES|
|FR1717|80392|GROUCHES LUCHUEL|
|FR1718|80399|GUIGNEMICOURT|
|FR1719|80402|GUIZANCOURT|
|FR1720|80403|GUYENCOURT SUR NOYE|
|FR1721|80407|HALLIVILLERS|
|FR1722|80408|HALLOY LES PERNOIS|
|FR1723|80411|LE HAMEL|
|FR1724|80412|HAMELET|
|FR1725|80416|HANGEST SUR SOMME|
|FR1726|80420|HARPONVILLE|
|FR1727|80423|HAVERNAS|
|FR1728|80424|HEBECOURT|
|FR1729|80425|HEDAUVILLE|
|FR1730|80426|HEILLY|
|FR1731|80427|HEM HARDINVAL|
|FR1732|80429|HENENCOURT|
|FR1733|80430|HERBECOURT|
|FR1734|80431|HERISSART|
|FR1735|80436|HESCAMPS|
|FR1736|80437|HEUCOURT CROQUOISON|
|FR1737|80439|HEUZECOURT|
|FR1738|80440|HIERMONT|
|FR1739|80443|HORNOY LE BOURG|
|FR1740|80445|HUMBERCOURT|
|FR1741|80450|INVAL BOIRON|
|FR1742|80451|IRLES|
|FR1743|80452|JUMEL|
|FR1744|80455|LACHAPELLE|
|FR1745|80456|LAFRESGUIMONT ST MARTIN|
|FR1746|80458|LAHOUSSOYE|
|FR1747|80459|LALEU|
|FR1748|80460|LAMARONDE|
|FR1749|80461|LAMOTTE BREBIERE|
|FR1750|80463|LAMOTTE WARFUSEE|
|FR1751|80466|LANCHES SAINT HILAIRE|
|FR1752|80468|LAVIEVILLE|
|FR1753|80469|LAWARDE MAUGER L'HORTOY|
|FR1754|80470|LEALVILLERS|
|FR1755|80479|LIGNIERES CHATELAIN|
|FR1756|80480|LIGNIERES EN VIMEU|
|FR1757|80484|LIOMER|
|FR1758|80485|LOEUILLY|
|FR1759|80489|LONGUEAU|
|FR1760|80491|LONGUEVILLETTE|
|FR1761|80493|LOUVENCOURT|
|FR1762|80494|LOUVRECHY|
|FR1763|80495|LUCHEUX|
|FR1764|80498|MAILLY MAILLET|
|FR1765|80499|MAILLY RAINEVAL|
|FR1766|80503|MAIZICOURT|
|FR1767|80505|MAMETZ|
|FR1768|80507|MARCELCAVE|
|FR1769|80514|MARIEUX|
|FR1770|80515|MARLERS|
|FR1771|80522|LE MAZIS|
|FR1772|80523|MEAULTE|
|FR1773|80525|MEIGNEUX|
|FR1774|80526|LE MEILLARD|
|FR1775|80528|MEREAUCOURT|
|FR1776|80530|MERICOURT L'ABBE|
|FR1777|80531|MERICOURT EN VIMEU|
|FR1778|80532|MERICOURT SUR SOMME|
|FR1779|80535|LE MESGE|
|FR1780|80540|MESNIL MARTINSART|
|FR1781|80543|METIGNY|
|FR1782|80544|MEZEROLLES|
|FR1783|80547|MILLENCOURT|
|FR1784|80549|MIRAUMONT|
|FR1785|80550|MIRVAUX|
|FR1786|80553|MOLLIENS AU BOIS|
|FR1787|80554|MOLLIENS DREUIL|
|FR1788|80558|MONSURES|
|FR1789|80559|MONTAGNE FAYEL|
|FR1790|80562|MONTIGNY SUR L'HALLUE|
|FR1791|80563|MONTIGNY LES JONGLEURS|
|FR1792|80565|MONTONVILLERS|
|FR1793|80566|FIEFFES MONTRELET|
|FR1794|80569|MORCOURT|
|FR1795|80572|MORLANCOURT|
|FR1796|80573|MORVILLERS ST SATURNIN|
|FR1797|80575|MOUFLIERES|
|FR1798|80577|MOYENCOURT LES POIX|
|FR1799|80582|NAMPS MAISNIL|
|FR1800|80583|NAMPTY|
|FR1801|80584|NAOURS|
|FR1802|80586|NESLE L'HOPITAL|
|FR1803|80587|NESLETTE|
|FR1804|80591|NEUVILLE AU BOIS|
|FR1805|80592|NEUVILLE COPPEGUEULE|
|FR1806|80593|LA NEUVILLE LES BRAY|
|FR1807|80594|NEUVILLE LES LOEUILLY|
|FR1808|80596|NEUVILLETTE|
|FR1809|80602|OCCOCHES|
|FR1810|80604|OFFIGNIES|
|FR1811|80606|OISEMONT|
|FR1812|80607|OISSY|
|FR1813|80611|ORESMAUX|
|FR1814|80614|OUTREBOIS|
|FR1815|80615|OVILLERS LA BOISSELLE|
|FR1816|80619|PERNOIS|
|FR1817|80622|PICQUIGNY|
|FR1818|80624|PIERREGOT|
|FR1819|80626|PISSY|
|FR1820|80627|PLACHY BUYON|
|FR1821|80630|POIX DE PICARDIE|
|FR1822|80632|PONT DE METZ|
|FR1823|80634|PONT NOYELLES|
|FR1824|80639|POULAINVILLE|
|FR1825|80640|POZIERES|
|FR1826|80642|PROUVILLE|
|FR1827|80643|PROUZEL|
|FR1828|80645|PUCHEVILLERS|
|FR1829|80648|PYS|
|FR1830|80650|QUERRIEU|
|FR1831|80651|LE QUESNE|
|FR1832|80655|QUESNOY SUR AIRAINES|
|FR1833|80656|QUEVAUVILLERS|
|FR1834|80657|QUIRY LE SEC|
|FR1835|80659|RAINCHEVAL|
|FR1836|80661|RAINNEVILLE|
|FR1837|80663|RAMBURES|
|FR1838|80666|REMAISNIL|
|FR1839|80668|REMIENCOURT|
|FR1840|80670|REVELLES|
|FR1841|80671|RIBEAUCOURT|
|FR1842|80672|RIBEMONT SUR ANCRE|
|FR1843|80673|RIENCOURT|
|FR1844|80674|RIVERY|
|FR1845|80675|ROGY|
|FR1846|80681|ROUVREL|
|FR1847|80686|RUBEMPRE|
|FR1848|80690|RUMIGNY|
|FR1849|80693|SAILLY LAURETTE|
|FR1850|80694|SAILLY LE SEC|
|FR1851|80696|SAINS EN AMIENOIS|
|FR1852|80697|SAINT ACHEUL|
|FR1853|80698|SAINT AUBIN MONTENOY|
|FR1854|80699|SAINT AUBIN RIVIERE|
|FR1855|80702|SAINT FUSCIEN|
|FR1856|80703|SAINT GERMAIN SUR BRESLE|
|FR1857|80704|SAINT GRATIEN|
|FR1858|80705|SAINT LEGER LES AUTHIES|
|FR1859|80706|SAINT LEGER LES DOMART|
|FR1860|80707|SAINT LEGER SUR BRESLE|
|FR1861|80709|SAINT MAULVIS|
|FR1862|80711|SAINT OUEN|
|FR1863|80717|SAINT SAUFLIEU|
|FR1864|80718|SAINT SAUVEUR|
|FR1865|80719|SAINTE SEGREE|
|FR1866|80722|SAINT VAAST EN CHAUSSEE|
|FR1867|80723|SAISSEVAL|
|FR1868|80724|SALEUX|
|FR1869|80725|SALOUEL|
|FR1870|80728|SAULCHOY SOUS POIX|
|FR1871|80729|SAUVILLERS MONGIVAL|
|FR1872|80730|SAVEUSE|
|FR1873|80732|SENARPONT|
|FR1874|80733|SENLIS LE SEC|
|FR1875|80734|SENTELIE|
|FR1876|80735|SEUX|
|FR1877|80738|SOUES|
|FR1878|80740|SOURDON|
|FR1879|80742|SURCAMPS|
|FR1880|80743|SUZANNE|
|FR1881|80744|TAILLY|
|FR1882|80746|TALMAS|
|FR1883|80749|TERRAMESNIL|
|FR1884|80752|THEZY GLIMONT|
|FR1885|80753|THIEPVAL|
|FR1886|80754|THIEULLOY L'ABBAYE|
|FR1887|80755|THIEULLOY LA VILLE|
|FR1888|80756|THIEVRES|
|FR1889|80757|THOIX|
|FR1890|80758|THORY|
|FR1891|80761|TILLOY LES CONTY|
|FR1892|80766|TOUTENCOURT|
|FR1893|80767|LE TRANSLAY|
|FR1894|80769|TREUX|
|FR1895|80773|VADENCOURT|
|FR1896|80774|VAIRE SOUS CORBIE|
|FR1897|80776|VARENNES|
|FR1898|80777|VAUCHELLES LES AUTHIE|
|FR1899|80778|VAUCHELLES LES DOMART|
|FR1900|80782|VAUX EN AMIENOIS|
|FR1901|80784|VAUX SUR SOMME|
|FR1902|80785|VECQUEMONT|
|FR1903|80786|VELENNES|
|FR1904|80788|VERGIES|
|FR1905|80791|VERS SUR SELLE|
|FR1906|80792|LA VICOGNE|
|FR1907|80793|VIGNACOURT|
|FR1908|80795|VILLE LE MARCLET|
|FR1909|80796|VILLEROY|
|FR1910|80798|VILLERS BOCAGE|
|FR1911|80799|VILLERS BRETONNEUX|
|FR1912|80800|VILLERS CAMPSART|
|FR1913|80807|VILLE SUR ANCRE|
|FR1914|80813|VRAIGNES LES HORNOY|
|FR1915|80819|WARGNIES|
|FR1916|80820|WARLOY BAILLON|
|FR1917|80821|WARLUS|
|FR1918|80828|WOIREL|
|FR1919|80835|YZEUX|
|FR1920|80002|ABLAINCOURT PRESSOIR|
|FR1921|80014|AIZECOURT LE BAS|
|FR1922|80015|AIZECOURT LE HAUT|
|FR1923|80017|ALLAINES|
|FR1924|80033|ASSEVILLERS|
|FR1925|80034|ATHIES|
|FR1926|80054|BARLEUX|
|FR1927|80080|BELLOY EN SANTERRE|
|FR1928|80088|BERNES|
|FR1929|80090|BERNY EN SANTERRE|
|FR1930|80097|BETHENCOURT SUR SOMME|
|FR1931|80102|BIACHES|
|FR1932|80105|BILLANCOURT|
|FR1933|80115|BOUCHAVESNES BERGEN|
|FR1934|80128|BOUVINCOURT EN VERMANDOIS|
|FR1935|80139|BREUIL|
|FR1936|80141|BRIE|
|FR1937|80144|BROUCHY|
|FR1938|80150|BUIRE COURCELLES|
|FR1939|80154|BUSSU|
|FR1940|80158|BUVERCHY|
|FR1941|80175|CARNOY|
|FR1942|80177|CARTIGNY|
|FR1943|80186|CHAULNES|
|FR1944|80194|CHUIGNES|
|FR1945|80197|CIZANCOURT|
|FR1946|80199|CLERY SUR SOMME|
|FR1947|80204|COMBLES|
|FR1948|80226|CROIX MOLIGNEAUX|
|FR1949|80230|CURCHY|
|FR1950|80231|CURLU|
|FR1951|80239|DEVISE|
|FR1952|80240|DOINGT|
|FR1953|80247|DOMPIERRE BECQUINCOURT|
|FR1954|80252|DOUILLY|
|FR1955|80258|DRIENCOURT|
|FR1956|80267|ENNEMAIN|
|FR1957|80271|EPEHY|
|FR1958|80272|EPENANCOURT|
|FR1959|80274|EPPEVILLE|
|FR1960|80275|EQUANCOURT|
|FR1961|80284|ESMERY HALLON|
|FR1962|80288|ESTREES DENIECOURT|
|FR1963|80294|ETERPIGNY|
|FR1964|80298|ETRICOURT MANANCOURT|
|FR1965|80300|FALVY|
|FR1966|80304|FAY|
|FR1967|80307|FEUILLERES|
|FR1968|80312|FINS|
|FR1969|80313|FLAUCOURT|
|FR1970|80314|FLERS|
|FR1971|80325|FONTAINE LES CAPPY|
|FR1972|80335|FOUCAUCOURT EN SANTERRE|
|FR1973|80342|FRAMERVILLE RAINECOURT|
|FR1974|80353|FRESNES MAZANCOURT|
|FR1975|80378|GINCHY|
|FR1976|80389|GRECOURT|
|FR1977|80397|GUEUDECOURT|
|FR1978|80401|GUILLEMONT|
|FR1979|80404|GUYENCOURT SAULCOURT|
|FR1980|80410|HAM|
|FR1981|80413|HANCOURT|
|FR1982|80418|HARDECOURT AUX BOIS|
|FR1983|80428|HEM MONACU|
|FR1984|80432|HERLEVILLE|
|FR1985|80434|HERVILLY|
|FR1986|80435|HESBECOURT|
|FR1987|80438|HEUDICOURT|
|FR1988|80442|HOMBLEUX|
|FR1989|80447|HYENCOURT LE GRAND|
|FR1990|80465|LANGUEVOISIN QUIQUERY|
|FR1991|80472|LESBOEUFS|
|FR1992|80474|LICOURT|
|FR1993|80475|LIERAMONT|
|FR1994|80481|LIHONS|
|FR1995|80487|LONGAVESNES|
|FR1996|80490|LONGUEVAL|
|FR1997|80509|MARCHELEPOT|
|FR1998|80513|MARICOURT|
|FR1999|80516|MARQUAIX|
|FR2000|80519|MATIGNY|
|FR2001|80521|MAUREPAS|
|FR2002|80536|MESNIL BRUNTEL|
|FR2003|80538|MESNIL EN ARROUAISE|
|FR2004|80542|MESNIL SAINT NICAISE|
|FR2005|80551|MISERY|
|FR2006|80552|MOISLAINS|
|FR2007|80555|MONCHY LAGACHE|
|FR2008|80557|ESTREES MONS|
|FR2009|80560|MONTAUBAN DE PICARDIE|
|FR2010|80568|MORCHAIN|
|FR2011|80576|MOYENCOURT|
|FR2012|80579|MUILLE VILLETTE|
|FR2013|80585|NESLE|
|FR2014|80601|NURLU|
|FR2015|80605|OFFOY|
|FR2016|80608|OMIECOURT|
|FR2017|80616|PARGNY|
|FR2018|80620|PERONNE|
|FR2019|80621|PERTAIN|
|FR2020|80629|POEUILLY|
|FR2021|80638|POTTE|
|FR2022|80644|PROYART|
|FR2023|80646|PUNCHY|
|FR2024|80647|PUZEAUX|
|FR2025|80658|QUIVIERES|
|FR2026|80664|RANCOURT|
|FR2027|80677|ROISEL|
|FR2028|80679|RONSSOY|
|FR2029|80683|ROUY LE GRAND|
|FR2030|80684|ROUY LE PETIT|
|FR2031|80695|SAILLY SAILLISEL|
|FR2032|80701|SAINT CHRIST BRIOST|
|FR2033|80726|SANCOURT|
|FR2034|80737|SOREL|
|FR2035|80741|SOYECOURT|
|FR2036|80747|TEMPLEUX LA FOSSE|
|FR2037|80748|TEMPLEUX LE GUERARD|
|FR2038|80750|TERTRY|
|FR2039|80762|TINCOURT BOUCLY|
|FR2040|80771|UGNY L'EQUIPEE|
|FR2041|80781|VAUVILLERS|
|FR2042|80789|VERMANDOVILLERS|
|FR2043|80794|VILLECOURT|
|FR2044|80801|VILLERS CARBONNEL|
|FR2045|80802|VILLERS FAUCON|
|FR2046|80811|VOYENNES|
|FR2047|80812|VRAIGNES EN VERMANDOIS|
|FR2048|80829|Y|
|FR2049|80023|ANDECHY|
|FR2050|80027|ARMANCOURT|
|FR2051|80031|ARVILLERS|
|FR2052|80032|ASSAINVILLERS|
|FR2053|80035|AUBERCOURT|
|FR2054|80049|AYENCOURT|
|FR2055|80053|BALATRE|
|FR2056|80058|BAYONVILLERS|
|FR2057|80064|BEAUCOURT EN SANTERRE|
|FR2058|80067|BEAUFORT EN SANTERRE|
|FR2059|80074|BECQUIGNY|
|FR2060|80094|BERTEAUCOURT LES THENNES|
|FR2061|80101|BEUVRAIGNES|
|FR2062|80103|BIARRE|
|FR2063|80116|BOUCHOIR|
|FR2064|80121|BOUILLANCOURT LA BATAILLE|
|FR2065|80125|BOUSSICOURT|
|FR2066|80132|BRACHES|
|FR2067|80152|BUS LA MESIERE|
|FR2068|80162|CAIX|
|FR2069|80170|CANTIGNY|
|FR2070|80174|LE CARDONNOIS|
|FR2071|80176|CARREPUIS|
|FR2072|80181|CAYEUX EN SANTERRE|
|FR2073|80185|CHAMPIEN|
|FR2074|80189|LA CHAVATTE|
|FR2075|80191|CHILLY|
|FR2076|80209|CONTOIRE|
|FR2077|80220|COURTEMANCHE|
|FR2078|80223|CREMERY|
|FR2079|80224|CRESSY OMENCOURT|
|FR2080|80232|DAMERY|
|FR2081|80233|DANCOURT POPINCOURT|
|FR2082|80236|DAVENESCOURT|
|FR2083|80237|DEMUIN|
|FR2084|80242|DOMART SUR LA LUCE|
|FR2085|80263|L'ECHELLE SAINT AURIN|
|FR2086|80278|ERCHES|
|FR2087|80279|ERCHEU|
|FR2088|80292|ETALON|
|FR2089|80293|ETELFAY|
|FR2090|80302|FAVEROLLES|
|FR2091|80306|FESCAMPS|
|FR2092|80311|FIGNIERES|
|FR2093|80320|FOLIES|
|FR2094|80322|FONCHES FONCHETTE|
|FR2095|80326|FONTAINE SOUS MONTDIDIER|
|FR2096|80339|FOUQUESCOURT|
|FR2097|80347|FRANSART|
|FR2098|80358|FRESNOY EN CHAUSSEE|
|FR2099|80359|FRESNOY LES ROYE|
|FR2100|80383|GOYENCOURT|
|FR2101|80386|GRATIBUS|
|FR2102|80391|GRIVILLERS|
|FR2103|80393|GRUNY|
|FR2104|80395|GUERBIGNY|
|FR2105|80400|GUILLAUCOURT|
|FR2106|80405|HAILLES|
|FR2107|80409|HALLU|
|FR2108|80414|HANGARD|
|FR2109|80415|HANGEST EN SANTERRE|
|FR2110|80417|HARBONNIERES|
|FR2111|80419|HARGICOURT|
|FR2112|80421|HATTENCOURT|
|FR2113|80433|HERLY|
|FR2114|80449|IGNAUCOURT|
|FR2115|80453|LABOISSIERE EN SANTERRE|
|FR2116|80467|LAUCOURT|
|FR2117|80473|LIANCOURT FOSSE|
|FR2118|80478|LIGNIERES|
|FR2119|80504|MALPART|
|FR2120|80508|MARCHE ALLOUARDE|
|FR2121|80511|MARESTMONTIERS|
|FR2122|80517|MARQUIVILLERS|
|FR2123|80520|MAUCOURT|
|FR2124|80524|MEHARICOURT|
|FR2125|80541|MESNIL SAINT GEORGES|
|FR2126|80545|MEZIERES EN SANTERRE|
|FR2127|80561|MONTDIDIER|
|FR2128|80570|MOREUIL|
|FR2129|80571|MORISEL|
|FR2130|80595|LA NEUVILLE SIRE BERNARD|
|FR2131|80617|PARVILLERS LE QUESNOY|
|FR2132|80623|PIENNES ONVILLERS|
|FR2133|80625|PIERREPONT SUR AVRE|
|FR2134|80628|LE PLESSIER ROZAINVILLERS|
|FR2135|80652|LE QUESNEL|
|FR2136|80667|REMAUGIES|
|FR2137|80669|RETHONVILLERS|
|FR2138|80676|ROIGLISE|
|FR2139|80678|ROLLOT|
|FR2140|80680|ROSIERES EN SANTERRE|
|FR2141|80682|ROUVROY EN SANTERRE|
|FR2142|80685|ROYE|
|FR2143|80687|RUBESCOURT|
|FR2144|80708|SAINT MARD|
|FR2145|80751|THENNES|
|FR2146|80759|TILLOLOY|
|FR2147|80790|VERPILLIERES|
|FR2148|80797|VILLERS AUX ERABLES|
|FR2149|80803|VILLERS LES ROYE|
|FR2150|80805|VILLERS TOURNELLE|
|FR2151|80814|VRELY|
|FR2152|80822|WARSY|
|FR2153|80823|WARVILLERS|
|FR2154|80824|WIENCOURT L'EQUIPEE|
|FR2155|80001|ABBEVILLE|
|FR2156|80004|ACHEUX EN VIMEU|
|FR2157|80006|AGENVILLERS|
|FR2158|80008|AIGNEVILLE|
|FR2159|80009|AILLY LE HAUT CLOCHER|
|FR2160|80019|ALLERY|
|FR2161|80025|ARGOULES|
|FR2162|80029|ARREST|
|FR2163|80030|ARRY|
|FR2164|80051|BAILLEUL|
|FR2165|80076|BEHEN|
|FR2166|80078|BELLANCOURT|
|FR2167|80087|BERNAY EN PONTHIEU|
|FR2168|80096|BETHENCOURT SUR MER|
|FR2169|80099|BETTENCOURT RIVIERE|
|FR2170|80109|LE BOISLE|
|FR2171|80110|BOISMONT|
|FR2172|80118|BOUFFLERS|
|FR2173|80124|BOURSEVILLE|
|FR2174|80133|BRAILLY CORNEHOTTE|
|FR2175|80135|BRAY LES MAREUIL|
|FR2176|80145|BRUCAMPS|
|FR2177|80146|BRUTELLES|
|FR2178|80147|BUIGNY L'ABBE|
|FR2179|80149|BUIGNY SAINT MACLOU|
|FR2180|80155|BUSSUS BUSSUEL|
|FR2181|80161|CAHON GOUY|
|FR2182|80163|CAMBRON|
|FR2183|80167|CANCHY|
|FR2184|80171|CAOURS|
|FR2185|80182|CAYEUX SUR MER|
|FR2186|80190|CHEPY|
|FR2187|80196|CITERNE|
|FR2188|80200|COCQUEREL|
|FR2189|80205|CONDE FOLIE|
|FR2190|80215|COULONVILLERS|
|FR2191|80221|CRAMONT|
|FR2192|80222|CRECY EN PONTHIEU|
|FR2193|80228|LE CROTOY|
|FR2194|80244|DOMINOIS|
|FR2195|80248|DOMPIERRE SUR AUTHIE|
|FR2196|80249|DOMQUEUR|
|FR2197|80250|DOMVAST|
|FR2198|80251|DOUDELAINVILLE|
|FR2199|80260|DRUCAT|
|FR2200|80262|EAUCOURT SUR SOMME|
|FR2201|80268|EPAGNE EPAGNETTE|
|FR2202|80280|ERCOURT|
|FR2203|80281|ERGNIES|
|FR2204|80282|ERONDELLE|
|FR2205|80287|ESTREBOEUF|
|FR2206|80290|ESTREES LES CRECY|
|FR2207|80303|FAVIERES|
|FR2208|80308|FEUQUIERES EN VIMEU|
|FR2209|80327|FONTAINE SUR MAYE|
|FR2210|80328|FONTAINE SUR SOMME|
|FR2211|80331|FOREST L'ABBAYE|
|FR2212|80332|FOREST MONTIERS|
|FR2213|80333|FORT MAHON PLAGE|
|FR2214|80344|FRANCIERES|
|FR2215|80345|FRANLEU|
|FR2216|80360|FRESSENNEVILLE|
|FR2217|80368|FRIVILLE ESCARBOTIN|
|FR2218|80371|FROYELLES|
|FR2219|80372|FRUCOURT|
|FR2220|80374|GAPENNES|
|FR2221|80380|GORENFLOS|
|FR2222|80385|GRAND LAVIERS|
|FR2223|80388|GREBAULT MESNIL|
|FR2224|80396|GUESCHART|
|FR2225|80406|HALLENCOURT|
|FR2226|80422|HAUTVILLERS OUVILLE|
|FR2227|80444|HUCHENNEVILLE|
|FR2228|80446|HUPPY|
|FR2229|80462|LAMOTTE BULEUX|
|FR2230|80464|LANCHERES|
|FR2231|80476|LIERCOURT|
|FR2232|80477|LIGESCOURT|
|FR2233|80482|LIMEUX|
|FR2234|80486|LONG|
|FR2235|80488|LONGPRE LES CORPS SAINTS|
|FR2236|80496|MACHIEL|
|FR2237|80497|MACHY|
|FR2238|80501|MAISON PONTHIEU|
|FR2239|80502|MAISON ROLAND|
|FR2240|80512|MAREUIL CAUBERT|
|FR2241|80527|MENESLIES|
|FR2242|80529|MERELESSART|
|FR2243|80537|MESNIL DOMQUEUR|
|FR2244|80546|MIANNAY|
|FR2245|80548|MILLENCOURT EN PONTHIEU|
|FR2246|80556|MONS BOUBERT|
|FR2247|80574|MOUFLERS|
|FR2248|80578|MOYENNEVILLE|
|FR2249|80580|NAMPONT|
|FR2250|80588|NEUFMOULIN|
|FR2251|80589|NEUILLY LE DIEN|
|FR2252|80590|NEUILLY L'HOPITAL|
|FR2253|80597|NIBAS|
|FR2254|80598|NOUVION EN PONTHIEU|
|FR2255|80599|NOYELLES EN CHAUSSEE|
|FR2256|80600|NOYELLES SUR MER|
|FR2257|80603|OCHANCOURT|
|FR2258|80609|ONEUX|
|FR2259|80618|PENDE|
|FR2260|80631|PONCHES ESTRUVAL|
|FR2261|80633|PONTHOILE|
|FR2262|80635|PONT REMY|
|FR2263|80637|PORT LE GRAND|
|FR2264|80649|QUEND|
|FR2265|80654|QUESNOY LE MONTANT|
|FR2266|80665|REGNIERE ECLUSE|
|FR2267|80688|RUE|
|FR2268|80691|SAIGNEVILLE|
|FR2269|80692|SAILLY FLIBEAUCOURT|
|FR2270|80700|SAINT BLIMONT|
|FR2271|80710|SAINT MAXENT|
|FR2272|80713|SAINT QUENTIN EN TOURMONT|
|FR2273|80716|SAINT RIQUIER|
|FR2274|80721|SAINT VALERY SUR SOMME|
|FR2275|80736|SOREL EN VIMEU|
|FR2276|80763|LE TITRE|
|FR2277|80764|TOEUFLES|
|FR2278|80765|TOURS EN VIMEU|
|FR2279|80770|TULLY|
|FR2280|80775|VALINES|
|FR2281|80779|VAUCHELLES LES QUESNOY|
|FR2282|80780|VAUDRICOURT|
|FR2283|80783|VAUX MARQUENNEVILLE|
|FR2284|80787|VERCOURT|
|FR2285|80804|VILLERS SOUS AILLY|
|FR2286|80806|VILLERS SOUS AUTHIE|
|FR2287|80808|VIRONCHAUX|
|FR2288|80810|VITZ SUR AUTHIE|
|FR2289|80815|VRON|
|FR2290|80825|WIRY AU MONT|
|FR2291|80827|WOINCOURT|
|FR2292|80830|YAUCOURT BUSSUS|
|FR2293|80832|YVRENCH|
|FR2294|80833|YVRENCHEUX|
|FR2295|80834|YZENGREMER|
|FR2296|80836|YONVAL|
|FR2297|80018|ALLENAY|
|FR2298|80039|AULT|
|FR2299|80063|BEAUCHAMPS|
|FR2300|80104|BIENCOURT|
|FR2301|80120|BOUILLANCOURT EN SERY|
|FR2302|80126|BOUTTENCOURT|
|FR2303|80127|BOUVAINCOURT SUR BRESLE|
|FR2304|80148|BUIGNY LES GAMACHES|
|FR2305|80235|DARGNIES|
|FR2306|80265|EMBREVILLE|
|FR2307|80362|FRETTEMEULE|
|FR2308|80364|FRIAUCOURT|
|FR2309|80373|GAMACHES|
|FR2310|80500|MAISNIERES|
|FR2311|80518|MARTAINNEVILLE|
|FR2312|80533|MERS LES BAINS|
|FR2313|80613|OUST MAREST|
|FR2314|80662|RAMBURELLES|
|FR2315|80714|ST QUENTIN LA MOTTE|
|FR2316|80760|TILLOY FLORIVILLE|
|FR2317|80809|VISMES|
|FR2318|80826|WOIGNARUE|
