Keyword;NbParams/ObjectType;ObjectName;Param1;Param2;Param3;Param4;Param5;Param6;Param7;Param8;Param9;Param10;Param11;Param12;Param13;Param14;Param15;Param16
F_E000_E001_Deconnexion_entreprise;0;;;;;;;;;;;;;;;;;
ChangerEcran;Ecran;E000_Menus;;;;;;;;;;;;;;;;
VerifierPresence;Lien;Menu_haut_deroulant_utilisateur;Oui;;;;;;;;;;;;;;;;
Cliquer;Lien;Menu_haut_deroulant_utilisateur;;;;;;;;;;;;;;;;
Cliquer;Lien;Menu_haut_lien_deconnexion;;;;;;;;;;;;;;;;
ChangerEcran;Ecran;E003_Accueil_recherche_rapide;;;;;;;;;;;;;;;;
Cliquer;Lien;Mon_panier;;;;;;;;;;;;;;;;
ChangerEcran;Ecran;E001_Menu_sidentifier;;;;;;;;;;;;;;;;
VerifierPresence;Lien;Login_utilisateur_inscrit;Oui;;;;;;;;;;;;;;;;
