Keyword;NbParams/ObjectType;ObjectName;Param1;Param2;Param3;Param4;Param5;Param6;Param7;Param8;Param9;Param10;Param11;Param12;Param13;Param14;Param15;Param16
F_E005_Verifier_signature_depot;0;;;;;;;;;;;;;;;;;
ChangerEcran;Ecran;E005_Details_consultation;;;;;;;;;;;;;;;;
Cliquer;Lien;Onglet_depot;;;;;;;;;;;;;;;;
Cliquer;Bouton;Bouton_repondre;;;;;;;;;;;;;;;;
Cliquer;Bouton;Jai_compris_depot;;;;;;;;;;;;;;;;
ChargerFichier;;Fichier_offre;./MPE_Campagne/Datas/Jeux_test_signature/Valide_format_LT/PDF/PAdES/PAdES_20191213165857_Signature_1.pdf;;;;;;;;;;;;;;;
VerifierPresence;Texte;signature_validee_PAdES;Oui;;;;;;;;;;;;;;;
ChargerFichier;;Fichier_offre;./MPE_Campagne/Datas/Jeux_test_signature/Valide_format_LT/PDF/XAdES/XAdES.pdf;;;;;;;;;;;;;;;
ChargerFichier;;Fichier_jeton;./MPE_Campagne/Datas/Jeux_test_signature/Valide_format_LT/PDF/XAdES/XAdES.pdf_20191212190413_Signature_1.xml;;;;;;;;;;;;;;;
VerifierPresence;Texte;signature_validee_XAdES;Oui;;;;;;;;;;;;;;;
ChargerFichier;;Fichier_offre;./MPE_Campagne/Datas/Jeux_test_signature/Valide_format_LT/PDF/CAdES/CAdES.pdf;;;;;;;;;;;;;;;
ChargerFichier;;Fichier_jeton2;./MPE_Campagne/Datas/Jeux_test_signature/Valide_format_LT/PDF/CAdES/CAdES.pdf_20191212190405_Signature_1.p7s;;;;;;;;;;;;;;;
VerifierPresence;Texte;signature_validee_CAdES;Oui;;;;;;;;;;;;;;;
Saisir;CaseACocher;CAC_accepter_conditions;Oui;;;;;;;;;;;;;;;
Cliquer;Bouton;Bouton_valider_reponse;;;;;;;;;;;;;;;;
VerifierPresence;Texte;Bloc_message_confirmation;Oui;;;;;;;;;;;;;;;
VerifierPresence;Texte;depot_validee_PAdES;Oui;;;;;;;;;;;;;;;
VerifierPresence;Texte;depot_validee_XAdES;Oui;;;;;;;;;;;;;;;
VerifierPresence;Texte;depot_validee_CAdES;Oui;;;;;;;;;;;;;;;
ChangerEcran;Ecran;E005_Details_consultation;;;;;;;;;;;;;;;;
