Keyword;NbParams/ObjectType;ObjectName;Param1;Param2;Param3;Param4;Param5;Param6;Param7;Param8;Param9;Param10;Param11;Param12;Param13;Param14;Param15;Param16
F_E000_E012_Acceder_compte_utilisateur;0;;;;;;;;;;;;;;;;;
ChangerEcran;Ecran;E000_Menus;;;;;;;;;;;;;;;;
Cliquer;Lien;Menu_haut_deroulant_utilisateur;;;;;;;;;;;;;;;;
Cliquer;Lien;Menu_haut_mon_compte;;;;;;;;;;;;;;;;
ChangerEcran;Ecran;E012_Mon_compte;;;;;;;;;;;;;;;;;
VerifierPresence;Texte;Bloc_compte_perso;Oui;;;;;;;;;;;;;;;;
