Keyword;NbParams/ObjectType;ObjectName;Param1;Param2;Param3;Param4;Param5;Param6;Param7;Param8;Param9;Param10;Param11;Param12;Param13;Param14;Param15;Param16
F_E007_E005_Ajout_pieces_jointes;1;;nom_entreprise;;;;;;;;;;;;;;;
ChangerEcran;Ecran;E007_Repondre_consultation_pieces_jointes;;;;;;;;;;;;;;;;
Cliquer;Bouton;JaiCompris;;;;;;;;;;;;;;;;
Saisir;CaseACocher;CAC_accepter_conditions;Oui;;;;;;;;;;;;;;;
ChargerFichier;;Fichier_offre;./MPE_Campagne/Datas/Signatures/Exemple5/offre01N.xlsx;;;;;;;;;;;;;;;
ChargerFichier;;Fichier_jet01;./MPE_Campagne/Datas/Signatures/Exemple5/offre01N.xlsx.Signature.xml;;;;;;;;;;;;;;;
Cliquer;Bouton;Bouton_valider_reponse;;;;;;;;;;;;;;;;
!Cliquer;Bouton;RDM_Valider_acte_engage_non_renseigne;;;;;;;;;;;;;;;;
ChangerEcran;Ecran;E008_Repondre_consultation_confirmation;;;;;;;;;;;;;;;;
VerifierPresence;Texte;Bloc_message_confirmation;Oui;;;;;;;;;;;;;;;
VerifierValeur;Texte;Nom_entreprise_reponse;$nom_entreprise;;;;;;;;;;;;;;;;
VerifierPresence;Texte;Xlsx_offre01;Oui;;;;;;;;;;;;;;;
Cliquer;Lien;Bouton_retour;;;;;;;;;;;;;;;;
ChangerEcran;Ecran;E005_Details_consultation;;;;;;;;;;;;;;;;
