Keyword;NbParams/ObjectType;ObjectName;Param1;Param2;Param3;Param4;Param5;Param6;Param7;Param8;Param9;Param10;Param11;Param12;Param13;Param14;Param15;Param16
F_E012_MAJ_activite_section_collaboration;7;;nom;prenom;adresse;cp;ville;fonction;email;;;;;;;;;
ChangerEcran;Ecran;E012_Mon_compte;;;;;;;;;;;;;;;;
Cliquer;Lien;Description_activite;;;;;;;;;;;;;;;;
ChangerEcran;Ecran;E015_Formulaire_description_activite;;;;;;;;;;;;;;;;
Cliquer;Lien;Onglet_recherche_collaboration;;;;;;;;;;;;;;;;
Cliquer;Bouton;Bouton_collaboration_oui;;;;;;;;;;;;;;;;
Saisir;Champ;nomContactGroupement;$nom;;;;;;;;;;;;;;;
Saisir;Champ;prenomContactGroupement;$prenom;;;;;;;;;;;;;;;
Saisir;Champ;addresseContactGroupement;$adresse;;;;;;;;;;;;;;;
Saisir;Champ;cpContactGroupement;$cp;;;;;;;;;;;;;;;
Saisir;Champ;villeContactGroupement;$ville;;;;;;;;;;;;;;;
Saisir;Champ;fonction;$fonction;;;;;;;;;;;;;;;
Saisir;Champ;email;$email;;;;;;;;;;;;;;;
Cliquer;Bouton;Valider;;;;;;;;;;;;;;;;
ChangerEcran;Ecran;E012_Mon_compte;;;;;;;;;;;;;;;;
Cliquer;Lien;Description_activite;;;;;;;;;;;;;;;;
ChangerEcran;Ecran;E015_Formulaire_description_activite;;;;;;;;;;;;;;;;
Cliquer;Lien;Onglet_recherche_collaboration;;;;;;;;;;;;;;;;
VerifierValeur;Champ;nomContactGroupement;$nom;;;;;;;;;;;;;;;
Cliquer;Bouton;Annuler;;;;;;;;;;;;;;;;
ChangerEcran;Ecran;E012_Mon_compte;;;;;;;;;;;;;;;;
