{
  "id": "0",
  "siege": "1",
  "siret": "38391710100057",
  "dateCreation": "2019-08-23T11:23:04+02:00",
  "dateModification": "2019-08-23T11:23:04+02:00",
  "adresse": {
    "rue": "52 BD DE L'YERRES",
    "codePostal": "91000",
    "ville": "EVRY-COURCOURONNES",
    "pays": "France"
  },
  "idEntreprise": "30"
}