Keyword;NbParams/ObjectType;ObjectName;Param1;Param2;Param3;Param4;Param5;Param6;Param7;Param8;Param9;Param10;Param11;Param12;Param13;Param14;Param15;Param16
F_A000_A029_Ouvrir_verifier_signature;0;;;;;;;;;;;;;;;;;
ChangerEcran;Ecran;A000_Menus;;;;;;;;;;;;;;;;
Cliquer;Lien;Bandeau_haut_lien_accueil;;;;;;;;;;;;;;;;
Cliquer;Lien;Menu_gauche_outil_signature;;;;;;;;;;;;;;;;
Cliquer;Lien;Menu_gauche_verifier_signature;;;;;;;;;;;;;;;;
ChangerEcran;Ecran;A029_Outil_verification_signature;;;;;;;;;;;;;;;;
