<?xml version="1.0" encoding="utf-8"?>
<!-- Generator: Adobe Illustrator 15.0.0, SVG Export Plug-In . SVG Version: 6.00 Build 0)  -->
<!DOCTYPE svg PUBLIC "-//W3C//DTD SVG 1.1//EN" "http://www.w3.org/Graphics/SVG/1.1/DTD/svg11.dtd">
<svg version="1.1" id="Calque_1" xmlns="http://www.w3.org/2000/svg" xmlns:xlink="http://www.w3.org/1999/xlink" x="0px" y="0px"
	 width="285.465px" height="44.502px" viewBox="0 0 285.465 44.502" enable-background="new 0 0 285.465 44.502"
	 xml:space="preserve">
<g>
	<g>
		<g>
			<path fill="#3B679B" d="M0.992,10.435h2.851v19.47h9.33v2.365H0.992V10.435z"/>
			<path fill="#3B679B" d="M33.713,21.125c0,7.484-4.568,11.5-10.14,11.5c-5.799,0-9.816-4.503-9.816-11.112
				c0-6.933,4.276-11.468,10.107-11.468C29.858,10.046,33.713,14.614,33.713,21.125z M16.737,21.449
				c0,4.697,2.527,8.877,6.998,8.877s6.998-4.114,6.998-9.071c0-4.374-2.268-8.909-6.965-8.909
				C19.07,12.346,16.737,16.688,16.737,21.449z"/>
			<path fill="#3B679B" d="M52.601,31.59c-1.004,0.518-3.11,1.036-5.767,1.036c-6.156,0-10.756-3.888-10.756-11.08
				c0-6.868,4.633-11.468,11.404-11.468c2.688,0,4.438,0.583,5.183,0.972l-0.713,2.3c-1.037-0.519-2.559-0.907-4.374-0.907
				c-5.119,0-8.52,3.272-8.52,9.006c0,5.378,3.078,8.779,8.358,8.779c1.749,0,3.499-0.356,4.633-0.906L52.601,31.59z"/>
			<path fill="#3B679B" d="M59.825,25.402l-2.268,6.867h-2.916l7.451-21.835h3.37l7.451,21.835H69.9l-2.333-6.867H59.825z
				 M67.017,23.199l-2.17-6.285c-0.486-1.425-0.81-2.722-1.134-3.985h-0.065c-0.324,1.263-0.648,2.624-1.102,3.952l-2.139,6.317
				L67.017,23.199L67.017,23.199z"/>
			<path fill="#3B679B" d="M76.088,10.435h2.851v19.47h9.33v2.365H76.088V10.435L76.088,10.435z"/>
			<path fill="#3B679B" d="M101.098,12.832h-6.641v-2.397h16.166v2.397h-6.674V32.27h-2.851V12.832z"/>
			<path fill="#3B679B" d="M113.053,10.727c1.425-0.259,3.499-0.454,5.41-0.454c3.013,0,4.989,0.583,6.317,1.782
				c1.069,0.972,1.717,2.462,1.717,4.179c0,2.851-1.814,4.762-4.083,5.54v0.098c1.652,0.583,2.657,2.138,3.175,4.406
				c0.713,3.046,1.231,5.151,1.685,5.993h-2.916c-0.355-0.647-0.842-2.495-1.425-5.215c-0.648-3.013-1.847-4.147-4.406-4.244h-2.656
				v9.459h-2.819V10.727L113.053,10.727z M115.871,20.672h2.883c3.013,0,4.925-1.652,4.925-4.147c0-2.818-2.042-4.049-5.022-4.049
				c-1.361,0-2.3,0.097-2.786,0.227V20.672z"/>
			<path fill="#3B679B" d="M133.301,10.435v12.959c0,4.858,2.171,6.933,5.086,6.933c3.208,0,5.313-2.139,5.313-6.933V10.435h2.851
				v12.765c0,6.705-3.532,9.427-8.262,9.427c-4.471,0-7.84-2.526-7.84-9.33V10.435H133.301z"/>
			<path fill="#3B679B" d="M151.086,28.836c1.264,0.811,3.078,1.425,5.021,1.425c2.884,0,4.568-1.522,4.568-3.725
				c0-2.009-1.166-3.208-4.115-4.309c-3.563-1.296-5.766-3.175-5.766-6.22c0-3.402,2.819-5.929,7.063-5.929
				c2.203,0,3.855,0.518,4.795,1.069l-0.778,2.3c-0.681-0.421-2.138-1.037-4.114-1.037c-2.98,0-4.114,1.782-4.114,3.272
				c0,2.041,1.328,3.045,4.342,4.211c3.692,1.425,5.539,3.208,5.539,6.414c0,3.369-2.462,6.317-7.613,6.317
				c-2.105,0-4.405-0.647-5.572-1.425L151.086,28.836z"/>
			<path fill="#3B679B" d="M171.561,12.832h-6.641v-2.397h16.166v2.397h-6.674V32.27h-2.852V12.832z"/>
			<path fill="#3B679B" d="M190.383,10.727c1.426-0.259,3.499-0.454,5.411-0.454c3.012,0,4.988,0.583,6.317,1.782
				c1.068,0.972,1.717,2.462,1.717,4.179c0,2.851-1.814,4.762-4.082,5.54v0.098c1.651,0.583,2.656,2.138,3.174,4.406
				c0.713,3.046,1.232,5.151,1.686,5.993h-2.916c-0.355-0.647-0.842-2.495-1.425-5.215c-0.648-3.013-1.847-4.147-4.405-4.244h-2.657
				v9.459h-2.818L190.383,10.727L190.383,10.727z M193.202,20.672h2.884c3.012,0,4.924-1.652,4.924-4.147
				c0-2.818-2.042-4.049-5.021-4.049c-1.361,0-2.301,0.097-2.786,0.227V20.672L193.202,20.672z"/>
			<path fill="#3B679B" d="M207.457,28.836c1.263,0.811,3.077,1.425,5.021,1.425c2.883,0,4.567-1.522,4.567-3.725
				c0-2.009-1.166-3.208-4.114-4.309c-3.563-1.296-5.766-3.175-5.766-6.22c0-3.402,2.818-5.929,7.062-5.929
				c2.203,0,3.855,0.518,4.795,1.069l-0.777,2.3c-0.681-0.421-2.139-1.037-4.114-1.037c-2.98,0-4.115,1.782-4.115,3.272
				c0,2.041,1.329,3.045,4.342,4.211c3.693,1.425,5.54,3.208,5.54,6.414c0,3.369-2.462,6.317-7.613,6.317
				c-2.106,0-4.406-0.647-5.572-1.425L207.457,28.836z"/>
			<path fill="#3B679B" d="M235.059,22.033h-8.456v7.873h9.46v2.365h-12.311V10.435h11.825V12.8h-8.975v6.9h8.456V22.033
				L235.059,22.033z"/>
			<path fill="#3B679B" d="M258.125,22.681c-0.161-3.045-0.356-6.738-0.356-9.428h-0.065c-0.777,2.527-1.651,5.281-2.753,8.293
				l-3.855,10.593h-2.139l-3.563-10.399c-1.037-3.11-1.879-5.896-2.495-8.488h-0.064c-0.065,2.722-0.228,6.35-0.422,9.654
				l-0.583,9.362h-2.688l1.522-21.835h3.596l3.725,10.562c0.908,2.688,1.621,5.086,2.203,7.354h0.065
				c0.583-2.203,1.361-4.6,2.332-7.354l3.888-10.562h3.597l1.36,21.835h-2.786L258.125,22.681z"/>
		</g>
	</g>
	<g opacity="0.6">
		<path fill="#3B679B" d="M0.992,35.504h0.807v5.506h2.639v0.669H0.992V35.504z"/>
		<path fill="#3B679B" d="M10.248,38.527c0,2.116-1.292,3.253-2.867,3.253c-1.64,0-2.776-1.274-2.776-3.143
			c0-1.961,1.209-3.244,2.859-3.244C9.158,35.394,10.248,36.686,10.248,38.527z M5.447,38.619c0,1.328,0.714,2.51,1.979,2.51
			c1.265,0,1.979-1.163,1.979-2.565c0-1.236-0.642-2.52-1.971-2.52C6.107,36.044,5.447,37.271,5.447,38.619z"/>
		<path fill="#3B679B" d="M15.592,41.486c-0.285,0.147-0.879,0.294-1.631,0.294c-1.74,0-3.041-1.1-3.041-3.134
			c0-1.942,1.31-3.243,3.225-3.243c0.761,0,1.256,0.164,1.466,0.274l-0.202,0.65c-0.294-0.146-0.724-0.257-1.237-0.257
			c-1.448,0-2.409,0.926-2.409,2.548c0,1.521,0.87,2.482,2.363,2.482c0.494,0,0.989-0.102,1.31-0.257L15.592,41.486z"/>
		<path fill="#3B679B" d="M17.638,39.736l-0.642,1.942h-0.824l2.106-6.175h0.953l2.109,6.175h-0.853l-0.659-1.942H17.638z
			 M19.671,39.114l-0.613-1.778c-0.138-0.403-0.229-0.77-0.322-1.127h-0.018c-0.092,0.357-0.184,0.743-0.312,1.118l-0.604,1.787
			H19.671z"/>
		<path fill="#3B679B" d="M22.239,35.504h0.806v5.506h2.639v0.669h-3.445V35.504z"/>
		<path fill="#3B679B" d="M29.314,36.182h-1.878v-0.678h4.572v0.678H30.12v5.497h-0.807L29.314,36.182L29.314,36.182z"/>
		<path fill="#3B679B" d="M32.697,35.586c0.404-0.073,0.99-0.128,1.531-0.128c0.852,0,1.411,0.165,1.785,0.504
			c0.304,0.275,0.486,0.697,0.486,1.182c0,0.808-0.513,1.348-1.154,1.567v0.028c0.468,0.164,0.751,0.604,0.898,1.246
			c0.201,0.861,0.348,1.457,0.477,1.694h-0.824c-0.101-0.183-0.238-0.705-0.403-1.474c-0.184-0.853-0.522-1.174-1.247-1.201h-0.75
			v2.676h-0.797L32.697,35.586L32.697,35.586z M33.495,38.398h0.815c0.852,0,1.393-0.467,1.393-1.173
			c0-0.797-0.578-1.145-1.42-1.145c-0.386,0-0.651,0.027-0.788,0.063V38.398z"/>
		<path fill="#3B679B" d="M38.426,35.504v3.665c0,1.375,0.613,1.961,1.438,1.961c0.908,0,1.503-0.604,1.503-1.961v-3.665h0.807v3.61
			c0,1.896-0.999,2.666-2.336,2.666c-1.265,0-2.217-0.715-2.217-2.639v-3.638H38.426L38.426,35.504z"/>
		<path fill="#3B679B" d="M43.458,40.707c0.357,0.23,0.87,0.404,1.419,0.404c0.816,0,1.293-0.431,1.293-1.055
			c0-0.567-0.33-0.906-1.164-1.219c-1.009-0.366-1.631-0.897-1.631-1.758c0-0.963,0.798-1.677,1.998-1.677
			c0.623,0,1.09,0.146,1.356,0.302l-0.22,0.65c-0.192-0.119-0.605-0.293-1.163-0.293c-0.844,0-1.164,0.504-1.164,0.926
			c0,0.577,0.375,0.861,1.228,1.191c1.045,0.402,1.566,0.906,1.566,1.813c0,0.953-0.696,1.787-2.153,1.787
			c-0.595,0-1.246-0.184-1.575-0.403L43.458,40.707z"/>
		<path fill="#3B679B" d="M49.25,36.182h-1.878v-0.678h4.571v0.678h-1.886v5.497H49.25V36.182z"/>
		<path fill="#3B679B" d="M54.997,39.608c0.019,1.09,0.705,1.539,1.521,1.539c0.578,0,0.936-0.101,1.229-0.229l0.146,0.578
			c-0.283,0.128-0.777,0.284-1.483,0.284c-1.366,0-2.181-0.907-2.181-2.245s0.788-2.382,2.08-2.382c1.457,0,1.833,1.265,1.833,2.08
			c0,0.163-0.009,0.283-0.028,0.375H54.997L54.997,39.608z M57.361,39.031c0.01-0.504-0.21-1.301-1.118-1.301
			c-0.824,0-1.172,0.741-1.237,1.301H57.361z"/>
		<path fill="#3B679B" d="M59.032,40.863c0.246,0.146,0.668,0.313,1.07,0.313c0.578,0,0.853-0.284,0.853-0.66
			c0-0.385-0.229-0.587-0.816-0.806c-0.805-0.294-1.181-0.725-1.181-1.256c0-0.715,0.586-1.301,1.528-1.301
			c0.45,0,0.843,0.118,1.083,0.274l-0.192,0.586c-0.174-0.109-0.495-0.266-0.907-0.266c-0.476,0-0.733,0.274-0.733,0.604
			c0,0.367,0.257,0.531,0.834,0.762c0.76,0.282,1.163,0.669,1.163,1.328c0,0.787-0.614,1.338-1.65,1.338
			c-0.485,0-0.934-0.129-1.246-0.312L59.032,40.863z"/>
		<path fill="#3B679B" d="M63.742,36.182v1.063h1.155v0.614h-1.155v2.392c0,0.549,0.156,0.861,0.604,0.861
			c0.22,0,0.349-0.019,0.467-0.056l0.036,0.614c-0.154,0.055-0.402,0.11-0.713,0.11c-0.376,0-0.679-0.129-0.871-0.339
			c-0.22-0.248-0.311-0.643-0.311-1.164v-2.419h-0.687v-0.614h0.687V36.42L63.742,36.182z"/>
		<path fill="#3B679B" d="M71.458,40.461c0,0.467,0.009,0.87,0.038,1.218h-0.715l-0.045-0.723h-0.019
			c-0.202,0.357-0.678,0.824-1.466,0.824c-0.697,0-1.531-0.395-1.531-1.942v-2.592h0.807v2.446c0,0.843,0.266,1.42,0.989,1.42
			c0.54,0,0.917-0.376,1.063-0.742c0.045-0.11,0.074-0.257,0.074-0.412v-2.712h0.805V40.461L71.458,40.461z"/>
		<path fill="#3B679B" d="M72.798,38.444c0-0.467-0.01-0.833-0.036-1.2h0.713l0.046,0.733h0.018c0.22-0.412,0.733-0.824,1.466-0.824
			c0.613,0,1.566,0.366,1.566,1.887v2.64h-0.805v-2.557c0-0.715-0.266-1.31-1.026-1.31c-0.522,0-0.935,0.375-1.081,0.824
			c-0.037,0.102-0.056,0.238-0.056,0.376v2.665h-0.805L72.798,38.444L72.798,38.444z"/>
		<path fill="#3B679B" d="M78.334,39.608c0.018,1.09,0.705,1.539,1.521,1.539c0.577,0,0.934-0.101,1.228-0.229l0.146,0.578
			c-0.284,0.128-0.779,0.284-1.485,0.284c-1.365,0-2.18-0.907-2.18-2.245s0.787-2.382,2.08-2.382c1.458,0,1.832,1.265,1.832,2.08
			c0,0.163-0.01,0.283-0.026,0.375H78.334L78.334,39.608z M80.697,39.031c0.009-0.504-0.21-1.301-1.117-1.301
			c-0.824,0-1.173,0.741-1.237,1.301H80.697z"/>
		<path fill="#3B679B" d="M84.419,38.444c0-0.467-0.018-0.833-0.036-1.2h0.706l0.036,0.725h0.028
			c0.247-0.422,0.66-0.815,1.401-0.815c0.596,0,1.054,0.365,1.246,0.888h0.019c0.137-0.256,0.322-0.438,0.504-0.577
			c0.266-0.202,0.549-0.312,0.971-0.312c0.596,0,1.466,0.385,1.466,1.924v2.603h-0.789v-2.501c0-0.861-0.32-1.365-0.961-1.365
			c-0.468,0-0.816,0.339-0.962,0.724c-0.037,0.119-0.064,0.257-0.064,0.403v2.739h-0.789v-2.657c0-0.705-0.31-1.209-0.924-1.209
			c-0.495,0-0.871,0.403-0.999,0.806c-0.045,0.11-0.064,0.257-0.064,0.395v2.665h-0.789V38.444L84.419,38.444z"/>
		<path fill="#3B679B" d="M95.18,40.617c0,0.384,0.018,0.76,0.063,1.062H94.52l-0.063-0.559h-0.029
			c-0.246,0.349-0.723,0.66-1.355,0.66c-0.898,0-1.356-0.632-1.356-1.273c0-1.072,0.954-1.658,2.667-1.648v-0.093
			c0-0.356-0.101-1.026-1.008-1.017c-0.42,0-0.851,0.119-1.164,0.329l-0.183-0.541c0.367-0.229,0.907-0.384,1.466-0.384
			c1.356,0,1.687,0.925,1.687,1.804L95.18,40.617L95.18,40.617z M94.402,39.416c-0.881-0.019-1.878,0.137-1.878,0.999
			c0,0.53,0.348,0.769,0.75,0.769c0.586,0,0.962-0.366,1.09-0.742c0.028-0.092,0.038-0.184,0.038-0.256L94.402,39.416L94.402,39.416
			z"/>
		<path fill="#3B679B" d="M96.482,38.629c0-0.522-0.009-0.973-0.037-1.385h0.707l0.036,0.88h0.027
			c0.202-0.596,0.697-0.972,1.237-0.972c0.083,0,0.147,0.009,0.22,0.018v0.761c-0.083-0.019-0.166-0.019-0.274-0.019
			c-0.569,0-0.972,0.423-1.081,1.026c-0.019,0.11-0.029,0.247-0.029,0.376v2.364h-0.806L96.482,38.629L96.482,38.629z"/>
		<path fill="#3B679B" d="M102.412,41.001h-0.019c-0.247,0.431-0.732,0.779-1.448,0.779c-1.036,0-1.879-0.889-1.879-2.236
			c0-1.667,1.073-2.391,2.008-2.391c0.687,0,1.146,0.34,1.365,0.76h0.018l0.028-0.669h0.76c-0.018,0.367-0.036,0.761-0.036,1.219
			v5.031h-0.797V41.001L102.412,41.001z M102.412,39.04c0-0.11-0.009-0.229-0.037-0.329c-0.128-0.495-0.55-0.917-1.155-0.917
			c-0.834,0-1.336,0.706-1.336,1.695c0,0.889,0.419,1.649,1.311,1.649c0.521,0,0.969-0.32,1.153-0.87
			c0.037-0.119,0.064-0.274,0.064-0.394V39.04L102.412,39.04z"/>
		<path fill="#3B679B" d="M108.26,40.461c0,0.467,0.009,0.87,0.036,1.218h-0.714l-0.045-0.723h-0.019
			c-0.202,0.357-0.678,0.824-1.466,0.824c-0.696,0-1.53-0.395-1.53-1.942v-2.592h0.806v2.446c0,0.843,0.266,1.42,0.99,1.42
			c0.541,0,0.917-0.376,1.063-0.742c0.046-0.11,0.072-0.257,0.072-0.412v-2.712h0.809V40.461L108.26,40.461z"/>
		<path fill="#3B679B" d="M110.048,39.608c0.018,1.09,0.706,1.539,1.521,1.539c0.578,0,0.935-0.101,1.229-0.229l0.146,0.578
			c-0.284,0.128-0.779,0.284-1.485,0.284c-1.364,0-2.18-0.907-2.18-2.245s0.787-2.382,2.08-2.382c1.456,0,1.832,1.265,1.832,2.08
			c0,0.163-0.008,0.283-0.028,0.375H110.048L110.048,39.608z M112.412,39.031c0.009-0.504-0.21-1.301-1.118-1.301
			c-0.824,0-1.172,0.741-1.237,1.301H112.412z"/>
		<path fill="#3B679B" d="M119.956,35.174v5.359c0,0.395,0.018,0.843,0.036,1.146h-0.715l-0.037-0.77h-0.027
			c-0.239,0.495-0.771,0.871-1.495,0.871c-1.071,0-1.905-0.907-1.905-2.255c-0.009-1.475,0.917-2.372,1.989-2.372
			c0.686,0,1.136,0.32,1.337,0.668h0.019v-2.647H119.956L119.956,35.174z M119.158,39.05c0-0.102-0.01-0.238-0.037-0.339
			c-0.119-0.505-0.559-0.926-1.163-0.926c-0.834,0-1.329,0.733-1.329,1.704c0,0.898,0.45,1.64,1.311,1.64
			c0.541,0,1.035-0.366,1.182-0.961c0.027-0.111,0.037-0.221,0.037-0.349L119.158,39.05L119.158,39.05z"/>
		<path fill="#3B679B" d="M121.752,39.608c0.018,1.09,0.705,1.539,1.521,1.539c0.577,0,0.936-0.101,1.229-0.229l0.145,0.578
			c-0.282,0.128-0.777,0.284-1.482,0.284c-1.365,0-2.181-0.907-2.181-2.245s0.787-2.382,2.079-2.382c1.458,0,1.833,1.265,1.833,2.08
			c0,0.163-0.009,0.283-0.029,0.375H121.752L121.752,39.608z M124.116,39.031c0.01-0.504-0.21-1.301-1.117-1.301
			c-0.826,0-1.173,0.741-1.237,1.301H124.116z M124.3,35.329l-1.117,1.311h-0.568l0.806-1.311H124.3z"/>
		<path fill="#3B679B" d="M125.896,38.692c0-0.568-0.019-1.026-0.037-1.448h0.715l0.045,0.76h0.019
			c0.321-0.54,0.853-0.852,1.576-0.852c1.082,0,1.887,0.907,1.887,2.244c0,1.596-0.979,2.383-2.024,2.383
			c-0.585,0-1.099-0.256-1.365-0.696h-0.018v2.41h-0.796V38.692L125.896,38.692z M126.693,39.874c0,0.119,0.008,0.229,0.036,0.33
			c0.147,0.559,0.633,0.943,1.21,0.943c0.853,0,1.347-0.696,1.347-1.713c0-0.88-0.468-1.641-1.32-1.641
			c-0.549,0-1.072,0.386-1.217,0.99c-0.029,0.101-0.056,0.22-0.056,0.32V39.874z"/>
		<path fill="#3B679B" d="M135.125,39.425c0,1.641-1.146,2.355-2.209,2.355c-1.19,0-2.125-0.88-2.125-2.282
			c0-1.476,0.98-2.345,2.199-2.345C134.263,37.153,135.125,38.078,135.125,39.425z M131.615,39.471c0,0.972,0.55,1.705,1.337,1.705
			c0.77,0,1.348-0.725,1.348-1.723c0-0.751-0.376-1.695-1.329-1.695C132.028,37.758,131.615,38.638,131.615,39.471z"/>
		<path fill="#3B679B" d="M136.033,40.863c0.249,0.146,0.67,0.313,1.073,0.313c0.577,0,0.852-0.284,0.852-0.66
			c0-0.385-0.229-0.587-0.815-0.806c-0.806-0.294-1.182-0.725-1.182-1.256c0-0.715,0.586-1.301,1.529-1.301
			c0.451,0,0.844,0.118,1.082,0.274l-0.193,0.586c-0.172-0.109-0.494-0.266-0.907-0.266c-0.477,0-0.732,0.274-0.732,0.604
			c0,0.367,0.256,0.531,0.833,0.762c0.76,0.282,1.163,0.669,1.163,1.328c0,0.787-0.614,1.338-1.649,1.338
			c-0.486,0-0.934-0.129-1.247-0.312L136.033,40.863z"/>
		<path fill="#3B679B" d="M140.223,39.608c0.018,1.09,0.705,1.539,1.521,1.539c0.578,0,0.934-0.101,1.228-0.229l0.146,0.578
			c-0.283,0.128-0.779,0.284-1.484,0.284c-1.365,0-2.18-0.907-2.18-2.245s0.788-2.382,2.08-2.382c1.457,0,1.832,1.265,1.832,2.08
			c0,0.163-0.008,0.283-0.026,0.375H140.223L140.223,39.608z M142.586,39.031c0.008-0.504-0.211-1.301-1.118-1.301
			c-0.825,0-1.174,0.741-1.237,1.301H142.586z M142.77,35.329l-1.118,1.311h-0.568l0.807-1.311H142.77z"/>
		<path fill="#3B679B" d="M144.814,39.608c0.019,1.09,0.706,1.539,1.521,1.539c0.577,0,0.935-0.101,1.229-0.229l0.146,0.578
			c-0.284,0.128-0.779,0.284-1.485,0.284c-1.365,0-2.18-0.907-2.18-2.245s0.788-2.382,2.08-2.382c1.458,0,1.832,1.265,1.832,2.08
			c0,0.163-0.009,0.283-0.025,0.375H144.814L144.814,39.608z M147.178,39.031c0.01-0.504-0.21-1.301-1.117-1.301
			c-0.825,0-1.173,0.741-1.237,1.301H147.178z"/>
		<path fill="#3B679B" d="M154.721,35.174v5.359c0,0.395,0.019,0.843,0.038,1.146h-0.716l-0.036-0.77h-0.028
			c-0.237,0.495-0.77,0.871-1.493,0.871c-1.072,0-1.906-0.907-1.906-2.255c-0.01-1.475,0.917-2.372,1.989-2.372
			c0.688,0,1.136,0.32,1.338,0.668h0.018v-2.647H154.721L154.721,35.174z M153.925,39.05c0-0.102-0.009-0.238-0.038-0.339
			c-0.118-0.505-0.559-0.926-1.163-0.926c-0.834,0-1.328,0.733-1.328,1.704c0,0.898,0.449,1.64,1.311,1.64
			c0.542,0,1.035-0.366,1.181-0.961c0.029-0.111,0.038-0.221,0.038-0.349V39.05L153.925,39.05z"/>
		<path fill="#3B679B" d="M157.133,35.338c-0.21,0.77-0.604,1.76-0.852,2.181l-0.513,0.056c0.191-0.541,0.439-1.484,0.54-2.144
			L157.133,35.338z"/>
		<path fill="#3B679B" d="M158.224,39.736l-0.641,1.942h-0.824l2.105-6.175h0.953l2.107,6.175h-0.852l-0.66-1.942H158.224z
			 M160.258,39.114l-0.614-1.778c-0.137-0.403-0.23-0.77-0.32-1.127h-0.019c-0.092,0.357-0.183,0.743-0.313,1.118l-0.604,1.787
			H160.258z"/>
		<path fill="#3B679B" d="M163.303,36.182h-1.879v-0.678h4.571v0.678h-1.888v5.497h-0.805V36.182z"/>
		<path fill="#3B679B" d="M169.873,38.784h-2.393v2.226h2.678v0.669h-3.483v-6.175h3.345v0.668h-2.539v1.952h2.393V38.784
			L169.873,38.784z"/>
		<path fill="#3B679B" d="M174.575,41.679l-0.797-1.364c-0.321-0.522-0.514-0.862-0.706-1.22h-0.018
			c-0.174,0.357-0.357,0.688-0.67,1.229l-0.742,1.355h-0.915l1.886-3.124l-1.813-3.051h0.924l0.816,1.447
			c0.228,0.403,0.402,0.715,0.566,1.045h0.029c0.173-0.367,0.328-0.65,0.558-1.045l0.834-1.447h0.926l-1.878,3.005l1.924,3.17
			H174.575z"/>
		<path fill="#3B679B" d="M181.439,38.527c0,2.116-1.292,3.253-2.867,3.253c-1.64,0-2.777-1.274-2.777-3.143
			c0-1.961,1.21-3.244,2.86-3.244C180.35,35.394,181.439,36.686,181.439,38.527z M176.639,38.619c0,1.328,0.716,2.51,1.979,2.51
			c1.266,0,1.98-1.163,1.98-2.565c0-1.236-0.642-2.52-1.972-2.52C177.298,36.044,176.639,37.271,176.639,38.619z"/>
	</g>
	<g>
		<path opacity="0.6" fill="#3B679B" enable-background="new    " d="M277.051,21.17c0,0.761-0.618,1.378-1.379,1.378h-10.779V11.77
			c0-0.761,0.617-1.378,1.379-1.378h9.399c0.762,0,1.379,0.617,1.379,1.378L277.051,21.17L277.051,21.17z"/>
		<path opacity="0.8" fill="#3B679B" enable-background="new    " d="M280.864,12.495c0,0.418-0.339,0.757-0.757,0.757h-5.918V7.333
			c0-0.418,0.339-0.757,0.757-0.757h5.161c0.418,0,0.757,0.339,0.757,0.757V12.495L280.864,12.495z"/>
		<path opacity="0.6" fill="#3B679B" enable-background="new    " d="M276.192,6.959c0,0.263-0.213,0.476-0.477,0.476h-3.72v-3.72
			c0-0.262,0.214-0.476,0.477-0.476h3.243c0.264,0,0.477,0.213,0.477,0.476V6.959z"/>
		<path opacity="0.8" fill="#3B679B" enable-background="new    " d="M284.457,7.092c0,0.189-0.154,0.342-0.343,0.342h-2.678V4.757
			c0-0.188,0.153-0.342,0.343-0.342h2.335c0.188,0,0.343,0.154,0.343,0.342V7.092z"/>
		<path fill="#3B679B" d="M280.627,3.636c0,0.114-0.093,0.206-0.206,0.206h-1.614V2.229c0-0.114,0.093-0.207,0.207-0.207h1.407
			c0.113,0,0.206,0.092,0.206,0.207V3.636L280.627,3.636z"/>
		<path fill="#3B679B" d="M284.457,1.834c0,0.06-0.049,0.107-0.108,0.107h-0.841V1.1c0-0.06,0.048-0.108,0.106-0.108h0.734
			c0.06,0,0.108,0.048,0.108,0.108V1.834z"/>
		<path opacity="0.9" fill="#3B679B" enable-background="new    " d="M283.439,19.026c0,0.323-0.262,0.584-0.584,0.584h-4.565
			v-4.565c0-0.322,0.262-0.584,0.584-0.584h3.981c0.322,0,0.584,0.262,0.584,0.584V19.026L283.439,19.026z"/>
	</g>
</g>
</svg>
