id_habilitation;role;libelle;active;id_ref_theme_habilitation
1;ROLE_nouvelleConsultation,ROLE_caracteristiquesConsultation;Créer une consultation;oui;1
2;ROLE_nouvelleDsp,ROLE_formulaireAmontDsp;Initialiser une DSP;oui;1
3;ROLE_nouvelAvenant,ROLE_creerAvenant,ROLE_gestionAvenants;Créer un avenant;oui;1
4;ROLE_nouvelAvenant,ROLE_creerAvenant;Valider l'avenant;oui;1
5;ROLE_avisCommission;Saisir l'avis de la commission (avenant);oui;1
6;ROLE_calendrierInitial;Définir le calendrier initial de la procédure;oui;1
7;ROLE_validerCalendrierInitial;Valider le calendrier initial;oui;1
8;ROLE_consolidationDCEpa,ROLE_consolidationDCEOffrepa,ROLE_consolidationDCEOffreFinalepa;Consolider les pièces administratives;oui;1
9;ROLE_consolidationDCEpt,ROLE_consolidationDCEOffrept,ROLE_consolidationDCEOffreFinalept;Consolider les pièces techniques;oui;1
10;ROLE_validationPiecesDCE,ROLE_validationPiecesDCEOffre,ROLE_validationPiecesDCEOffreFinale;Valider le DCE;oui;1
11;ROLE_choixSupportPublicite;Choisir les supports de publicité;oui;1
12;ROLE_preparationAAPC;Préparer l'AAPC ;oui;1
13;ROLE_validationAAPC;Valider l'AAPC;oui;1
14;ROLE_lancementConsultation;Publier l'AAPC ;oui;2
15;ROLE_envoiDemat,ROLE_envoiDematOffre,ROLE_envoiDematOffreFinale;Envoyer le DCE sur DEMAT;oui;2
16;ROLE_registreRetrait,ROLE_registreRetraitOffre,ROLE_registreRetraitOffreFinale;Gérer le registre des retraits;oui;3
17;ROLE_questionReponse,ROLE_questionReponseOffre,ROLE_questionReponseOffreFinale;Gérer les questions / réponses;oui;3
18;ROLE_registreDepot,ROLE_registreDepotOffre,ROLE_registreDepotOffreFinale;Gérer le registre des dépôts;oui;3
19;ROLE_registreDepotConcours;Gérer le registre de dépôt avec anonymat (concours);oui;3
20;ROLE_ajustementDCE,ROLE_ajustementDCEOffre,ROLE_ajustementDCEOffreFinale;Ajuster la consultation;oui;3
21;ROLE_choixSupportRectificatif,ROLE_choixSupportRectificatifOffre,ROLE_choixSupportRectificatifOffreFinale;Choisir les supports de publication de l'avis rectificatif;oui;3
22;ROLE_preparationAvisRectificatif,ROLE_preparationAvisRectificatifOffre,ROLE_preparationAvisRectificatifOffreFinale;Préparer l'avis rectificatif;oui;3
23;ROLE_validationAvisRectificatif,ROLE_validationAvisRectificatifOffre,ROLE_validationAvisRectificatifOffreFinale;Valider l'avis rectificatif;oui;3
24;ROLE_lancementRectification,ROLE_lancementRectificationOffre,ROLE_lancementRectificationOffreFinale;Publier l'avis rectificatif;oui;3
25;ROLE_ouvertureCandidature,ROLE_ouvertureCandidatureEnveloppeUnique;Ouvrir les canditatures: déchiffrer les plis;oui;4
26;ROLE_ouvertureCandidature,ROLE_ouvertureCandidatureEnveloppeUnique;Saisir les éléments des candidatures;oui;4
27;ROLE_complementAction;Gérer les compléments de candidatures;oui;4
28;ROLE_recommandationCandidature,ROLE_recommandationDspSAPIN;Recommander des candidatures;oui;4
29;ROLE_recommandationCandidaturesAdmissiblesPA,ROLE_recommandationDspPA1,ROLE_recommandationDspPA2;Valider la recommandation des candidatures (Pouvoir Adjudicateur);oui;4
30;ROLE_candidatureEcarte,ROLE_candidatureEcartePA;Valider la recommandation des candidatures (instances transversales);oui;4
31;ROLE_gestionAction;Ouvrir les offres: déchiffrer les plis;oui;4
32;ROLE_ouvertureOffre,ROLE_ouvertureReponse,ROLE_ouvertureProjetPA,ROLE_ouvertureOffreFinale,ROLE_ouvertureOffreFinanciere,ROLE_ouvertureOffreSimple,ROLE_ouvertureOffreEnveloppeUnique,ROLE_ouvertureOffreFusionne,ROLE_ouvertureOffreCandidatureFusionne,ROLE_ouvertureCandidatureFusionne,ROLE_ouvertureReponseFusionne,ROLE_ouvertureProjetFusionne,ROLE_ouvertureOffreAnonymatFusionne;Saisir les éléments des offres;oui;4
33;ROLE_leveeAnonymat;Lever l'anonymat (concours);oui;4
34;ROLE_recommandationAttributairesPressentisPA,ROLE_recommandationAttributairesPressentis,ROLE_recommandationProjetsPressentis,ROLE_recommandationAttributairesPressentisPADsp,ROLE_recommandationAttributairesPressentisDsp,ROLE_recommandationAttributairesPressentisEnveloppeUnique;Classer des offres;oui;4
35;ROLE_attributionSousReserve,ROLE_attributionSousReservePA,ROLE_attributionSousReserveEnveloppeUnique;Valider le classement des offres;oui;4
36;ROLE_confirmationAttribution;Confirmer l'attribution (PA);oui;4
37;ROLE_choixSupportAttribution;Choisir les supports de publication de l'avis d'attribution;oui;5
38;ROLE_preparationAvisAttribution;Préparer l'avis d'attribution;oui;5
39;ROLE_validationAvisAttribution;Valider l'avis d'attribution;oui;5
40;ROLE_avisAttribution,ROLE_avisAttributionAvenant,ROLE_notificationAvenant;Publier l'avis d'attribution;oui;5
41;ROLE_attributionMarche,ROLE_transmissionMarcheControleLegalite,ROLE_attributionMarcheDsp,ROLE_numerotationContrat,ROLE_notificationMarche,ROLE_generationNumero,ROLE_notificationAttributaireContrat,ROLE_precisionContratAttribue,ROLE_attributionContrat;Saisir les éléments après attribution;oui;5
42;ROLE_attributionMarcheAvenant;Saisir les éléments après attribution de l'avenant;oui;5
43;ROLE_instanceCIM;Gérer les instances (Direction);oui;6
44;ROLE_reunionCIM;Gérer les réunions (Direction);oui;6
45;ROLE_preInscrireConsultationCIM;Pré-inscrire des consultations à une Instance Direction;oui;6
46;ROLE_definirOrdreDuJourCIM;Valider les pré-inscriptions (ordre du jour instance transversale);oui;6
47;ROLE_envoyerDossierCIM;Gérer l'envoi des dossiers (instance Direction);oui;6
48;ROLE_quorumCIM;Gérer le quorum (instance Direction);oui;6
49;ROLE_instanceCAO;Gérer les instances transversales;oui;7
50;ROLE_reunionCAO;Gérer les réunions (instance transversale);oui;7
51;ROLE_preinscriptionRecommandationCandidaturesAdmissiblesPA,ROLE_preinscriptionRecommandationAttributairesPressentisEnveloppeUnique,ROLE_preinscriptionSuiviEchange,ROLE_preinscriptionRecommandationDspPA1,ROLE_preinscriptionRecommandationAttributairesPressentisPA,ROLE_preinscriptionRecommandationAttributairesPressentis,ROLE_preinscriptionCandidature,ROLE_preinscriptionOffre, ROLE_preinscriptionOffreFinale,ROLE_attribution,ROLE_preinscriptionAvisCommission;Pré-inscrire des consultations à une Instance Transversale ;oui;7
52;ROLE_definirOrdreDuJourCAO;Valider les pré-inscriptions (ordre du jour instance transversale);oui;7
53;ROLE_envoyerDossierCAO;Gérer l'envoi des dossiers (instance transversale) ;oui;7
54;ROLE_quorumCAO;Gérer le quorum (instance transversale);oui;7
55;ROLE_commissionDeliberations;Gérer les délibérations aval DAJ;oui;7
56;ROLE_biCles;Gérer les bi-clés;oui;13
57;ROLE_visionDetaillee;Intervention - Accéder à la vision détaillée des consultations;oui;8
58;ROLE_calendrierReel;Calendrier réel en lecture seule;oui;8
60;ROLE_gestionCourrier,ROLE_redactionLettreConsultation;Gérer les courriers;oui;8
61;ROLE_suiviEchange,ROLE_envoiLettreConsultation,ROLE_envoiDCEOperateur,ROLE_suiviEchangeDemat,ROLE_suiviEchangeDematOffre,ROLE_suiviEchangeDsp,ROLE_suiviEchangeDematOffreFinale;Suivre et saisir les échanges;oui;8
62;ROLE_suiviDeliberationAmont,ROLE_suiviDeliberationAval,ROLE_suiviDeliberationAvalAvenant;Gérer les délibérations Direction;oui;8
63;ROLE_ecritureConsultation;Accéder en modification à une consultation;oui;8
64;ROLE_dupliquerConsultation;Dupliquer une consultation;oui;8
65;ROLE_dupliquerDSP;Dupliquer une DSP;oui;8
66;ROLE_dissocierLot;Dissocier un lot;oui;8
67;ROLE_faireSuite;Faire suite à une consultation;oui;8
68;ROLE_accordCadre;Faire suite à un accord cadre;oui;8
69;ROLE_declarerSansSuite;Déclarer sans suite;oui;8
70;ROLE_declarerInfructueux;Déclarer infructueux;oui;8
71;ROLE_declarerClos;Déclarer clos;oui;8
72;ROLE_declarerClosDSP;Déclarer clos une DSP;oui;8
74;ROLE_REDACTION,ROLE_direction_service;Administrer les préférences Direction;oui;9
75;ROLE_REDACTION,ROLE_integralement_article;Reprendre intégralement un article;oui;9
76;ROLE_REDACTION,ROLE_clause;Administrer les clauses;oui;9
77;ROLE_REDACTION,ROLE_canevas;Administrer les canevas;oui;9
78;ROLE_baseConnaissance;Administrer l'espace collaboratif;oui;10
79;ROLE_statistiques;Exécuter les requêtes standard;oui;11
80;ROLE_creerContactEntreprise;Créer une fiche contact entreprise;oui;12
81;ROLE_creerEntreprise;Créer une fiche entreprise;oui;12
82;ROLE_sirenRaisonSocial;Modifier SIREN et Raison sociale des opérateurs économiques;oui;12
83;ROLE_utilisateur;Administrer les comptes utilisateurs;oui;13
84;ROLE_profil;Administrer les profils utilisateurs;oui;13
85;ROLE_annonceAccueil;Administrer les annonces d'accueil;oui;13
86;ROLE_infoBulle;Administrer les info-bulles;oui;13
87;ROLE_fichePratique;Administrer les fiches pratiques;oui;13
88;ROLE_compteBOAMP;Administrer les comptes BOAMP;oui;13
89;ROLE_suiviEnvoiPublicite;Suivi des envois des publicités;oui;8
90;ROLE_afficherToutesConsultations;Afficher toutes les consultations pour l'inscription à l'ordre du jour;oui;7
91;ROLE_visionDetailleeBeneficiaire;Vision - Accéder à la vision détaillée des consultations;oui;8
92;ROLE_referentielSupportExterne;Administrer les supports externes;oui;13
93;ROLE_organigrammeDirection;Administrer l'organigramme;oui;13
94;ROLE_envoiDossier;Signature des convocations (instances transversales);oui;6
95;ROLE_gestionDocumentModele;Gestion des modéles de documents;oui;13
98;ROLE_miseADisipositionDossiers;Mise à disposition des dossiers (instance transversale);oui;7
99;ROLE_accesAuxRapportsMisADisposition;Accès aux rapports mis à disposition;oui;8
100;ROLE_accesAuxRapportsMisADispositionPourTousMembres;Accès aux rapports mis à disposition pour tous les membres;oui;8
101;ROLE_historiqueAjustementDce;Visualiser l'historique du DCE;oui;3
102;ROLE_administrerLesProcedures;Administrer les procédures;oui;13
103;ROLE_administrerChampsAAPC;Administrer les champs par défaut AAPC;oui;13
104;ROLE_affecterProfilAdministrateur;Affecter un profil Administrateur;oui;13
105;ROLE_RedactionDocumentsREDAC,ROLE_REDACTION,ROLE_document,ROLE_invaliderDCE;Rédaction des documents;oui;9
106;ROLE_ValidationDocumentsREDAC,ROLE_REDACTION,ROLE_document,ROLE_invaliderDCE;Validation des documents;oui;9
107;ROLE_calendrierReel,ROLE_actualiserCalendrierReel;Actualiser le calendrier réel de la procédure;oui;8
108;ROLE_calendrierReel,ROLE_actualiserCalendrierReel,ROLE_modifierDateReellesCalendrierPassees;Modifier les dates réelles du calendrier réel;oui;8
109;ROLE_creationDemandeAchat;Créer une demande d'achat;oui;1
110;ROLE_validationDemandeAchat;Valider une demande d'achat;oui;1
111;ROLE_administrerOperationUniteFonctionnelle;Administration du référentiel opérations travaux / unités fonctionnelles;oui;13
112;ROLE_administrerDemandeAchat;Administrer la validation des demandes achats;oui;1
113;ROLE_validerClauses;Habilitation pour valider ou refuser les clauses du clausier client;oui;9
114;ROLE_validerCanevas;Habilitation pour valider ou refuser les canevas du clausier client;oui;9
115;ROLE_validerClausesEditeur;Habilitation pour valider ou refuser les clauses du clausier éditeur;non;9
116;ROLE_validerCanevasEditeur;Habilitation pour valider ou refuser les canevas du clausier éditeur;non;9
117;ROLE_administrerClauses;Habilitation pour rechercher, créer et exporter les clauses du clausier éditeur;oui;9
118;ROLE_administrerCanevas;Habilitation pour rechercher, créer et exporter les canevas du clausier éditeur;oui;9
119;ROLE_publicationVersionClauseEditeur;Publier une version de clausier Editeur;oui;9
120;ROLE_editerFormatODT;Editer au format odt;non;9
121;ROLE_modifierRapportConsultationInscrite;Modifier un rapport CAO pour une consultation inscrite;oui;7
122;ROLE_administrerSousEspaceCollaboratif;Administrer un sous espace collaboratif;non;10
123;ROLE_accederSousEspaceCollaboratif;Acceder un sous espace collaboratif;non;10
124;ROLE_declarerAbandonTechniqueConsultationOuAvenant;Déclarer une consultation, une DSP ou un avenant en abandon technique;oui;8
125;ROLE_supprimerConsultationOuAvenant;Supprimer une consultation, une DSP ou un avenant;oui;8
126;ROLE_administrerCodesAchat;Administration du référentiel codes achat;oui;13
127;ROLE_correspondanceNAV;Administrer les correspondances entre des codes CPV et des codes NAV;non;13
128;ROLE_consulterMessageDemat;Consulter les messages d'échanges DEMAT;oui;8
129;ROLE_accederRegistresDemat;Accéder aux registres sur DEMAT;oui;3
130;ROLE_modifierLogoDocument;Modifier le logo dans les documents;oui;9
131;ROLE_gabaritInterministeriel;Administrer les gabarits (interministériel);oui;9
132;ROLE_negociation,ROLE_negociationReponse,ROLE_negociationProjet;Administrer les gabarits (ministériel);oui;9
133;ROLE_gabaritDirection;Administrer les gabarits (direction);oui;9
134;ROLE_SupprimerArticles;Supprimer Articles / sous Articles;oui;9
135;ROLE_negociation;Gérer les négociatiosn;oui;4
136;ROLE_activerVersionClausier;Activer une version du clausier;oui;9
140;ROLE_administrerImputationBudgetaire;Administration du référentiel imputations budgétaires;oui;13
141;ROLE_administrerChampsAdditionnels;Administration des champs additionnels;oui;13
