Keyword;NbParams/ObjectType;ObjectName;Param1;Param2;Param3;Param4;Param5;Param6;Param7;Param8;Param9;Param10;Param11;Param12;Param13;Param14;Param15;Param16
Lancer;;;;;;;;;;;;;;;;;;
Action;Metier;F_E001_Ouvrir_url_PLACE_entreprise;;;;;;;;;;;;;;;;
Action;Metier;F_E001_E010_Acceder_inscription_entreprise;100000009;00033;;;;;;;;;;;;;;
Action;Metier;F_E010_E011_Saisir_donnees_inscription_entreprise;ATOM_ENTR_08;1071;SA;OUI;GRIMON;Ludovic;ATOM_EMAIL_08@atom.com;0148751972;ATOMlog08;wqa.2ZSXcde;;;;;;
Action;Metier;F_E011_E004_Saisir_donnees_etablissement_rattache;00033;13 RUE PAUL BERT;94130;NOGENT-SUR-MARNE;France;;;;;;;;;;;
Fermer;;;;;;;;;;;;;;;;;;
