Keyword;NbParams/ObjectType;ObjectName;Param1;Param2;Param3;Param4;Param5;Param6;Param7;Param8;Param9;Param10;Param11;Param12;Param13;Param14;Param15;Param16
Lancer;;;;;;;;;;;;;;;;;;
Action;Metier;F_E001_E012_Authentification_PLACE_entreprise;;;;;;;;;;;;;;;;;
Action;Metier;F_E012_MAJ_activite_section_activite;www.aqueo.com;Ingénierie, études techniques (7112B);10000;3;;;;;;;;;;;;;
Action;Metier;F_E012_MAJ_activite_section_collaboration;Dupont;Fred;12 allée des Joncquilles;93700;DRANCY;Testeur;ATOM_EMAIL_0011@atom.com;;;;;;;;;;
Fermer;;;;;;;;;;;;;;;;;;
