Keyword;NbParams/ObjectType;ObjectName;Param1;Param2;Param3;Param4;Param5;Param6;Param7;Param8;Param9;Param10;Param11;Param12;Param13;Param14;Param15;Param16
Lancer;;;;;;;;;;;;;;;;;;
Action;Metier;F_E001_E012_Authentification_PLACE_entreprise;;;;;;;;;;;;;;;;;
Action;Metier;F_E000_E005_Recherche_avancee_par_reference;$ref_cons_01;01/01/1900;01/01/2200;;;;;;;;;;;;;
Fermer;;;;;;;;;;;;;;;;;;
