Keyword;NbParams/ObjectType;ObjectName;Param1;Param2;Param3;Param4;Param5;Param6;Param7;Param8;Param9;Param10;Param11;Param12;Param13;Param14;Param15;Param16
F_A001_A001_Ouvrir_url_REDAC_pour_agent;0;;;;;;;;;;;;;;;;;
Redirection;;;$url_pour_agent;;;;;;;;;;;;;;;
