<?xml version="1.0" encoding="utf-8"?>
<!DOCTYPE svg PUBLIC "-//W3C//DTD SVG 1.1//EN" "http://www.w3.org/Graphics/SVG/1.1/DTD/svg11.dtd">
<svg version="1.1" id="Layer_1" xmlns="http://www.w3.org/2000/svg" x="0px"
     y="0px"
     width="100%" height="100%" preserveAspectRatio="none" viewBox="0 0 60 60"
     enable-background="new 0 0 60 60" xml:space="preserve">
<circle fill="none" stroke="#ddd" stroke-width="6" stroke-miterlimit="10" cx="23.5" cy="23.5" r="18.5"/>
<line fill="#ddd" stroke="#ddd" stroke-width="6" stroke-miterlimit="10" x1="35" y1="36" x2="56" y2="57"/>
</svg>
