<svg height="500" version="1.1" width="500" xmlns="http://www.w3.org/2000/svg"
     style="overflow: hidden; position: relative; left: -0.5px; top: -0.3125px;">

    <rect x="0" y="0" width="500" height="500" r="0" rx="0" ry="0"
          fill="#cd8530" stroke="solid"
          style="-webkit-tap-highlight-color: rgba(0, 0, 0, 0);stroke-width:1;stroke:rgb(0,0,0)">
    </rect>

    <polygon points="500 0, 200 0, 500 500"
             fill="#30cd85"
             style="stroke-width:1;stroke:rgb(0,0,0)"/>


    <polygon points="500 500, 0 200, 0 500"  fill="#cd3078"
             style="stroke-width:1;stroke:rgb(0,0,0)"/>

    <circle cx="500" cy="500" r="200" fill="#3078cd" style="stroke-width:1;stroke:rgb(0,0,0)" />

</svg>
