id_clauses_environnementales;libelle;libelle_court;code_externe;actif
1;Le marché public comprend une ou des clause(s) environnementale(s) comme spécification technique (ou exigences fonctionnelles);Le marché public comprend une ou des clause(s) environnementale(s) comme spécification technique (ou exigences fonctionnelles);CLAUSE_SPECIFICATION;TRUE
2;Le marché public comprend une ou des clause(s) environnementale(s) comme condition d'exécution;Le marché public comprend une ou des clause(s) environnementale(s) comme condition d'exécution;CLAUSE_CONDITIONS;TRUE
3;Le marché public comprend une ou des clause(s) environnementale(s) comme critère d'attribution du marché;Le marché public comprend une ou des clause(s) environnementale(s) comme critère d'attribution du marché;CLAUSE_ATTRIBUTION;TRUE
