<svg viewBox="-30 -30 800 800"
     xmlns="http://www.w3.org/2000/svg">
    <defs>
        <!-- pointe de flèche -->

    </defs>
    <!-- axes des coordonnées -->
    <polyline points="90,0 90,620 710,620"
              fill="none"
              stroke="black"
              stroke-width="2"/>
    <text x="60" y="30" font-size="40"
          fill="black">+
    </text>
    <text x="30" y="-10" font-size="18"
          fill="black">Risques internes et externes</text>
    <text x="60" y="590" font-size="40"
          fill="black">-
    </text>
    <text x="130" y="650" font-size="40"
          fill="black">-
    </text>
    <text x="680" y="650" font-size="40"
          fill="black">+
    </text>
    <text x="510" y="650" font-size="18"
          fill="black">Estimation montant</text>



</svg>
