id;libelle;id_ref_type_clause;simple;expression;actif;libelle_court;code_externe
2;Numéro de consultation;9;TRUE;consultation.numeroConsultation;TRUE;Numéro de consultation;consultation_numero
4;Pouvoir adjudicateur;9;TRUE;consultation.epmTRefPouvoirAdjudicateur.libelle;TRUE;Pouvoir adjudicateur;pouvoir_adjudicateur
5;Intitulé de la consultation ;9;TRUE;consultation.IntituleConsultation;TRUE;Intitulé de la consultation ;consultation_intitule
6;Objet de la consultation;9;TRUE;consultation.objet;TRUE;Objet de la consultation;consultation_objet
7;Procédure de passation;9;TRUE;consultation.epmTRefProcedure.documentLibelle;TRUE;Procédure de passation;passation_procedure
9;Nature des prestations;9;TRUE;naturePrestation();TRUE;Nature des prestations;prestation_nature
10;Direction / Service(s);9;TRUE;consultation.epmTRefDirectionService.libelle;TRUE;Direction / Service(s);service
12;Disposition sociale;9;FALSE;'';TRUE;Disposition sociale;disposition_sociale
13;Forme attendue du groupement attributaire;9;TRUE;consultation.epmTRefGroupementAttributaire.libelle;TRUE;Forme attendue du groupement attributaire;groupement_attributaire
14;Allotissement;9;TRUE;allotissement;TRUE;Allotissement;allotissement
15;Durée du marché;9;FALSE;'';TRUE;Durée du marché;marche_duree
16;Nombre de candidats admis à présenter une offre;9;FALSE;'';TRUE;Nombre de candidats admis à présenter une offre;candidature_nombre
17;Délai de validité des offres (en jours);9;TRUE;delaiValiditeOffres;TRUE;Délai de validité des offres (en jours);validite_offre
18;Numéro du lot n;9;TRUE;numeroLot();TRUE;Numéro du lot n;lot_numero
19;Intitulé du lot n;9;TRUE;intituleLot();TRUE;Intitulé du lot n;lot_intitule
20;Description succincte du lot n;9;TRUE;descriptionSuccinteLot();TRUE;Description succincte du lot n;lot_description
21;Signature électronique;9;TRUE;signature;TRUE;Signature électronique;signature_electronique
22;Acte d'engagement à signature propre;9;TRUE;signatureEngagement;TRUE;Acte d'engagement à signature propre;acte_engagement_signature_propre
24;Date limite de remise des plis;9;TRUE;dateRemisePlis;TRUE;Date limite de remise des plis;date_remise_plis
25;Code(s) CPV;9;TRUE;cpvs();TRUE;Code(s) CPV;cpv
26;Justification du non allotissement;9;TRUE;consultation.justificationNonAllotissement;TRUE;Justification du non allotissement;non_allotissement_justificatif
31;Liste des postes techniques;9;FALSE;'';TRUE;Liste des postes techniques;postes_techniques
32;Variantes autorisées;9;FALSE;'';TRUE;Variantes autorisées;variantes_autorisees
33;Variantes exigées;9;FALSE;'';TRUE;Variantes exigées;variantes_exigees
34;Prestations supplémentaires éventuelles;9;FALSE;'';TRUE;Prestations supplémentaires éventuelles;prestation_supplementaire
35;Reconductions;9;FALSE;'';TRUE;Reconductions;reconductions
36;Forme de Prix;9;FALSE;'';TRUE;Forme de Prix;prix_forme
37;Lieux d'execution;9;FALSE;'';TRUE;Lieux d'execution;lieux
38;Liste des lots juridiques;9;FALSE;'';TRUE;Liste des lots juridiques;lots
39;Liste des tranches;9;FALSE;'';TRUE;Liste des tranches;tranches
40;Tableau de contractant vierge;9;FALSE;'';TRUE;Tableau de contractant vierge;contractants_tableau_vierge
41;Tableau de bon de commande vierge;9;FALSE;'';TRUE;Tableau de bon de commande vierge;bon_commande_tableau_vierge
42;Tableau engagement et signature du candidat;9;FALSE;'';TRUE;Tableau engagement et signature du candidat;engagement_signature_candidat_tableau
43;Tableau engagement et signature du pouvoir adjudicateur;9;FALSE;'';TRUE;Tableau engagement et signature du pouvoir adjudicateur;engagement_signature_pouvoir_adjudicateur_tableau
44;Tableau de prix;9;FALSE;'';TRUE;Tableau de prix;pirx_tableau
46;Disposition environnementale;9;FALSE;'';TRUE;Disposition environnementale;dispositions_environnementales
47;Tableau de critére(s) d'attribution;9;FALSE;'';TRUE;Tableau de critére(s) d'attribution;attribution_criteres
48;Tableau de dérogations;9;FALSE;'';TRUE;Tableau de dérogations;derogations
