Keyword;NbParams/ObjectType;ObjectName;Param1;Param2;Param3;Param4;Param5;Param6;Param7;Param8;Param9;Param10;Param11;Param12;Param13;Param14;Param15;Param16
Lancer;;;;;;;;;;;;;;;;;;
Action;Metier;F_A001_A002_Authentification_PLACE_pour_ATOM_AH_1;;;;;;;;;;;;;;;;
Action;Metier;F_A000_A003_Recherche_rapide_consultation;$ref_cons_05;;;;;;;;;;;;;;;
Action;Metier;F_A007_Attribution;;;;;;;;;;;;;;;;
!Action;Metier;F_A007_Attribution_supprimer;;;;;;;;;;;;;;;;
Fermer;;;;;;;;;;;;;;;;;;
