<?xml version="1.0" standalone="no"?>
<!DOCTYPE svg PUBLIC "-//W3C//DTD SVG 1.1//EN" "http://www.w3.org/Graphics/SVG/1.1/DTD/svg11.dtd" >
<svg version="1.1" xmlns="http://www.w3.org/2000/svg">
  <metadata></metadata>
  <defs>
    <font horiz-adv-x="1150" id="robotoregular">
      <font-face ascent="1536" descent="-512" units-per-em="2048"/>
      <missing-glyph horiz-adv-x="507"/>
      <glyph
        d="M31 939v143h171v92q0 181 103.5 282t292.5 101q112 0 283 -61l-31 -156q-125 50 -238 50q-119 0 -171.5 -53.5t-52.5 -160.5v-94h221v-143h-221v-939h-186v939h-171zM787 0v1082h186v-1082h-186z"
        horiz-adv-x="1134" unicode="&#xfb01;"/>
      <glyph
        d="M60 939v143h171v118q1 173 97 265t273 92q101 0 400 -61v-1496h-185v1379q-124 20 -200 20q-200 0 -200 -210v-107h231v-143h-231v-939h-185v939h-171z"
        horiz-adv-x="1163" unicode="&#xfb02;"/>
      <glyph
        d="M60 939v143h171v111q0 174 93 269t263 95q64 0 127 -17l-10 -150q-47 9 -100 9q-90 0 -139 -52.5t-49 -150.5v-114h400v92q0 181 103.5 282t292.5 101q112 0 283 -61l-31 -156q-125 50 -239 50q-119 0 -171.5 -53t-52.5 -161v-94h222v-143h-222v-939h-185v939h-400v-939 h-185v939h-171zM1401 0v1082h185v-1082h-185z"
        horiz-adv-x="1748" unicode="&#xfb03;"/>
      <glyph
        d="M60 939v143h171v111q0 174 93 269t263 95q64 0 127 -17l-10 -150q-47 9 -100 9q-90 0 -139 -52.5t-49 -150.5v-114h400v118q1 173 97 265t273 92q101 0 400 -61v-1496h-185v1379q-124 20 -200 20q-200 0 -200 -210v-107h231v-143h-231v-939h-185v939h-400v-939h-185v939 h-171z"
        horiz-adv-x="1748" unicode="&#xfb04;"/>
      <glyph horiz-adv-x="0"/>
      <glyph horiz-adv-x="0"/>
      <glyph horiz-adv-x="507" unicode="&#xd;"/>
      <glyph horiz-adv-x="0"/>
      <glyph horiz-adv-x="507" unicode=" "/>
      <glyph horiz-adv-x="507" unicode="&#x09;"/>
      <glyph horiz-adv-x="507" unicode="&#xa0;"/>
      <glyph
        d="M160 93q0 45 27.5 75.5t81.5 30.5t82 -30.5t28 -75.5t-28 -74.5t-82 -29.5t-81.5 29.5t-27.5 74.5zM167 1456h194l-14 -1045h-167z"
        horiz-adv-x="527" unicode="!"/>
      <glyph d="M136 1042l1 494h140v-136l-30 -358h-111zM406 1042l1 494h140v-136l-30 -358h-111z" horiz-adv-x="655"
             unicode="&#x22;"/>
      <glyph
        d="M119 410v137h265l69 354h-258v139h285l82 416h143l-82 -416h264l82 416h144l-82 -416h204v-139h-231l-69 -354h225v-137h-251l-80 -410h-144l80 410h-264l-80 -410h-143l80 410h-239zM527 547h264l69 354h-264z"
        horiz-adv-x="1261" unicode="#"/>
      <glyph
        d="M110 429h185q0 -139 73 -214t207 -75q131 0 206 63t75 172q0 92 -64.5 155t-217.5 114q-213 65 -310.5 169.5t-97.5 265.5q0 164 95.5 269t262.5 125v219h149v-220q168 -23 261.5 -141t93.5 -323h-184q0 141 -67 224t-181 83q-119 0 -182 -61.5t-63 -171.5 q0 -102 66.5 -162.5t219 -110t238 -109t126 -138.5t40.5 -185q0 -169 -101.5 -272t-284.5 -122v-191h-148v191q-186 17 -291.5 132.5t-105.5 313.5z"
        unicode="$"/>
      <glyph
        d="M105 1106v70q0 131 83.5 216t214.5 85q133 0 215.5 -85.5t82.5 -221.5v-71q0 -132 -83.5 -215.5t-212.5 -83.5q-130 0 -215 83.5t-85 222.5zM243 1099q0 -78 44 -128.5t118 -50.5q71 0 114.5 49t43.5 134v73q0 78 -43 129t-117 51t-117 -51t-43 -133v-73zM342 176 l711 1138l105 -66l-711 -1138zM814 285v72q0 131 83.5 215.5t214.5 84.5t215 -84t84 -223v-71q0 -131 -83.5 -215.5t-213.5 -84.5t-215 83.5t-85 222.5zM952 279q0 -79 44 -129.5t118 -50.5q72 0 115 49.5t43 134.5v74q0 79 -43.5 129t-116.5 50q-71 0 -115.5 -49.5 t-44.5 -133.5v-74z"
        horiz-adv-x="1500" unicode="%"/>
      <glyph
        d="M101 391q0 105 58.5 193t223.5 205q-97 118 -130 190t-33 143q0 166 98 260t266 94q150 0 248 -87.5t98 -220.5q0 -88 -44.5 -162.5t-155.5 -156.5l-107 -79l324 -387q68 130 68 289h167q0 -255 -123 -423l208 -249h-222l-97 115q-74 -66 -173.5 -100.5t-202.5 -34.5 q-213 0 -342 113t-129 298zM286 391q0 -118 76.5 -189t209.5 -71q147 0 269 112l-355 425l-33 -24q-167 -123 -167 -253zM405 1128q0 -96 118 -240l118 83q68 48 93 91.5t25 105.5q0 67 -50 111.5t-126 44.5q-82 0 -130 -55.5t-48 -140.5z"
        horiz-adv-x="1273" unicode="&#x26;"/>
      <glyph d="M103 1057l1 479h149v-111l-21 -368h-129z" horiz-adv-x="357" unicode="'"/>
      <glyph
        d="M133 591q0 226 60.5 434t180.5 378t249 240l38 -122q-146 -112 -239.5 -342t-102.5 -515l-1 -85q0 -386 141 -670q85 -170 202 -266l-38 -113q-133 74 -254 248q-236 340 -236 813z"
        horiz-adv-x="700" unicode="("/>
      <glyph
        d="M38 -357q154 118 247.5 366.5t95.5 551.5v32q0 210 -44 390.5t-122.5 323.5t-176.5 223l39 113q132 -73 251.5 -244t179 -377t59.5 -441q0 -223 -58.5 -427.5t-179 -377.5t-252.5 -246z"
        horiz-adv-x="712" unicode=")"/>
      <glyph
        d="M28 1073l46 151l302 -112l-9 344h153l-10 -349l297 110l46 -152l-307 -91l198 -271l-124 -94l-186 288l-180 -281l-125 91l201 276z"
        horiz-adv-x="882" unicode="*"/>
      <glyph d="M78 606v175h406v425h186v-425h406v-175h-406v-460h-186v460h-406z" horiz-adv-x="1161" unicode="+"/>
      <glyph d="M29 -218q94 131 98 270v167h181v-145q0 -101 -49.5 -202t-124.5 -162z" horiz-adv-x="402" unicode=","/>
      <glyph d="M37 543v151h488v-151h-488z" horiz-adv-x="565" unicode="-"/>
      <glyph d="M144 97q0 48 28.5 80t85.5 32t86.5 -32t29.5 -80q0 -46 -29.5 -77t-86.5 -31t-85.5 31t-28.5 77z"
             horiz-adv-x="539" unicode="."/>
      <glyph d="M18 -125l608 1581h158l-607 -1581h-159z" horiz-adv-x="844" unicode="/"/>
      <glyph
        d="M115 596v247q0 321 111 477t348 156q235 0 346 -150.5t114 -464.5v-240q0 -325 -111 -483t-347 -158q-233 0 -345 154.5t-116 461.5zM300 592q0 -236 68.5 -348.5t207.5 -112.5q137 0 203.5 106t69.5 334v303q0 235 -66 342.5t-209 107.5q-142 0 -207 -107t-67 -329v-296 z"
        unicode="0"/>
      <glyph d="M170 1096v168l530 199h29v-1463h-186v1233z" unicode="1"/>
      <glyph
        d="M93 1027q0 201 129.5 325t346.5 124q203 0 321 -106.5t118 -283.5q0 -215 -274 -512l-390 -423h731v-151h-954v133l504 560q112 127 154.5 206.5t42.5 164.5q0 114 -69 187t-184 73q-138 0 -214.5 -78.5t-76.5 -218.5h-185z"
        unicode="2"/>
      <glyph
        d="M94 384h186q0 -115 75 -184t201 -69q134 0 205 70t71 201q0 127 -78 195t-225 70h-139v151h139q131 2 206 69t75 181q0 256 -255 256q-120 0 -191.5 -68.5t-71.5 -181.5h-185q0 173 126.5 287.5t321.5 114.5q206 0 323 -109t117 -303q0 -95 -61.5 -184t-167.5 -133 q120 -38 185.5 -126t65.5 -215q0 -196 -128 -311t-333 -115t-333.5 111t-128.5 293z"
        unicode="3"/>
      <glyph d="M53 338v109l652 1009h197v-967h202v-151h-202v-338h-186v338h-663zM263 489h453v714l-22 -40z" unicode="4"/>
      <glyph
        d="M154 383h175q17 -125 89 -188.5t190 -63.5q129 0 202.5 88t73.5 243q0 146 -79.5 234.5t-211.5 88.5q-121 0 -190 -53l-49 -40l-148 38l74 726h746v-171h-589l-44 -397q107 63 243 63q199 0 316 -131.5t117 -355.5q0 -225 -121.5 -354.5t-339.5 -129.5q-193 0 -315 107 t-139 296z"
        unicode="5"/>
      <glyph
        d="M132 554v71q0 402 171.5 614.5t510.5 217.5h33v-157h-34q-216 -4 -344 -128t-148 -349q115 132 314 132q190 0 303.5 -134t113.5 -346q0 -225 -122.5 -360t-328.5 -135q-209 0 -339 160.5t-130 413.5zM318 533q0 -180 81 -290t202 -110q125 0 196.5 92t71.5 241 q0 150 -72.5 242.5t-192.5 92.5q-95 0 -175 -57t-111 -143v-68z"
        unicode="6"/>
      <glyph d="M77 1304v152h984v-104l-603 -1352h-194l601 1304h-788z" unicode="7"/>
      <glyph
        d="M112 393q0 118 64.5 213t178.5 144q-97 48 -153 133t-56 193q0 184 118 292t311 108q192 0 310.5 -108t118.5 -292q0 -109 -57.5 -194t-155.5 -133q114 -49 180.5 -143t66.5 -213q0 -189 -127.5 -301t-335.5 -112q-210 0 -336.5 112.5t-126.5 300.5zM297 397 q0 -124 73.5 -195t204.5 -71q130 0 204 71.5t74 194.5q0 122 -77.5 199t-202.5 77t-200.5 -76t-75.5 -200zM331 1073q0 -111 66.5 -179.5t177.5 -68.5t177.5 68.5t66.5 179.5t-69 181t-175 70q-109 0 -176.5 -67.5t-67.5 -183.5z"
        unicode="8"/>
      <glyph
        d="M100 972q0 146 55.5 263t157.5 179t238 62q216 0 340.5 -161.5t124.5 -440.5v-54q0 -425 -168 -620.5t-507 -200.5h-36v156h39q229 4 352 119.5t134 365.5q-58 -69 -138.5 -111t-176.5 -42q-126 0 -219.5 62t-144.5 174.5t-51 248.5zM282 982q0 -149 71.5 -245.5 t191.5 -96.5q93 0 171.5 57t114.5 141v74q0 182 -79 296t-200 114q-122 0 -196 -93.5t-74 -246.5z"
        unicode="9"/>
      <glyph
        d="M134 97q0 48 28.5 80t85.5 32t86.5 -32t29.5 -80q0 -46 -29.5 -77t-86.5 -31t-85.5 31t-28.5 77zM135 980q0 48 28.5 80t85.5 32t86.5 -32t29.5 -80q0 -46 -29.5 -77t-86.5 -31t-85.5 31t-28.5 77z"
        horiz-adv-x="496" unicode=":"/>
      <glyph
        d="M41 -218q94 131 98 270v167h181v-145q0 -101 -49.5 -202t-124.5 -162zM111 980q0 48 28.5 80t85.5 32t86.5 -32t29.5 -80q0 -46 -29.5 -77t-86.5 -31t-85.5 31t-28.5 77z"
        horiz-adv-x="433" unicode=";"/>
      <glyph d="M72 574v146l818 378v-196l-626 -258l626 -253v-196z" horiz-adv-x="1041" unicode="&#x3c;"/>
      <glyph d="M152 399v160h834v-160h-834zM152 814v161h834v-161h-834z" horiz-adv-x="1124" unicode="="/>
      <glyph d="M134 196v192l661 262l-661 259v190l854 -378v-146z" horiz-adv-x="1070" unicode="&#x3e;"/>
      <glyph
        d="M75 1115q2 162 115.5 261.5t295.5 99.5q189 0 294.5 -101.5t105.5 -278.5q0 -175 -162 -345l-109 -108q-73 -81 -73 -233h-185q2 119 27 188t102 153l131 135q84 95 84 204q0 105 -55 164.5t-160 59.5q-102 0 -164 -54t-62 -145h-185zM349 93q0 45 27.5 75.5t81.5 30.5 t82 -30.5t28 -75.5t-28 -74.5t-82 -29.5t-81.5 29.5t-27.5 74.5z"
        horiz-adv-x="967" unicode="?"/>
      <glyph
        d="M118 478q12 275 123 494.5t301 339t429 119.5q249 0 427 -112t265 -323t75 -494q-12 -242 -120 -382t-289 -140q-187 0 -240 168q-54 -85 -123.5 -126.5t-143.5 -41.5q-142 0 -215 116t-54 321q15 165 75.5 294.5t156 203.5t200.5 74q81 0 145 -21.5t144 -84.5l-52 -554 q-19 -231 128 -231q113 0 183 112t76 292q19 389 -144.5 593t-497.5 204q-201 0 -357 -99.5t-246 -287.5t-101 -434q-12 -248 60 -430.5t219.5 -279t356.5 -96.5q90 0 180.5 22t150.5 57l37 -115q-62 -39 -164.5 -64t-207.5 -25q-250 0 -430 112.5t-269.5 324t-77.5 494.5z M712 417q-14 -142 26.5 -218t128.5 -76q60 0 115.5 51t91.5 146l1 9l46 503q-56 29 -120 29q-117 0 -193.5 -119t-95.5 -325z"
        horiz-adv-x="1839" unicode="@"/>
      <glyph d="M28 0l556 1456h168l557 -1456h-197l-139 380h-610l-137 -380h-198zM421 538h495l-248 681z"
             horiz-adv-x="1336" unicode="A"/>
      <glyph
        d="M169 0v1456h476q237 0 356.5 -98t119.5 -290q0 -102 -58 -180.5t-158 -121.5q118 -33 186.5 -125.5t68.5 -220.5q0 -196 -127 -308t-359 -112h-505zM361 157h317q134 0 211.5 69.5t77.5 191.5q0 263 -286 263h-320v-524zM361 835h290q126 0 201.5 63t75.5 171 q0 120 -70 174.5t-213 54.5h-284v-463z"
        horiz-adv-x="1275" unicode="B"/>
      <glyph
        d="M119 660v140q0 203 72.5 357t205.5 236.5t308 82.5q232 0 372 -129.5t163 -358.5h-193q-25 174 -108.5 252t-233.5 78q-184 0 -288.5 -136t-104.5 -387v-141q0 -237 99 -377t277 -140q160 0 245.5 72.5t113.5 252.5h193q-27 -231 -170.5 -356.5t-381.5 -125.5 q-258 0 -413.5 185t-155.5 495z"
        horiz-adv-x="1333" unicode="C"/>
      <glyph
        d="M169 0v1456h411q190 0 336 -84t225.5 -239t80.5 -356v-93q0 -206 -79.5 -361t-227 -238t-343.5 -85h-403zM361 157h202q222 0 345.5 138t123.5 393v85q0 248 -116.5 385.5t-330.5 139.5h-224v-1141z"
        horiz-adv-x="1343" unicode="D"/>
      <glyph d="M169 0v1456h915v-158h-723v-468h631v-157h-631v-516h733v-157h-925z" horiz-adv-x="1164" unicode="E"/>
      <glyph d="M169 0v1456h902v-158h-710v-498h611v-157h-611v-643h-192z" horiz-adv-x="1132" unicode="F"/>
      <glyph
        d="M122 658v127q0 329 153.5 510t431.5 181q228 0 367 -116.5t170 -330.5h-192q-54 289 -344 289q-193 0 -292.5 -135.5t-100.5 -392.5v-119q0 -245 112 -389.5t303 -144.5q108 0 189 24t134 81v327h-337v156h528v-534q-74 -106 -206.5 -158.5t-308.5 -52.5 q-178 0 -316 83.5t-213.5 237.5t-77.5 357z"
        horiz-adv-x="1395" unicode="G"/>
      <glyph d="M169 0v1456h192v-626h734v626h193v-1456h-193v673h-734v-673h-192z" horiz-adv-x="1460" unicode="H"/>
      <glyph d="M183 0v1456h192v-1456h-192z" horiz-adv-x="557" unicode="I"/>
      <glyph
        d="M53 402h192q0 -125 68.5 -195t198.5 -70q119 0 192.5 75t74.5 210v1034h193v-1031q0 -209 -125.5 -327t-334.5 -118q-217 0 -338 111t-121 311z"
        horiz-adv-x="1130" unicode="J"/>
      <glyph d="M169 0v1456h192v-720l647 720h232l-573 -643l618 -813h-230l-516 677l-178 -185v-492h-192z"
             horiz-adv-x="1284" unicode="K"/>
      <glyph d="M169 0v1456h193v-1299h690v-157h-883z" horiz-adv-x="1102" unicode="L"/>
      <glyph
        d="M169 0v1456h248l476 -1188l476 1188h249v-1456h-192v567l18 612l-478 -1179h-147l-477 1176l19 -609v-567h-192z"
        horiz-adv-x="1788" unicode="M"/>
      <glyph d="M169 0v1456h193l735 -1127v1127h191v-1456h-193l-733 1122v-1122h-193z" horiz-adv-x="1460" unicode="N"/>
      <glyph
        d="M118 668v105q0 210 73 371t206.5 246.5t305.5 85.5q175 0 308.5 -84.5t205.5 -245t72 -373.5v-92q0 -214 -72 -373.5t-204 -243.5t-308 -84q-172 0 -305 84.5t-206.5 241t-75.5 362.5zM309 681q0 -251 105.5 -394.5t290.5 -143.5q186 0 288 135.5t105 388.5v108 q0 259 -104 397.5t-291 138.5q-182 0 -286.5 -138.5t-107.5 -384.5v-107z"
        horiz-adv-x="1408" unicode="O"/>
      <glyph
        d="M169 0v1456h537q239 0 374.5 -122t135.5 -323q0 -212 -132.5 -326.5t-379.5 -114.5h-343v-570h-192zM361 727h345q154 0 236 72.5t82 209.5q0 130 -82 208t-225 81h-356v-571z"
        horiz-adv-x="1292" unicode="P"/>
      <glyph
        d="M109 668v105q0 210 73 371t206.5 246.5t305.5 85.5q176 0 309.5 -85t205.5 -244.5t72 -372.5v-93q0 -211 -67 -363.5t-188 -238.5l260 -204l-131 -121l-307 244q-72 -18 -152 -18q-172 0 -305 84.5t-206.5 241t-75.5 362.5zM301 681q0 -250 104.5 -394t290.5 -144 t288 135.5t105 388.5v108q0 257 -102.5 396.5t-292.5 139.5q-181 0 -285.5 -138.5t-107.5 -384.5v-107z"
        horiz-adv-x="1408" unicode="Q"/>
      <glyph
        d="M168 0v1456h482q246 0 378.5 -112t132.5 -326q0 -136 -73.5 -237t-204.5 -151l342 -618v-12h-206l-316 589h-342v-589h-193zM361 746h295q143 0 227.5 74t84.5 198q0 135 -80.5 207t-232.5 73h-294v-552z"
        horiz-adv-x="1261" unicode="R"/>
      <glyph
        d="M80 422h193q0 -132 97.5 -208.5t260.5 -76.5q152 0 233 62t81 169t-75 165.5t-272 115.5q-247 71 -359.5 174.5t-112.5 255.5q0 172 137.5 284.5t357.5 112.5q150 0 267.5 -58t182 -160t64.5 -223h-193q0 132 -84 207.5t-237 75.5q-142 0 -221.5 -62.5t-79.5 -173.5 q0 -89 75.5 -150.5t257 -112.5t284 -112.5t152 -143.5t49.5 -193q0 -177 -138 -283.5t-369 -106.5q-150 0 -280 57.5t-200.5 157.5t-70.5 227z"
        horiz-adv-x="1215" unicode="S"/>
      <glyph d="M49 1298v158h1126v-158h-468v-1298h-191v1298h-467z" horiz-adv-x="1222" unicode="T"/>
      <glyph
        d="M140 464v992h190v-986q0 -158 87 -245.5t248 -87.5q163 0 249.5 87t86.5 245v987h193v-990q-1 -206 -129.5 -337t-348.5 -147l-51 -2q-239 0 -381 129t-144 355z"
        horiz-adv-x="1328" unicode="U"/>
      <glyph d="M28 1456h209l414 -1201l416 1201h210l-540 -1456h-170z" horiz-adv-x="1303" unicode="V"/>
      <glyph
        d="M61 1456h192l230 -997l28 -192l41 173l288 1016h162l281 -1016l40 -176l31 196l226 996h193l-353 -1456h-175l-300 1061l-23 111l-23 -111l-311 -1061h-175z"
        horiz-adv-x="1817" unicode="W"/>
      <glyph d="M57 0l472 734l-461 722h225l351 -558l349 558h226l-460 -722l471 -734h-228l-358 568l-360 -568h-227z"
             horiz-adv-x="1284" unicode="X"/>
      <glyph d="M15 1456h220l378 -731l380 731h218l-502 -913v-543h-192v543z" horiz-adv-x="1230" unicode="Y"/>
      <glyph d="M86 0v144l798 1154h-785v158h1015v-141l-801 -1158h833v-157h-1060z" horiz-adv-x="1226" unicode="Z"/>
      <glyph d="M146 -312v1976h377v-152h-191v-1672h191v-152h-377z" horiz-adv-x="543" unicode="["/>
      <glyph d="M40 1456h176l608 -1581h-176z" horiz-adv-x="840" unicode="\"/>
      <glyph d="M9 -160h193v1672h-193v152h378v-1976h-378v152z" horiz-adv-x="543" unicode="]"/>
      <glyph d="M64 729l299 727h127l298 -727h-171l-191 482l-190 -482h-172z" horiz-adv-x="856" unicode="^"/>
      <glyph d="M4 0h916v-151h-916v151z" horiz-adv-x="924" unicode="_"/>
      <glyph d="M57 1536h223l194 -294h-159z" horiz-adv-x="633" unicode="`"/>
      <glyph
        d="M109 300q0 169 128.5 262.5t361.5 93.5h180v85q0 97 -58 154.5t-171 57.5q-99 0 -166 -50t-67 -121h-186q0 81 57.5 156.5t156 119.5t216.5 44q187 0 293 -93.5t110 -257.5v-498q0 -149 38 -237v-16h-194q-16 32 -26 114q-129 -134 -308 -134q-160 0 -262.5 90.5 t-102.5 229.5zM294 326q0 -87 58 -136t149 -49q87 0 165 45t113 117v222h-145q-340 0 -340 -199z"
        horiz-adv-x="1114" unicode="a"/>
      <glyph
        d="M140 0v1536h185v-573q112 139 309 139t309.5 -149t112.5 -408v-16q0 -248 -114 -398.5t-306 -150.5q-205 0 -317 145l-9 -125h-170zM325 307q85 -170 265 -170q133 0 207 103t74 310q0 189 -73 292t-210 103q-183 0 -263 -170v-468z"
        horiz-adv-x="1149" unicode="b"/>
      <glyph
        d="M92 531v31q0 158 58 281t166.5 191t256.5 68q182 0 302.5 -109t128.5 -283h-175q-8 105 -79.5 172.5t-176.5 67.5q-141 0 -218.5 -101.5t-77.5 -293.5v-35q0 -187 77 -288t220 -101q99 0 173 60t82 150h175q-5 -93 -64 -177t-157.5 -134t-208.5 -50q-221 0 -351.5 147.5 t-130.5 403.5z"
        horiz-adv-x="1072" unicode="c"/>
      <glyph
        d="M95 536v14q0 249 118 400.5t309 151.5q190 0 301 -130v564h185v-1536h-170l-9 116q-111 -136 -309 -136q-188 0 -306.5 154t-118.5 402zM280 529q0 -184 76 -288t210 -104q176 0 257 158v497q-83 153 -255 153q-136 0 -212 -105t-76 -311z"
        horiz-adv-x="1155" unicode="d"/>
      <glyph
        d="M93 511v34q0 161 61.5 287.5t172 198t239.5 71.5q211 0 328 -139t117 -398v-77h-733q4 -160 93.5 -258.5t227.5 -98.5q98 0 166 40t119 106l113 -88q-136 -209 -408 -209q-220 0 -358 144.5t-138 386.5zM284 640h542v14q-8 141 -76 218.5t-184 77.5q-112 0 -188 -81.5 t-94 -228.5z"
        horiz-adv-x="1085" unicode="e"/>
      <glyph
        d="M60 939v143h171v111q0 174 93 269t263 95q64 0 127 -17l-10 -150q-47 9 -100 9q-90 0 -139 -52.5t-49 -150.5v-114h231v-143h-231v-939h-185v939h-171z"
        horiz-adv-x="711" unicode="f"/>
      <glyph
        d="M96 550q0 253 117 402.5t310 149.5q198 0 309 -140l9 120h169v-1056q0 -210 -124.5 -331t-334.5 -121q-117 0 -229 50t-171 137l96 111q119 -147 291 -147q135 0 210.5 76t75.5 214v93q-111 -128 -303 -128q-190 0 -307.5 153t-117.5 417zM282 529q0 -183 75 -287.5 t210 -104.5q175 0 257 159v494q-85 155 -255 155q-135 0 -211 -105t-76 -311z"
        horiz-adv-x="1149" unicode="g"/>
      <glyph
        d="M140 0v1536h185v-585q123 151 320 151q343 0 346 -387v-715h-185v716q-1 117 -53.5 173t-163.5 56q-90 0 -158 -48t-106 -126v-771h-185z"
        horiz-adv-x="1128" unicode="h"/>
      <glyph
        d="M141 1369q0 45 27.5 76t81.5 31t82 -31t28 -76t-28 -75t-82 -30t-81.5 30t-27.5 75zM156 0v1082h185v-1082h-185z"
        horiz-adv-x="497" unicode="i"/>
      <glyph
        d="M-65 -271q32 -8 84 -8q62 0 94.5 33.5t32.5 116.5v1211h185v-1207q0 -312 -283 -312q-61 0 -113 18v148zM127 1369q0 44 27.5 75.5t80.5 31.5q54 0 82 -31t28 -76t-28 -75t-82 -30t-81 30t-27 75z"
        horiz-adv-x="489" unicode="j"/>
      <glyph d="M141 0v1536h185v-929l99 119l337 356h225l-421 -452l470 -630h-217l-377 501l-116 -121v-380h-185z"
             horiz-adv-x="1038" unicode="k"/>
      <glyph d="M156 0v1536h185v-1536h-185z" horiz-adv-x="497" unicode="l"/>
      <glyph
        d="M139 0v1082h175l5 -120q119 140 321 140q227 0 309 -174q54 78 140.5 126t204.5 48q356 0 362 -377v-725h-185v714q0 116 -53 173.5t-178 57.5q-103 0 -171 -61.5t-79 -165.5v-718h-186v709q0 236 -231 236q-182 0 -249 -155v-790h-185z"
        horiz-adv-x="1795" unicode="m"/>
      <glyph
        d="M140 0v1082h175l6 -136q124 156 324 156q343 0 346 -387v-715h-185v716q-1 117 -53.5 173t-163.5 56q-90 0 -158 -48t-106 -126v-771h-185z"
        horiz-adv-x="1130" unicode="n"/>
      <glyph
        d="M91 538v13q0 159 62.5 286t174 196t254.5 69q221 0 357.5 -153t136.5 -407v-13q0 -158 -60.5 -283.5t-173 -195.5t-258.5 -70q-220 0 -356.5 153t-136.5 405zM277 529q0 -180 83.5 -289t223.5 -109q141 0 224 110.5t83 309.5q0 178 -84.5 288.5t-224.5 110.5 q-137 0 -221 -109t-84 -312z"
        horiz-adv-x="1168" unicode="o"/>
      <glyph
        d="M140 -416v1498h169l9 -120q113 140 314 140q195 0 308.5 -147t113.5 -409v-17q0 -247 -113 -398t-306 -151q-197 0 -310 125v-521h-185zM325 279q83 -148 254 -148q133 0 211.5 105.5t78.5 313.5q0 183 -78 289t-214 106q-168 0 -252 -149v-517z"
        horiz-adv-x="1149" unicode="p"/>
      <glyph
        d="M95 537v13q0 255 117 403.5t314 148.5q192 0 303 -129l8 109h170v-1498h-185v516q-112 -120 -298 -120q-196 0 -312.5 152.5t-116.5 404.5zM280 529q0 -186 78.5 -292t211.5 -106q165 0 252 146v530q-88 143 -250 143q-134 0 -213 -106.5t-79 -314.5z"
        horiz-adv-x="1164" unicode="q"/>
      <glyph d="M140 0v1082h180l3 -125q91 145 258 145q54 0 82 -14v-172q-42 7 -91 7q-182 0 -247 -155v-768h-185z"
             horiz-adv-x="693" unicode="r"/>
      <glyph
        d="M95 333h185q5 -93 74.5 -147.5t183.5 -54.5q105 0 168.5 42.5t63.5 113.5q0 75 -56.5 116.5t-197 71.5t-223 72t-122 100t-39.5 138q0 133 112.5 225t287.5 92q184 0 298.5 -95t114.5 -243h-186q0 76 -64.5 131t-162.5 55q-101 0 -158 -44t-57 -115q0 -67 53 -101 t191.5 -65t224.5 -74t127.5 -103.5t41.5 -147.5q0 -145 -116 -232.5t-301 -87.5q-130 0 -230 46t-156.5 128.5t-56.5 178.5z"
        horiz-adv-x="1056" unicode="s"/>
      <glyph
        d="M9 939v143h197v262h185v-262h202v-143h-202v-671q0 -65 27 -97.5t92 -32.5q32 0 88 12v-150q-73 -20 -142 -20q-124 0 -187 75t-63 213v671h-197z"
        horiz-adv-x="669" unicode="t"/>
      <glyph
        d="M136 378v704h185v-699q0 -246 200 -246q212 0 282 158v787h185v-1082h-176l-4 107q-108 -127 -317 -127q-173 0 -263.5 100.5t-91.5 297.5z"
        horiz-adv-x="1129" unicode="u"/>
      <glyph d="M33 1082h189l275 -831l268 831h189l-388 -1082h-141z" horiz-adv-x="992" unicode="v"/>
      <glyph d="M43 1082h184l213 -810l252 810h149l257 -827l208 827h185l-315 -1082h-150l-263 820l-256 -820h-150z"
             horiz-adv-x="1539" unicode="w"/>
      <glyph d="M41 0l365 547l-354 535h214l237 -395l240 395h216l-354 -535l365 -547h-214l-250 405l-250 -405h-215z"
             horiz-adv-x="1015" unicode="x"/>
      <glyph
        d="M22 1082h202l270 -811l252 811h198l-435 -1249q-101 -270 -321 -270l-35 3l-69 13v150l50 -4q94 0 146.5 38t86.5 139l41 110z"
        horiz-adv-x="969" unicode="y"/>
      <glyph d="M88 0v136l597 793h-588v153h820v-131l-603 -800h633v-151h-859z" horiz-adv-x="1015" unicode="z"/>
      <glyph
        d="M64 543v145q212 0 212 242v208q2 183 89.5 295.5t266.5 163.5l38 -115q-209 -67 -209 -349v-202q0 -227 -167 -316q167 -90 167 -319v-206q3 -275 209 -341l-38 -115q-177 50 -266.5 164.5t-89.5 302.5v199q0 243 -212 243z"
        horiz-adv-x="693" unicode="{"/>
      <glyph d="M175 -270v1726h149v-1726h-149z" horiz-adv-x="499" unicode="|"/>
      <glyph
        d="M19 -251q203 65 210 331v220q0 231 181 315q-181 82 -181 315v203q0 282 -209 349l38 115q177 -50 266 -162.5t90 -297.5v-210q0 -239 212 -239v-145q-212 0 -212 -243v-202q0 -188 -90.5 -301t-265.5 -163z"
        horiz-adv-x="693" unicode="}"/>
      <glyph
        d="M131 436q0 160 92 263t231 103q76 0 146 -32t158 -112.5t152 -90.5l29 -2q76 0 123.5 58t47.5 153l153 1q0 -158 -93.5 -266.5t-230.5 -108.5q-72 0 -136 26.5t-148.5 100.5t-121.5 92t-79 18q-78 0 -120 -53.5t-42 -147.5z"
        horiz-adv-x="1393" unicode="~"/>
      <glyph
        d="M139 996q0 45 28 75t82 30t81.5 -30t27.5 -75t-27.5 -76t-81.5 -31t-82 31t-28 76zM157 -360l13 1044h168l13 -1044h-194z"
        horiz-adv-x="499" unicode="&#xa1;"/>
      <glyph
        d="M105 527v35q0 212 101 354.5t278 175.5v226h185v-223q150 -23 246 -129t102 -256h-175q-8 105 -79.5 172.5t-176.5 67.5q-141 0 -218.5 -101.5t-77.5 -293.5v-35q0 -187 77.5 -288t218.5 -101q100 0 174 60.5t82 149.5h175q-6 -126 -105 -226.5t-243 -126.5v-233h-185 v234q-179 34 -279 176t-100 362z"
        horiz-adv-x="1120" unicode="&#xa2;"/>
      <glyph
        d="M91 622v157h160l-9 260q0 199 122.5 318t322.5 119q190 0 301 -106t111 -283h-191q0 107 -63.5 169t-174.5 62q-105 0 -170 -77t-65 -202l9 -260h319v-157h-314l8 -220q0 -154 -62 -245h733l-1 -157h-1032v157h77q40 9 65 74.5t27 161.5v8l-8 221h-165z"
        horiz-adv-x="1190" unicode="&#xa3;"/>
      <glyph
        d="M105 109l139 141q-104 156 -104 358q0 206 112 369l-147 151l130 136l147 -150q158 120 353 120q196 0 355 -121l149 152l132 -137l-151 -154q110 -163 110 -366q0 -196 -102 -355l143 -144l-132 -136l-136 139q-159 -132 -368 -132q-207 0 -366 130l-134 -136zM311 608 q0 -123 57.5 -229t155.5 -167t211 -61t211 61.5t154.5 167t56.5 228.5q0 122 -56.5 227.5t-155 166t-210.5 60.5q-113 0 -211 -60t-155.5 -166t-57.5 -228z"
        horiz-adv-x="1460" unicode="&#xa4;"/>
      <glyph
        d="M15 1456h216l308 -663l308 663h213l-367 -720h261v-125h-324v-165h324v-124h-324v-322h-193v322h-318v124h318v165h-318v125h263z"
        horiz-adv-x="1075" unicode="&#xa5;"/>
      <glyph d="M147 -270v791h186v-791h-186zM147 698v758h186v-758h-186z" horiz-adv-x="491" unicode="&#xa6;"/>
      <glyph
        d="M90 -64l186 2q0 -130 90 -205.5t246 -75.5q136 0 219 58.5t83 154.5q0 89 -71 141.5t-280 114.5q-182 48 -278 103.5t-142.5 133t-46.5 188.5q0 186 182 274q-66 49 -101.5 117t-35.5 168q0 166 133.5 266t355.5 100q232 0 362 -113t130 -318h-185q0 125 -84 202.5 t-223 77.5q-142 0 -222.5 -57.5t-80.5 -155.5q0 -69 28 -109t95.5 -72.5t211 -72.5t228 -76t141 -84.5t85.5 -113t29 -153.5q0 -189 -186 -274q69 -49 105 -117t36 -168q0 -168 -130 -267.5t-358 -99.5q-112 0 -212.5 28t-170.5 85q-139 113 -139 318zM282 553 q0 -70 27 -110t93.5 -73t208.5 -74t186 -58q78 20 120 70.5t42 119.5q0 88 -69.5 142.5t-287.5 120.5q-90 24 -165 51q-80 -19 -117.5 -69.5t-37.5 -119.5z"
        horiz-adv-x="1256" unicode="&#xa7;"/>
      <glyph
        d="M101 1371q0 45 27.5 75.5t81.5 30.5t82 -30.5t28 -75.5t-28 -75t-82 -30t-81.5 30t-27.5 75zM531 1369q0 45 27.5 76t81.5 31t82 -31t28 -76t-28 -75t-82 -30t-81.5 30t-27.5 75z"
        horiz-adv-x="856" unicode="&#xa8;"/>
      <glyph
        d="M91 729q0 202 93.5 375t259 272.5t357.5 99.5t357 -99.5t258.5 -272.5t93.5 -375q0 -197 -90 -369t-255.5 -276.5t-363.5 -104.5q-197 0 -362.5 103.5t-256.5 275.5t-91 371zM206 729q0 -172 80 -318.5t217.5 -229.5t297.5 -83t297 83t217 229.5t80 318.5q0 170 -79 315 t-216.5 228.5t-298.5 83.5q-160 0 -298 -82.5t-217.5 -228.5t-79.5 -316zM442 676v110q0 176 95.5 281.5t250.5 105.5q160 0 246 -82t86 -231h-146q0 99 -47.5 141.5t-138.5 42.5q-94 0 -148 -69t-54 -192v-113q0 -120 54 -189t148 -69q92 0 138.5 42t46.5 143h146 q0 -153 -86.5 -233.5t-244.5 -80.5q-157 0 -251.5 105.5t-94.5 287.5z"
        horiz-adv-x="1609" unicode="&#xa9;"/>
      <glyph
        d="M147 918q0 111 83.5 171t255.5 60h108v52q0 135 -124 135q-69 0 -108.5 -27t-39.5 -78l-161 12q0 103 86 168t223 65q133 0 210 -71.5t77 -205.5v-316q0 -97 26 -178h-165q-12 34 -18 72q-76 -86 -204 -86q-119 0 -184 62t-65 165zM310 922q0 -94 125 -94q43 0 87 20 t72 47v142h-112q-83 -1 -127.5 -32.5t-44.5 -82.5z"
        horiz-adv-x="915" unicode="&#xaa;"/>
      <glyph d="M102 539v19l295 389h141l-258 -399l258 -397h-141zM432 539v19l295 389h141l-258 -399l258 -397h-141z"
             horiz-adv-x="961" unicode="&#xab;"/>
      <glyph d="M127 639v161h831v-425h-186v264h-645z" horiz-adv-x="1134" unicode="&#xac;"/>
      <glyph d="M37 543v151h488v-151h-488z" horiz-adv-x="565" unicode="&#xad;"/>
      <glyph
        d="M90 729q0 202 93.5 375t259 272.5t357.5 99.5t357 -99.5t258.5 -272.5t93.5 -375q0 -197 -90 -369t-255.5 -276.5t-363.5 -104.5q-197 0 -362.5 103.5t-256.5 275.5t-91 371zM205 729q0 -172 80 -318.5t217.5 -229.5t297.5 -83q161 0 299 84.5t216.5 229.5t78.5 317 q0 171 -78.5 315.5t-216.5 228t-299 83.5q-160 0 -298 -82.5t-217.5 -228.5t-79.5 -316zM512 316v849h276q153 0 237.5 -65.5t84.5 -190.5q0 -123 -128 -188q122 -50 123 -204v-61q0 -86 17 -124v-16h-145q-14 36 -14 128.5t-3 109.5q-16 96 -131 100h-176v-338h-141z M653 782h156q72 2 116 35t44 87q0 73 -39 103.5t-139 30.5h-138v-256z"
        horiz-adv-x="1610" unicode="&#xae;"/>
      <glyph d="M142 1302v143h672v-143h-672z" horiz-adv-x="938" unicode="&#xaf;"/>
      <glyph
        d="M130 1216q0 104 74.5 182t180.5 78q104 0 177.5 -77.5t73.5 -182.5q0 -106 -73.5 -181t-177.5 -75q-105 0 -180 75t-75 181zM255 1216q0 -54 37.5 -91t92.5 -37q54 0 91 35.5t37 92.5q0 58 -37 95.5t-91 37.5q-55 0 -92.5 -39.5t-37.5 -93.5z"
        horiz-adv-x="765" unicode="&#xb0;"/>
      <glyph d="M97 703v151h385v413h167v-413h364v-151h-364v-414h-167v414h-385zM135 0v152h835v-152h-835z"
             horiz-adv-x="1094" unicode="&#xb1;"/>
      <glyph
        d="M66 1205q0 114 83.5 188t215.5 74t209 -63.5t77 -173.5q0 -104 -107 -211l-84 -79l-176 -145h399v-128h-599v108l300 282q109 102 109 171q0 49 -32 79.5t-92 30.5q-75 0 -110.5 -38t-35.5 -95h-157z"
        horiz-adv-x="751" unicode="&#xb2;"/>
      <glyph
        d="M62 889h158q0 -45 39.5 -75t106.5 -30q70 0 106.5 30t36.5 81q0 113 -156 115h-88v116h84q74 0 110 30.5t36 78.5q0 45 -31.5 74t-101.5 29q-57 0 -94.5 -25.5t-37.5 -66.5h-157q0 98 81.5 159.5t205.5 61.5q137 0 215 -60.5t78 -164.5q0 -55 -35 -100.5t-101 -70.5 q149 -41 149 -184q0 -106 -85 -168.5t-221 -62.5q-132 0 -215 63t-83 170z"
        horiz-adv-x="751" unicode="&#xb3;"/>
      <glyph d="M123 1242l193 294h224l-268 -294h-149z" horiz-adv-x="642" unicode="&#xb4;"/>
      <glyph
        d="M154 -416v1498h185v-633q1 -163 52.5 -241t167.5 -78q199 0 261 152v800h186v-1082h-167l-9 115q-93 -135 -263 -135q-147 0 -228 73v-469h-185z"
        horiz-adv-x="1160" unicode="&#xb5;"/>
      <glyph d="M67 988q0 213 133 340.5t363 127.5h269v-1456h-186v520h-84q-230 0 -362.5 127t-132.5 341z"
             horiz-adv-x="1001" unicode="&#xb6;"/>
      <glyph d="M147 729q0 48 28.5 80t85.5 32t86.5 -32t29.5 -80q0 -47 -29.5 -78.5t-86.5 -31.5t-85.5 31.5t-28.5 78.5z"
             horiz-adv-x="534" unicode="&#xb7;"/>
      <glyph
        d="M116 -328q79 0 122.5 26t43.5 73q0 44 -32 65t-130 30l32 134h133l-12 -52q153 -27 153 -173q0 -97 -80 -153.5t-223 -56.5z"
        horiz-adv-x="507" unicode="&#xb8;"/>
      <glyph d="M122 1211v128l355 117h18v-789h-157v601z" horiz-adv-x="751" unicode="&#xb9;"/>
      <glyph
        d="M122 1049v74q0 158 94 255.5t248 97.5q155 0 249 -96.5t94 -262.5v-74q0 -159 -93.5 -256t-247.5 -97t-249 97t-95 262zM285 1043q0 -100 48.5 -157t132.5 -57q83 0 130.5 57.5t47.5 158.5v78q0 99 -48.5 156t-131.5 57q-81 0 -129 -55t-50 -152v-86z"
        horiz-adv-x="931" unicode="&#xba;"/>
      <glyph
        d="M102 152l258 398l-258 399h142l295 -389v-19l-295 -389h-142zM451 152l258 398l-258 399h142l295 -389v-19l-295 -389h-142z"
        horiz-adv-x="960" unicode="&#xbb;"/>
      <glyph
        d="M85 1208v128l355 117h18v-789h-157v601zM339 184l711 1138l104 -66l-711 -1138zM780 271l377 518h161v-490h107v-130h-107v-169h-157v169h-375zM938 299h223v289l-17 -28z"
        horiz-adv-x="1500" unicode="&#xbc;"/>
      <glyph
        d="M80 1208v128l355 117h18v-789h-157v601zM295 184l711 1138l104 -66l-711 -1138zM864 538q0 114 83.5 188t215.5 74t209 -63.5t77 -173.5q0 -104 -107 -211l-84 -79l-176 -145h399v-128h-599v108l300 282q109 102 109 171q0 49 -32 79.5t-92 30.5q-75 0 -110.5 -38 t-35.5 -95h-157z"
        horiz-adv-x="1589" unicode="&#xbd;"/>
      <glyph
        d="M111 889h158q0 -45 39.5 -75t106.5 -30q70 0 106.5 30t36.5 81q0 113 -156 115h-88v116h84q74 0 110 30.5t36 78.5q0 45 -31.5 74t-101.5 29q-57 0 -94.5 -25.5t-37.5 -66.5h-157q0 98 81.5 159.5t205.5 61.5q137 0 215 -60.5t78 -164.5q0 -55 -35 -100.5t-101 -70.5 q149 -41 149 -184q0 -106 -85 -168.5t-221 -62.5q-132 0 -215 63t-83 170zM466 184l711 1138l104 -66l-711 -1138zM872 271l377 518h161v-490h107v-130h-107v-169h-157v169h-375zM1030 299h223v289l-17 -28z"
        horiz-adv-x="1593" unicode="&#xbe;"/>
      <glyph
        d="M68 -5q0 173 160 348l109 113q66 78 66 224h185q-1 -106 -21.5 -169.5t-68.5 -122.5t-140 -155.5t-103 -195.5l-2 -37q0 -109 58 -166.5t167 -57.5q100 0 162.5 56.5t62.5 147.5h185q-2 -161 -114.5 -263t-295.5 -102q-196 0 -303 100.5t-107 279.5zM377 997q0 44 28 74 t82 30t81.5 -30t27.5 -74q0 -45 -27.5 -76t-81.5 -31t-82 31t-28 76z"
        horiz-adv-x="969" unicode="&#xbf;"/>
      <glyph
        d="M28 0l556 1456h168l557 -1456h-197l-139 380h-610l-137 -380h-198zM361 1846h223l194 -294h-159zM421 538h495l-248 681z"
        horiz-adv-x="1336" unicode="&#xc0;"/>
      <glyph
        d="M28 0l556 1456h168l557 -1456h-197l-139 380h-610l-137 -380h-198zM421 538h495l-248 681zM570 1552l193 294h224l-268 -294h-149z"
        horiz-adv-x="1336" unicode="&#xc1;"/>
      <glyph
        d="M28 0l556 1456h168l557 -1456h-197l-139 380h-610l-137 -380h-198zM370 1562v12l246 272h112l247 -274v-10h-153l-150 170l-149 -170h-153zM421 538h495l-248 681z"
        horiz-adv-x="1336" unicode="&#xc2;"/>
      <glyph
        d="M28 0l556 1456h168l557 -1456h-197l-139 380h-610l-137 -380h-198zM320 1562q0 107 60.5 177t153.5 70q35 0 63 -10t76 -39t73.5 -38t56.5 -9q43 0 71.5 34t28.5 79l124 -12q0 -108 -61.5 -175t-153.5 -67q-41 0 -71 10t-78.5 41t-70 37.5t-49.5 6.5q-41 0 -70 -31.5 t-29 -80.5zM421 538h495l-248 681z"
        horiz-adv-x="1336" unicode="&#xc3;"/>
      <glyph
        d="M28 0l556 1456h168l557 -1456h-197l-139 380h-610l-137 -380h-198zM350 1681q0 45 27.5 75.5t81.5 30.5t82 -30.5t28 -75.5t-28 -75t-82 -30t-81.5 30t-27.5 75zM421 538h495l-248 681zM780 1679q0 45 27.5 76t81.5 31t82 -31t28 -76t-28 -75t-82 -30t-81.5 30t-27.5 75z "
        horiz-adv-x="1336" unicode="&#xc4;"/>
      <glyph
        d="M28 0l556 1456h168l557 -1456h-197l-139 380h-610l-137 -380h-198zM421 538h495l-248 681zM457 1729q0 86 61.5 147t153.5 61t153.5 -61t61.5 -147q0 -87 -62 -145.5t-153 -58.5q-92 0 -153.5 59t-61.5 145zM556 1729q0 -47 33.5 -81t82.5 -34q48 0 82 33t34 82 t-33.5 83.5t-82.5 34.5q-50 0 -83 -35t-33 -83z"
        horiz-adv-x="1336" unicode="&#xc5;"/>
      <glyph
        d="M-14 0l880 1456h951v-152h-691l20 -471h590v-151h-584l22 -531h705v-151h-883l-15 353h-564l-205 -353h-226zM518 527h456l-31 733z"
        horiz-adv-x="1914" unicode="&#xc6;"/>
      <glyph
        d="M119 660v140q0 203 72.5 357t205.5 236.5t308 82.5q232 0 372 -129.5t163 -358.5h-193q-25 174 -108.5 252t-233.5 78q-184 0 -288.5 -136t-104.5 -387v-141q0 -237 99 -377t277 -140q160 0 245.5 72.5t113.5 252.5h193q-27 -231 -170.5 -356.5t-381.5 -125.5 q-258 0 -413.5 185t-155.5 495zM582 -337q79 0 122.5 26t43.5 73q0 44 -32 65t-130 30l32 134h133l-12 -52q153 -27 153 -173q0 -97 -80 -153.5t-223 -56.5z"
        horiz-adv-x="1333" unicode="&#xc7;"/>
      <glyph d="M169 0v1456h915v-158h-723v-468h631v-157h-631v-516h733v-157h-925zM308 1858h223l194 -294h-159z"
             horiz-adv-x="1164" unicode="&#xc8;"/>
      <glyph d="M169 0v1456h915v-158h-723v-468h631v-157h-631v-516h733v-157h-925zM517 1564l193 294h224l-268 -294h-149z"
             horiz-adv-x="1164" unicode="&#xc9;"/>
      <glyph
        d="M169 0v1456h915v-158h-723v-468h631v-157h-631v-516h733v-157h-925zM317 1574v12l246 272h112l247 -274v-10h-153l-150 170l-149 -170h-153z"
        horiz-adv-x="1164" unicode="&#xca;"/>
      <glyph
        d="M169 0v1456h915v-158h-723v-468h631v-157h-631v-516h733v-157h-925zM297 1693q0 45 27.5 75.5t81.5 30.5t82 -30.5t28 -75.5t-28 -75t-82 -30t-81.5 30t-27.5 75zM727 1691q0 45 27.5 76t81.5 31t82 -31t28 -76t-28 -75t-82 -30t-81.5 30t-27.5 75z"
        horiz-adv-x="1164" unicode="&#xcb;"/>
      <glyph d="M-32 1858h223l194 -294h-159zM183 0v1456h192v-1456h-192z" horiz-adv-x="557" unicode="&#xcc;"/>
      <glyph d="M176 1564l193 294h224l-268 -294h-149zM183 0v1456h192v-1456h-192z" horiz-adv-x="557" unicode="&#xcd;"/>
      <glyph d="M-23 1574v12l246 272h112l247 -274v-10h-153l-150 170l-149 -170h-153zM183 0v1456h192v-1456h-192z"
             horiz-adv-x="557" unicode="&#xce;"/>
      <glyph
        d="M-43 1693q0 45 27.5 75.5t81.5 30.5t82 -30.5t28 -75.5t-28 -75t-82 -30t-81.5 30t-27.5 75zM183 0v1456h192v-1456h-192zM387 1691q0 45 27.5 76t81.5 31t82 -31t28 -76t-28 -75t-82 -30t-81.5 30t-27.5 75z"
        horiz-adv-x="557" unicode="&#xcf;"/>
      <glyph
        d="M7 666v151h192v639h411q190 0 336 -84t225.5 -239t80.5 -356v-93q0 -206 -79.5 -361t-227 -238t-343.5 -85h-403v666h-192zM391 157h201q222 0 345.5 137t124.5 386v93q0 248 -116.5 385.5t-330.5 139.5h-224v-481h252v-151h-252v-509z"
        horiz-adv-x="1373" unicode="&#xd0;"/>
      <glyph
        d="M169 0v1456h193l735 -1127v1127h191v-1456h-193l-733 1122v-1122h-193zM374 1562q0 107 60.5 177t153.5 70q35 0 63 -10t76 -39t73.5 -38t56.5 -9q43 0 71.5 34t28.5 79l124 -12q0 -108 -61.5 -175t-153.5 -67q-41 0 -71 10t-78.5 41t-70 37.5t-49.5 6.5q-41 0 -70 -31.5 t-29 -80.5z"
        horiz-adv-x="1460" unicode="&#xd1;"/>
      <glyph
        d="M118 668v105q0 210 73 371t206.5 246.5t305.5 85.5q175 0 308.5 -84.5t205.5 -245t72 -373.5v-92q0 -214 -72 -373.5t-204 -243.5t-308 -84q-172 0 -305 84.5t-206.5 241t-75.5 362.5zM309 681q0 -251 105.5 -394.5t290.5 -143.5q186 0 288 135.5t105 388.5v108 q0 259 -104 397.5t-291 138.5q-182 0 -286.5 -138.5t-107.5 -384.5v-107zM395 1848h223l194 -294h-159z"
        horiz-adv-x="1408" unicode="&#xd2;"/>
      <glyph
        d="M118 668v105q0 210 73 371t206.5 246.5t305.5 85.5q175 0 308.5 -84.5t205.5 -245t72 -373.5v-92q0 -214 -72 -373.5t-204 -243.5t-308 -84q-172 0 -305 84.5t-206.5 241t-75.5 362.5zM309 681q0 -251 105.5 -394.5t290.5 -143.5q186 0 288 135.5t105 388.5v108 q0 259 -104 397.5t-291 138.5q-182 0 -286.5 -138.5t-107.5 -384.5v-107zM604 1554l193 294h224l-268 -294h-149z"
        horiz-adv-x="1408" unicode="&#xd3;"/>
      <glyph
        d="M118 668v105q0 210 73 371t206.5 246.5t305.5 85.5q175 0 308.5 -84.5t205.5 -245t72 -373.5v-92q0 -214 -72 -373.5t-204 -243.5t-308 -84q-172 0 -305 84.5t-206.5 241t-75.5 362.5zM309 681q0 -251 105.5 -394.5t290.5 -143.5q186 0 288 135.5t105 388.5v108 q0 259 -104 397.5t-291 138.5q-182 0 -286.5 -138.5t-107.5 -384.5v-107zM404 1564v12l246 272h112l247 -274v-10h-153l-150 170l-149 -170h-153z"
        horiz-adv-x="1408" unicode="&#xd4;"/>
      <glyph
        d="M118 668v105q0 210 73 371t206.5 246.5t305.5 85.5q175 0 308.5 -84.5t205.5 -245t72 -373.5v-92q0 -214 -72 -373.5t-204 -243.5t-308 -84q-172 0 -305 84.5t-206.5 241t-75.5 362.5zM309 681q0 -251 105.5 -394.5t290.5 -143.5q186 0 288 135.5t105 388.5v108 q0 259 -104 397.5t-291 138.5q-182 0 -286.5 -138.5t-107.5 -384.5v-107zM354 1564q0 107 60.5 177t153.5 70q35 0 63 -10t76 -39t73.5 -38t56.5 -9q43 0 71.5 34t28.5 79l124 -12q0 -108 -61.5 -175t-153.5 -67q-41 0 -71 10t-78.5 41t-70 37.5t-49.5 6.5q-41 0 -70 -31.5 t-29 -80.5z"
        horiz-adv-x="1408" unicode="&#xd5;"/>
      <glyph
        d="M118 668v105q0 210 73 371t206.5 246.5t305.5 85.5q175 0 308.5 -84.5t205.5 -245t72 -373.5v-92q0 -214 -72 -373.5t-204 -243.5t-308 -84q-172 0 -305 84.5t-206.5 241t-75.5 362.5zM309 681q0 -251 105.5 -394.5t290.5 -143.5q186 0 288 135.5t105 388.5v108 q0 259 -104 397.5t-291 138.5q-182 0 -286.5 -138.5t-107.5 -384.5v-107zM384 1683q0 45 27.5 75.5t81.5 30.5t82 -30.5t28 -75.5t-28 -75t-82 -30t-81.5 30t-27.5 75zM814 1681q0 45 27.5 76t81.5 31t82 -31t28 -76t-28 -75t-82 -30t-81.5 30t-27.5 75z"
        horiz-adv-x="1408" unicode="&#xd6;"/>
      <glyph
        d="M89 329l330 336l-328 335l119 123l329 -335l329 335l119 -123l-328 -335l330 -336l-119 -123l-331 337l-331 -337z"
        horiz-adv-x="1092" unicode="&#xd7;"/>
      <glyph
        d="M118 690v83q0 210 73 371t206.5 246.5t305.5 85.5q214 0 362 -125l103 165h141l-159 -255q137 -187 139 -481v-99q0 -214 -72 -373.5t-204 -243.5t-308 -84q-171 0 -302 82l-97 -155h-142l144 231q-190 192 -190 552zM309 681q0 -244 98 -385l564 904q-102 111 -268 111 q-182 0 -286.5 -138.5t-107.5 -384.5v-107zM493 207q91 -64 212 -64q186 0 288 135.5t105 388.5v108q0 182 -56 313z"
        horiz-adv-x="1408" unicode="&#xd8;"/>
      <glyph
        d="M140 464v992h190v-986q0 -158 87 -245.5t248 -87.5q163 0 249.5 87t86.5 245v987h193v-990q-1 -206 -129.5 -337t-348.5 -147l-51 -2q-239 0 -381 129t-144 355zM356 1846h223l194 -294h-159z"
        horiz-adv-x="1328" unicode="&#xd9;"/>
      <glyph
        d="M140 464v992h190v-986q0 -158 87 -245.5t248 -87.5q163 0 249.5 87t86.5 245v987h193v-990q-1 -206 -129.5 -337t-348.5 -147l-51 -2q-239 0 -381 129t-144 355zM565 1552l193 294h224l-268 -294h-149z"
        horiz-adv-x="1328" unicode="&#xda;"/>
      <glyph
        d="M140 464v992h190v-986q0 -158 87 -245.5t248 -87.5q163 0 249.5 87t86.5 245v987h193v-990q-1 -206 -129.5 -337t-348.5 -147l-51 -2q-239 0 -381 129t-144 355zM365 1562v12l246 272h112l247 -274v-10h-153l-150 170l-149 -170h-153z"
        horiz-adv-x="1328" unicode="&#xdb;"/>
      <glyph
        d="M140 464v992h190v-986q0 -158 87 -245.5t248 -87.5q163 0 249.5 87t86.5 245v987h193v-990q-1 -206 -129.5 -337t-348.5 -147l-51 -2q-239 0 -381 129t-144 355zM345 1681q0 45 27.5 75.5t81.5 30.5t82 -30.5t28 -75.5t-28 -75t-82 -30t-81.5 30t-27.5 75zM775 1679 q0 45 27.5 76t81.5 31t82 -31t28 -76t-28 -75t-82 -30t-81.5 30t-27.5 75z"
        horiz-adv-x="1328" unicode="&#xdc;"/>
      <glyph d="M15 1456h220l378 -731l380 731h218l-502 -913v-543h-192v543zM515 1552l193 294h224l-268 -294h-149z"
             horiz-adv-x="1230" unicode="&#xdd;"/>
      <glyph
        d="M166 0v1456h186v-293h279q147 0 257 -52.5t169.5 -149.5t59.5 -223q0 -194 -132 -309.5t-359 -115.5h-274v-313h-186zM352 465h277q142 0 222 75.5t80 195.5q0 123 -80 198.5t-216 76.5h-283v-546z"
        horiz-adv-x="1210" unicode="&#xde;"/>
      <glyph
        d="M139 0v1111q0 208 103.5 325.5t289.5 117.5q180 0 278.5 -89.5t98.5 -248.5q0 -125 -64 -226.5t-64 -170.5q0 -51 37.5 -98.5t131.5 -119.5t137 -140t43 -144q0 -159 -101.5 -248t-283.5 -89q-81 0 -171.5 22t-128.5 50l43 155q49 -32 116.5 -54t120.5 -22 q107 0 163.5 47t56.5 129q0 52 -37 100t-131.5 121.5t-138 142.5t-43.5 150q0 89 69.5 192.5t69.5 187.5q0 94 -52 147.5t-140 53.5q-218 0 -218 -293v-1109h-185z"
        horiz-adv-x="1218" unicode="&#xdf;"/>
      <glyph
        d="M109 300q0 169 128.5 262.5t361.5 93.5h180v85q0 97 -58 154.5t-171 57.5q-99 0 -166 -50t-67 -121h-186q0 81 57.5 156.5t156 119.5t216.5 44q187 0 293 -93.5t110 -257.5v-498q0 -149 38 -237v-16h-194q-16 32 -26 114q-129 -134 -308 -134q-160 0 -262.5 90.5 t-102.5 229.5zM270 1536h223l194 -294h-159zM294 326q0 -87 58 -136t149 -49q87 0 165 45t113 117v222h-145q-340 0 -340 -199z"
        horiz-adv-x="1114" unicode="&#xe0;"/>
      <glyph
        d="M109 300q0 169 128.5 262.5t361.5 93.5h180v85q0 97 -58 154.5t-171 57.5q-99 0 -166 -50t-67 -121h-186q0 81 57.5 156.5t156 119.5t216.5 44q187 0 293 -93.5t110 -257.5v-498q0 -149 38 -237v-16h-194q-16 32 -26 114q-129 -134 -308 -134q-160 0 -262.5 90.5 t-102.5 229.5zM294 326q0 -87 58 -136t149 -49q87 0 165 45t113 117v222h-145q-340 0 -340 -199zM479 1242l193 294h224l-268 -294h-149z"
        horiz-adv-x="1114" unicode="&#xe1;"/>
      <glyph
        d="M109 300q0 169 128.5 262.5t361.5 93.5h180v85q0 97 -58 154.5t-171 57.5q-99 0 -166 -50t-67 -121h-186q0 81 57.5 156.5t156 119.5t216.5 44q187 0 293 -93.5t110 -257.5v-498q0 -149 38 -237v-16h-194q-16 32 -26 114q-129 -134 -308 -134q-160 0 -262.5 90.5 t-102.5 229.5zM279 1252v12l246 272h112l247 -274v-10h-153l-150 170l-149 -170h-153zM294 326q0 -87 58 -136t149 -49q87 0 165 45t113 117v222h-145q-340 0 -340 -199z"
        horiz-adv-x="1114" unicode="&#xe2;"/>
      <glyph
        d="M109 300q0 169 128.5 262.5t361.5 93.5h180v85q0 97 -58 154.5t-171 57.5q-99 0 -166 -50t-67 -121h-186q0 81 57.5 156.5t156 119.5t216.5 44q187 0 293 -93.5t110 -257.5v-498q0 -149 38 -237v-16h-194q-16 32 -26 114q-129 -134 -308 -134q-160 0 -262.5 90.5 t-102.5 229.5zM229 1252q0 107 60.5 177t153.5 70q35 0 63 -10t76 -39t73.5 -38t56.5 -9q43 0 71.5 34t28.5 79l124 -12q0 -108 -61.5 -175t-153.5 -67q-41 0 -71 10t-78.5 41t-70 37.5t-49.5 6.5q-41 0 -70 -31.5t-29 -80.5zM294 326q0 -87 58 -136t149 -49q87 0 165 45 t113 117v222h-145q-340 0 -340 -199z"
        horiz-adv-x="1114" unicode="&#xe3;"/>
      <glyph
        d="M109 300q0 169 128.5 262.5t361.5 93.5h180v85q0 97 -58 154.5t-171 57.5q-99 0 -166 -50t-67 -121h-186q0 81 57.5 156.5t156 119.5t216.5 44q187 0 293 -93.5t110 -257.5v-498q0 -149 38 -237v-16h-194q-16 32 -26 114q-129 -134 -308 -134q-160 0 -262.5 90.5 t-102.5 229.5zM259 1371q0 45 27.5 75.5t81.5 30.5t82 -30.5t28 -75.5t-28 -75t-82 -30t-81.5 30t-27.5 75zM294 326q0 -87 58 -136t149 -49q87 0 165 45t113 117v222h-145q-340 0 -340 -199zM689 1369q0 45 27.5 76t81.5 31t82 -31t28 -76t-28 -75t-82 -30t-81.5 30 t-27.5 75z"
        horiz-adv-x="1114" unicode="&#xe4;"/>
      <glyph
        d="M109 300q0 169 128.5 262.5t361.5 93.5h180v85q0 97 -58 154.5t-171 57.5q-99 0 -166 -50t-67 -121h-186q0 81 57.5 156.5t156 119.5t216.5 44q187 0 293 -93.5t110 -257.5v-498q0 -149 38 -237v-16h-194q-16 32 -26 114q-129 -134 -308 -134q-160 0 -262.5 90.5 t-102.5 229.5zM294 326q0 -87 58 -136t149 -49q87 0 165 45t113 117v222h-145q-340 0 -340 -199zM366 1419q0 86 61.5 147t153.5 61t153.5 -61t61.5 -147q0 -87 -62 -145.5t-153 -58.5q-92 0 -153.5 59t-61.5 145zM465 1419q0 -47 33.5 -81t82.5 -34q48 0 82 33t34 82 t-33.5 83.5t-82.5 34.5q-50 0 -83 -35t-33 -83z"
        horiz-adv-x="1114" unicode="&#xe5;"/>
      <glyph
        d="M78 304q0 157 113.5 244t334.5 87h223v85q0 107 -55 168.5t-159 61.5q-105 0 -175 -55t-70 -136l-184 19q0 143 121 233.5t308 90.5q115 0 203 -41.5t138 -124.5q63 79 150 122.5t192 43.5q210 0 326 -128.5t116 -361.5v-115h-728q7 -176 94 -271.5t236 -95.5 q148 0 269 76l47 31l64 -136q-158 -121 -380 -121q-261 0 -397 180q-65 -86 -178 -133t-254 -47q-167 0 -261 86.5t-94 237.5zM264 300q0 -77 53 -123.5t152 -46.5q72 0 151 37t129 91v237h-228q-117 -2 -187 -57t-70 -138zM937 640h538v31q0 132 -67 205.5t-190 73.5 q-115 0 -189.5 -85.5t-91.5 -224.5z"
        horiz-adv-x="1729" unicode="&#xe6;"/>
      <glyph
        d="M92 531v31q0 158 58 281t166.5 191t256.5 68q182 0 302.5 -109t128.5 -283h-175q-8 105 -79.5 172.5t-176.5 67.5q-141 0 -218.5 -101.5t-77.5 -293.5v-35q0 -187 77 -288t220 -101q99 0 173 60t82 150h175q-5 -93 -64 -177t-157.5 -134t-208.5 -50q-221 0 -351.5 147.5 t-130.5 403.5zM435 -337q79 0 122.5 26t43.5 73q0 44 -32 65t-130 30l32 134h133l-12 -52q153 -27 153 -173q0 -97 -80 -153.5t-223 -56.5z"
        horiz-adv-x="1072" unicode="&#xe7;"/>
      <glyph
        d="M93 511v34q0 161 61.5 287.5t172 198t239.5 71.5q211 0 328 -139t117 -398v-77h-733q4 -160 93.5 -258.5t227.5 -98.5q98 0 166 40t119 106l113 -88q-136 -209 -408 -209q-220 0 -358 144.5t-138 386.5zM254 1536h223l194 -294h-159zM284 640h542v14q-8 141 -76 218.5 t-184 77.5q-112 0 -188 -81.5t-94 -228.5z"
        horiz-adv-x="1085" unicode="&#xe8;"/>
      <glyph
        d="M93 511v34q0 161 61.5 287.5t172 198t239.5 71.5q211 0 328 -139t117 -398v-77h-733q4 -160 93.5 -258.5t227.5 -98.5q98 0 166 40t119 106l113 -88q-136 -209 -408 -209q-220 0 -358 144.5t-138 386.5zM284 640h542v14q-8 141 -76 218.5t-184 77.5q-112 0 -188 -81.5 t-94 -228.5zM463 1242l193 294h224l-268 -294h-149z"
        horiz-adv-x="1085" unicode="&#xe9;"/>
      <glyph
        d="M93 511v34q0 161 61.5 287.5t172 198t239.5 71.5q211 0 328 -139t117 -398v-77h-733q4 -160 93.5 -258.5t227.5 -98.5q98 0 166 40t119 106l113 -88q-136 -209 -408 -209q-220 0 -358 144.5t-138 386.5zM263 1252v12l246 272h112l247 -274v-10h-153l-150 170l-149 -170 h-153zM284 640h542v14q-8 141 -76 218.5t-184 77.5q-112 0 -188 -81.5t-94 -228.5z"
        horiz-adv-x="1085" unicode="&#xea;"/>
      <glyph
        d="M93 511v34q0 161 61.5 287.5t172 198t239.5 71.5q211 0 328 -139t117 -398v-77h-733q4 -160 93.5 -258.5t227.5 -98.5q98 0 166 40t119 106l113 -88q-136 -209 -408 -209q-220 0 -358 144.5t-138 386.5zM243 1371q0 45 27.5 75.5t81.5 30.5t82 -30.5t28 -75.5t-28 -75 t-82 -30t-81.5 30t-27.5 75zM284 640h542v14q-8 141 -76 218.5t-184 77.5q-112 0 -188 -81.5t-94 -228.5zM673 1369q0 45 27.5 76t81.5 31t82 -31t28 -76t-28 -75t-82 -30t-81.5 30t-27.5 75z"
        horiz-adv-x="1085" unicode="&#xeb;"/>
      <glyph d="M-58 1535h223l194 -294h-159zM155 0v1082h186v-1082h-186z" horiz-adv-x="506" unicode="&#xec;"/>
      <glyph d="M150 1241l193 294h224l-268 -294h-149zM155 0v1082h186v-1082h-186z" horiz-adv-x="506" unicode="&#xed;"/>
      <glyph d="M-49 1251v12l246 272h112l247 -274v-10h-153l-150 170l-149 -170h-153zM155 0v1082h186v-1082h-186z"
             horiz-adv-x="506" unicode="&#xee;"/>
      <glyph
        d="M-69 1370q0 45 27.5 75.5t81.5 30.5t82 -30.5t28 -75.5t-28 -75t-82 -30t-81.5 30t-27.5 75zM155 0v1082h186v-1082h-186zM361 1368q0 45 27.5 76t81.5 31t82 -31t28 -76t-28 -75t-82 -30t-81.5 30t-27.5 75z"
        horiz-adv-x="506" unicode="&#xef;"/>
      <glyph
        d="M126 467q0 147 56 263.5t159.5 181.5t232.5 65q163 0 284 -114q-48 195 -189 336l-218 -148l-73 99l192 131q-132 91 -315 140l57 159q239 -54 414 -193l189 129l73 -100l-168 -115q249 -264 249 -673v-93q0 -158 -58.5 -284.5t-166.5 -198.5t-242 -72q-135 0 -245 64.5 t-170.5 176.5t-60.5 246zM311 467q0 -140 83.5 -238t211.5 -98q125 0 201.5 113t76.5 297v94l-2 56q-33 61 -102.5 97.5t-161.5 36.5q-145 0 -226 -95.5t-81 -262.5z"
        horiz-adv-x="1200" unicode="&#xf0;"/>
      <glyph
        d="M140 0v1082h175l6 -136q124 156 324 156q343 0 346 -387v-715h-185v716q-1 117 -53.5 173t-163.5 56q-90 0 -158 -48t-106 -126v-771h-185zM220 1252q0 107 60.5 177t153.5 70q35 0 63 -10t76 -39t73.5 -38t56.5 -9q43 0 71.5 34t28.5 79l124 -12q0 -108 -61.5 -175 t-153.5 -67q-41 0 -71 10t-78.5 41t-70 37.5t-49.5 6.5q-41 0 -70 -31.5t-29 -80.5z"
        horiz-adv-x="1130" unicode="&#xf1;"/>
      <glyph
        d="M91 538v13q0 159 62.5 286t174 196t254.5 69q221 0 357.5 -153t136.5 -407v-13q0 -158 -60.5 -283.5t-173 -195.5t-258.5 -70q-220 0 -356.5 153t-136.5 405zM264 1536h223l194 -294h-159zM277 529q0 -180 83.5 -289t223.5 -109q141 0 224 110.5t83 309.5 q0 178 -84.5 288.5t-224.5 110.5q-137 0 -221 -109t-84 -312z"
        horiz-adv-x="1168" unicode="&#xf2;"/>
      <glyph
        d="M91 538v13q0 159 62.5 286t174 196t254.5 69q221 0 357.5 -153t136.5 -407v-13q0 -158 -60.5 -283.5t-173 -195.5t-258.5 -70q-220 0 -356.5 153t-136.5 405zM277 529q0 -180 83.5 -289t223.5 -109q141 0 224 110.5t83 309.5q0 178 -84.5 288.5t-224.5 110.5 q-137 0 -221 -109t-84 -312zM473 1242l193 294h224l-268 -294h-149z"
        horiz-adv-x="1168" unicode="&#xf3;"/>
      <glyph
        d="M91 538v13q0 159 62.5 286t174 196t254.5 69q221 0 357.5 -153t136.5 -407v-13q0 -158 -60.5 -283.5t-173 -195.5t-258.5 -70q-220 0 -356.5 153t-136.5 405zM273 1252v12l246 272h112l247 -274v-10h-153l-150 170l-149 -170h-153zM277 529q0 -180 83.5 -289t223.5 -109 q141 0 224 110.5t83 309.5q0 178 -84.5 288.5t-224.5 110.5q-137 0 -221 -109t-84 -312z"
        horiz-adv-x="1168" unicode="&#xf4;"/>
      <glyph
        d="M91 538v13q0 159 62.5 286t174 196t254.5 69q221 0 357.5 -153t136.5 -407v-13q0 -158 -60.5 -283.5t-173 -195.5t-258.5 -70q-220 0 -356.5 153t-136.5 405zM223 1252q0 107 60.5 177t153.5 70q35 0 63 -10t76 -39t73.5 -38t56.5 -9q43 0 71.5 34t28.5 79l124 -12 q0 -108 -61.5 -175t-153.5 -67q-41 0 -71 10t-78.5 41t-70 37.5t-49.5 6.5q-41 0 -70 -31.5t-29 -80.5zM277 529q0 -180 83.5 -289t223.5 -109q141 0 224 110.5t83 309.5q0 178 -84.5 288.5t-224.5 110.5q-137 0 -221 -109t-84 -312z"
        horiz-adv-x="1168" unicode="&#xf5;"/>
      <glyph
        d="M91 538v13q0 159 62.5 286t174 196t254.5 69q221 0 357.5 -153t136.5 -407v-13q0 -158 -60.5 -283.5t-173 -195.5t-258.5 -70q-220 0 -356.5 153t-136.5 405zM253 1371q0 45 27.5 75.5t81.5 30.5t82 -30.5t28 -75.5t-28 -75t-82 -30t-81.5 30t-27.5 75zM277 529 q0 -180 83.5 -289t223.5 -109q141 0 224 110.5t83 309.5q0 178 -84.5 288.5t-224.5 110.5q-137 0 -221 -109t-84 -312zM683 1369q0 45 27.5 76t81.5 31t82 -31t28 -76t-28 -75t-82 -30t-81.5 30t-27.5 75z"
        horiz-adv-x="1168" unicode="&#xf6;"/>
      <glyph
        d="M71 600v184h998v-184h-998zM461 281q0 48 28.5 80t85.5 32t86.5 -32t29.5 -80q0 -46 -29.5 -77.5t-86.5 -31.5t-85.5 31.5t-28.5 77.5zM461 1098q0 48 28.5 80t85.5 32t86.5 -32t29.5 -80q0 -47 -29.5 -78t-86.5 -31t-85.5 31t-28.5 78z"
        horiz-adv-x="1169" unicode="&#xf7;"/>
      <glyph
        d="M91 551q0 159 61.5 285.5t174 196t255.5 69.5q110 0 204 -42l73 148h124l-102 -205q195 -154 195 -474q0 -158 -62 -285t-174 -195.5t-256 -68.5q-104 0 -190 35l-74 -149h-124l100 203q-205 149 -205 482zM276 529q0 -194 97 -305l343 694q-62 32 -134 32 q-138 0 -222 -109t-84 -312zM463 156q55 -25 121 -25q139 0 222.5 109.5t83.5 294.5v16q0 182 -87 293z"
        horiz-adv-x="1160" unicode="&#xf8;"/>
      <glyph
        d="M136 378v704h185v-699q0 -246 200 -246q212 0 282 158v787h185v-1082h-176l-4 107q-108 -127 -317 -127q-173 0 -263.5 100.5t-91.5 297.5zM256 1536h223l194 -294h-159z"
        horiz-adv-x="1129" unicode="&#xf9;"/>
      <glyph
        d="M136 378v704h185v-699q0 -246 200 -246q212 0 282 158v787h185v-1082h-176l-4 107q-108 -127 -317 -127q-173 0 -263.5 100.5t-91.5 297.5zM465 1242l193 294h224l-268 -294h-149z"
        horiz-adv-x="1129" unicode="&#xfa;"/>
      <glyph
        d="M136 378v704h185v-699q0 -246 200 -246q212 0 282 158v787h185v-1082h-176l-4 107q-108 -127 -317 -127q-173 0 -263.5 100.5t-91.5 297.5zM265 1252v12l246 272h112l247 -274v-10h-153l-150 170l-149 -170h-153z"
        horiz-adv-x="1129" unicode="&#xfb;"/>
      <glyph
        d="M136 378v704h185v-699q0 -246 200 -246q212 0 282 158v787h185v-1082h-176l-4 107q-108 -127 -317 -127q-173 0 -263.5 100.5t-91.5 297.5zM245 1371q0 45 27.5 75.5t81.5 30.5t82 -30.5t28 -75.5t-28 -75t-82 -30t-81.5 30t-27.5 75zM675 1369q0 45 27.5 76t81.5 31 t82 -31t28 -76t-28 -75t-82 -30t-81.5 30t-27.5 75z"
        horiz-adv-x="1129" unicode="&#xfc;"/>
      <glyph
        d="M22 1082h202l270 -811l252 811h198l-435 -1249q-101 -270 -321 -270l-35 3l-69 13v150l50 -4q94 0 146.5 38t86.5 139l41 110zM406 1242l193 294h224l-268 -294h-149z"
        horiz-adv-x="969" unicode="&#xfd;"/>
      <glyph
        d="M149 -416v1952h185v-566q113 132 307 132q195 0 308.5 -147t113.5 -409v-17q0 -247 -113 -398t-306 -151q-197 0 -310 125v-521h-185zM334 279q83 -148 254 -148q133 0 211.5 105.5t78.5 313.5q0 183 -78 289t-214 106q-168 0 -252 -149v-517z"
        horiz-adv-x="1180" unicode="&#xfe;"/>
      <glyph
        d="M22 1082h202l270 -811l252 811h198l-435 -1249q-101 -270 -321 -270l-35 3l-69 13v150l50 -4q94 0 146.5 38t86.5 139l41 110zM186 1371q0 45 27.5 75.5t81.5 30.5t82 -30.5t28 -75.5t-28 -75t-82 -30t-81.5 30t-27.5 75zM616 1369q0 45 27.5 76t81.5 31t82 -31t28 -76 t-28 -75t-82 -30t-81.5 30t-27.5 75z"
        horiz-adv-x="969" unicode="&#xff;"/>
      <glyph
        d="M104 571v309q0 172 69.5 308.5t196.5 212t289 75.5q124 0 294 -20h838v-158h-723v-468h631v-157h-631v-516h733v-157h-848q-178 -21 -292 -21q-162 0 -289 75t-197 210.5t-71 306.5zM290 576q0 -211 97.5 -328.5t273.5 -117.5q113 0 215 14v1166q-109 15 -217 15 q-173 0 -270 -114.5t-99 -321.5v-313z"
        horiz-adv-x="1953" unicode="&#x152;"/>
      <glyph
        d="M97 538v13q0 160 60.5 287t170 195.5t251.5 68.5q137 0 237.5 -58.5t161.5 -158.5q65 102 163 159.5t210 57.5q207 0 324 -127t117 -362v-116h-718q7 -170 89 -268.5t216 -98.5q188 0 308 108l74 -126q-137 -132 -382 -132q-135 0 -237.5 56t-165.5 156 q-62 -99 -161.5 -155.5t-233.5 -56.5q-220 0 -352 152t-132 406zM282 529q0 -183 80 -291t219 -108q137 0 217 107.5t80 313.5q0 182 -80.5 290.5t-218.5 108.5q-135 0 -216 -107t-81 -314zM1080 649h526v26q0 125 -68.5 200t-186.5 75q-99 0 -174 -81.5t-97 -219.5z"
        horiz-adv-x="1860" unicode="&#x153;"/>
      <glyph
        d="M15 1456h220l378 -731l380 731h218l-502 -913v-543h-192v543zM295 1681q0 45 27.5 75.5t81.5 30.5t82 -30.5t28 -75.5t-28 -75t-82 -30t-81.5 30t-27.5 75zM725 1679q0 45 27.5 76t81.5 31t82 -31t28 -76t-28 -75t-82 -30t-81.5 30t-27.5 75z"
        horiz-adv-x="1230" unicode="&#x178;"/>
      <glyph d="M169 1252v12l246 272h112l247 -274v-10h-153l-150 170l-149 -170h-153z" horiz-adv-x="964"
             unicode="&#x2c6;"/>
      <glyph
        d="M123 1248q0 107 60.5 177t153.5 70q35 0 63 -10t76 -39t73.5 -38t56.5 -9q43 0 71.5 34t28.5 79l124 -12q0 -108 -61.5 -175t-153.5 -67q-41 0 -71 10t-78.5 41t-70 37.5t-49.5 6.5q-41 0 -70 -31.5t-29 -80.5z"
        horiz-adv-x="966" unicode="&#x2dc;"/>
      <glyph horiz-adv-x="968" unicode="&#x2000;"/>
      <glyph horiz-adv-x="1937" unicode="&#x2001;"/>
      <glyph horiz-adv-x="968" unicode="&#x2002;"/>
      <glyph horiz-adv-x="1937" unicode="&#x2003;"/>
      <glyph horiz-adv-x="645" unicode="&#x2004;"/>
      <glyph horiz-adv-x="484" unicode="&#x2005;"/>
      <glyph horiz-adv-x="322" unicode="&#x2006;"/>
      <glyph horiz-adv-x="322" unicode="&#x2007;"/>
      <glyph horiz-adv-x="242" unicode="&#x2008;"/>
      <glyph horiz-adv-x="387" unicode="&#x2009;"/>
      <glyph horiz-adv-x="107" unicode="&#x200a;"/>
      <glyph d="M37 543v151h488v-151h-488z" horiz-adv-x="565" unicode="&#x2010;"/>
      <glyph d="M37 543v151h488v-151h-488z" horiz-adv-x="565" unicode="&#x2011;"/>
      <glyph d="M37 543v151h488v-151h-488z" horiz-adv-x="565" unicode="&#x2012;"/>
      <glyph d="M163 651v151h1002v-151h-1002z" horiz-adv-x="1344" unicode="&#x2013;"/>
      <glyph d="M145 651v151h1336v-151h-1336z" horiz-adv-x="1599" unicode="&#x2014;"/>
      <glyph d="M96 1073v116q0 102 48.5 202t125.5 164l106 -72q-93 -127 -96 -274v-136h-184z" horiz-adv-x="409"
             unicode="&#x2018;"/>
      <glyph d="M48 1118q93 130 96 274v144h183v-130q-1 -100 -49.5 -199.5t-124.5 -160.5z" horiz-adv-x="409"
             unicode="&#x2019;"/>
      <glyph d="M36 -210q91 127 94 273v118h185v-100q0 -101 -49.5 -202t-124.5 -162z" horiz-adv-x="407"
             unicode="&#x201a;"/>
      <glyph
        d="M104 1073v116q0 102 48.5 202t125.5 164l106 -72q-93 -127 -96 -274v-136h-184zM419 1073v116q0 102 48.5 202t125.5 164l106 -72q-93 -127 -96 -274v-136h-184z"
        horiz-adv-x="724" unicode="&#x201c;"/>
      <glyph
        d="M60 1118q93 130 96 274v144h183v-130q-1 -100 -49.5 -199.5t-124.5 -160.5zM367 1118q93 130 96 274v144h183v-130q-1 -100 -49.5 -199.5t-124.5 -160.5z"
        horiz-adv-x="731" unicode="&#x201d;"/>
      <glyph
        d="M36 -229q91 137 94 290v185h185v-164q0 -108 -49.5 -213.5t-124.5 -169.5zM332 -229q91 137 94 290v185h186v-164q0 -107 -48.5 -211.5t-126.5 -171.5z"
        horiz-adv-x="705" unicode="&#x201e;"/>
      <glyph
        d="M138 734v38q0 87 55.5 143t147.5 56q91 0 148 -54.5t57 -147.5v-37q0 -87 -55 -142t-149 -55q-93 0 -148.5 55.5t-55.5 143.5z"
        horiz-adv-x="690" unicode="&#x2022;"/>
      <glyph
        d="M148 97q0 48 28.5 80t85.5 32t86.5 -32t29.5 -80q0 -46 -29.5 -77t-86.5 -31t-85.5 31t-28.5 77zM585 97q0 48 28.5 80t85.5 32t86.5 -32t29.5 -80q0 -46 -29.5 -77t-86.5 -31t-85.5 31t-28.5 77zM1000 97q0 48 28.5 80t85.5 32t86.5 -32t29.5 -80q0 -46 -29.5 -77 t-86.5 -31t-85.5 31t-28.5 77z"
        horiz-adv-x="1370" unicode="&#x2026;"/>
      <glyph horiz-adv-x="387" unicode="&#x202f;"/>
      <glyph d="M108 541v19l295 389h141l-258 -399l258 -397h-141z" horiz-adv-x="614" unicode="&#x2039;"/>
      <glyph d="M89 152l258 398l-258 399h142l295 -389v-19l-295 -389h-142z" horiz-adv-x="614" unicode="&#x203a;"/>
      <glyph horiz-adv-x="484" unicode="&#x205f;"/>
      <glyph
        d="M95 541v124h178v137h-178v125h178q10 262 152.5 405.5t385.5 143.5q106 0 241 -31l-20 -162q-109 35 -219 35q-164 0 -252.5 -101.5t-94.5 -289.5h383v-125h-384v-137h384v-124h-384q4 -195 94 -300t255 -105q116 0 218 34l20 -160q-120 -30 -240 -30 q-248 0 -390.5 146.5t-148.5 414.5h-178z"
        unicode="&#x20ac;"/>
      <glyph
        d="M103 1375v81h386v-81h-147v-456h-91v456h-148zM568 919v537h112l144 -399l144 399h112v-537h-90v394l-140 -394h-52l-140 393v-393h-90z"
        horiz-adv-x="1281" unicode="&#x2122;"/>
      <glyph d="M0 0v1080h1080v-1080h-1080z" horiz-adv-x="1080" unicode="&#x25fc;"/>
      <hkern k="40" u1="&#x20;" u2="T"/>
      <hkern k="-11" u1="&#x22;" u2="w"/>
      <hkern k="-11" u1="&#x27;" u2="w"/>
      <hkern k="-22" u1="&#x28;" u2="&#x178;"/>
      <hkern k="-22" u1="&#x28;" u2="&#xdd;"/>
      <hkern k="-22" u1="&#x28;" u2="Y"/>
      <hkern k="-18" u1="&#x28;" u2="W"/>
      <hkern k="-20" u1="&#x28;" u2="V"/>
      <hkern k="224" u1="&#x2f;" u2="&#x2f;"/>
      <hkern k="33" u1="A" u2="w"/>
      <hkern k="17" u1="A" u2="t"/>
      <hkern k="61" u1="A" u2="&#x3f;"/>
      <hkern k="17" u1="C" u2="&#x7d;"/>
      <hkern k="12" u1="C" u2="]"/>
      <hkern k="26" u1="C" u2="&#x29;"/>
      <hkern k="33" u1="D" u2="&#xc6;"/>
      <hkern k="22" u1="E" u2="w"/>
      <hkern k="18" u1="E" u2="f"/>
      <hkern k="234" u1="F" u2="&#x2026;"/>
      <hkern k="234" u1="F" u2="&#x201e;"/>
      <hkern k="234" u1="F" u2="&#x201a;"/>
      <hkern k="21" u1="F" u2="&#x153;"/>
      <hkern k="24" u1="F" u2="&#xff;"/>
      <hkern k="24" u1="F" u2="&#xfd;"/>
      <hkern k="22" u1="F" u2="&#xfc;"/>
      <hkern k="22" u1="F" u2="&#xfb;"/>
      <hkern k="22" u1="F" u2="&#xfa;"/>
      <hkern k="22" u1="F" u2="&#xf9;"/>
      <hkern k="21" u1="F" u2="&#xf6;"/>
      <hkern k="21" u1="F" u2="&#xf5;"/>
      <hkern k="21" u1="F" u2="&#xf4;"/>
      <hkern k="21" u1="F" u2="&#xf3;"/>
      <hkern k="21" u1="F" u2="&#xf2;"/>
      <hkern k="21" u1="F" u2="&#xeb;"/>
      <hkern k="21" u1="F" u2="&#xea;"/>
      <hkern k="21" u1="F" u2="&#xe9;"/>
      <hkern k="21" u1="F" u2="&#xe8;"/>
      <hkern k="21" u1="F" u2="&#xe7;"/>
      <hkern k="34" u1="F" u2="&#xe5;"/>
      <hkern k="34" u1="F" u2="&#xe4;"/>
      <hkern k="34" u1="F" u2="&#xe3;"/>
      <hkern k="34" u1="F" u2="&#xe2;"/>
      <hkern k="34" u1="F" u2="&#xe1;"/>
      <hkern k="34" u1="F" u2="&#xe0;"/>
      <hkern k="170" u1="F" u2="&#xc5;"/>
      <hkern k="170" u1="F" u2="&#xc4;"/>
      <hkern k="170" u1="F" u2="&#xc3;"/>
      <hkern k="170" u1="F" u2="&#xc2;"/>
      <hkern k="170" u1="F" u2="&#xc1;"/>
      <hkern k="170" u1="F" u2="&#xc0;"/>
      <hkern k="24" u1="F" u2="y"/>
      <hkern k="24" u1="F" u2="v"/>
      <hkern k="22" u1="F" u2="u"/>
      <hkern k="26" u1="F" u2="r"/>
      <hkern k="21" u1="F" u2="q"/>
      <hkern k="21" u1="F" u2="o"/>
      <hkern k="21" u1="F" u2="g"/>
      <hkern k="21" u1="F" u2="e"/>
      <hkern k="21" u1="F" u2="d"/>
      <hkern k="21" u1="F" u2="c"/>
      <hkern k="34" u1="F" u2="a"/>
      <hkern k="-20" u1="F" u2="T"/>
      <hkern k="264" u1="F" u2="J"/>
      <hkern k="170" u1="F" u2="A"/>
      <hkern k="234" u1="F" u2="&#x2e;"/>
      <hkern k="234" u1="F" u2="&#x2c;"/>
      <hkern k="63" u1="K" u2="w"/>
      <hkern k="92" u1="L" u2="w"/>
      <hkern k="33" u1="O" u2="&#xc6;"/>
      <hkern k="97" u1="P" u2="&#xc6;"/>
      <hkern k="-14" u1="P" u2="t"/>
      <hkern k="35" u1="Q" u2="&#x178;"/>
      <hkern k="35" u1="Q" u2="&#xdd;"/>
      <hkern k="35" u1="Q" u2="Y"/>
      <hkern k="20" u1="Q" u2="W"/>
      <hkern k="28" u1="Q" u2="V"/>
      <hkern k="43" u1="Q" u2="T"/>
      <hkern k="48" u1="R" u2="&#x178;"/>
      <hkern k="48" u1="R" u2="&#xdd;"/>
      <hkern k="48" u1="R" u2="Y"/>
      <hkern k="19" u1="R" u2="V"/>
      <hkern k="80" u1="R" u2="T"/>
      <hkern k="95" u1="T" u2="&#xf8;"/>
      <hkern k="114" u1="T" u2="&#xe6;"/>
      <hkern k="179" u1="T" u2="&#xc6;"/>
      <hkern k="216" u1="T" u2="&#xbb;"/>
      <hkern k="328" u1="T" u2="&#xab;"/>
      <hkern k="57" u1="T" u2="w"/>
      <hkern k="75" u1="T" u2="r"/>
      <hkern k="40" u1="T" u2="&#x20;"/>
      <hkern k="-19" u1="V" u2="&#x7d;"/>
      <hkern k="30" u1="V" u2="r"/>
      <hkern k="-17" u1="V" u2="]"/>
      <hkern k="-20" u1="V" u2="&#x29;"/>
      <hkern k="-14" u1="W" u2="&#x7d;"/>
      <hkern k="21" u1="W" u2="r"/>
      <hkern k="-12" u1="W" u2="]"/>
      <hkern k="-15" u1="W" u2="&#x29;"/>
      <hkern k="45" u1="Y" u2="&#x2022;"/>
      <hkern k="64" u1="Y" u2="&#xf8;"/>
      <hkern k="63" u1="Y" u2="&#xe6;"/>
      <hkern k="96" u1="Y" u2="&#xc6;"/>
      <hkern k="51" u1="Y" u2="&#xbb;"/>
      <hkern k="82" u1="Y" u2="&#xab;"/>
      <hkern k="-19" u1="Y" u2="&#x7d;"/>
      <hkern k="22" u1="Y" u2="t"/>
      <hkern k="40" u1="Y" u2="r"/>
      <hkern k="22" u1="Y" u2="f"/>
      <hkern k="-18" u1="Y" u2="]"/>
      <hkern k="49" u1="Y" u2="&#x2a;"/>
      <hkern k="-20" u1="Y" u2="&#x29;"/>
      <hkern k="30" u1="Y" u2="&#x26;"/>
      <hkern k="27" u1="Z" u2="w"/>
      <hkern k="18" u1="[" u2="&#xdc;"/>
      <hkern k="18" u1="[" u2="&#xdb;"/>
      <hkern k="18" u1="[" u2="&#xda;"/>
      <hkern k="18" u1="[" u2="&#xd9;"/>
      <hkern k="18" u1="[" u2="U"/>
      <hkern k="18" u1="[" u2="J"/>
      <hkern k="80" u1="e" u2="&#x2019;"/>
      <hkern k="-16" u1="f" u2="&#x201d;"/>
      <hkern k="-16" u1="f" u2="&#x201c;"/>
      <hkern k="-16" u1="f" u2="&#x2019;"/>
      <hkern k="-16" u1="f" u2="&#x2018;"/>
      <hkern k="24" u1="f" u2="&#x153;"/>
      <hkern k="24" u1="f" u2="&#xeb;"/>
      <hkern k="24" u1="f" u2="&#xea;"/>
      <hkern k="24" u1="f" u2="&#xe9;"/>
      <hkern k="24" u1="f" u2="&#xe8;"/>
      <hkern k="24" u1="f" u2="&#xe7;"/>
      <hkern k="-19" u1="f" u2="&#x7d;"/>
      <hkern k="24" u1="f" u2="q"/>
      <hkern k="24" u1="f" u2="g"/>
      <hkern k="24" u1="f" u2="e"/>
      <hkern k="24" u1="f" u2="d"/>
      <hkern k="24" u1="f" u2="c"/>
      <hkern k="-18" u1="f" u2="]"/>
      <hkern k="-20" u1="f" u2="&#x29;"/>
      <hkern k="-16" u1="f" u2="&#x27;"/>
      <hkern k="-16" u1="f" u2="&#x22;"/>
      <hkern k="80" u1="h" u2="&#x2019;"/>
      <hkern k="20" u1="k" u2="&#x153;"/>
      <hkern k="20" u1="k" u2="&#xeb;"/>
      <hkern k="20" u1="k" u2="&#xea;"/>
      <hkern k="20" u1="k" u2="&#xe9;"/>
      <hkern k="20" u1="k" u2="&#xe8;"/>
      <hkern k="20" u1="k" u2="&#xe7;"/>
      <hkern k="20" u1="k" u2="q"/>
      <hkern k="20" u1="k" u2="g"/>
      <hkern k="20" u1="k" u2="e"/>
      <hkern k="20" u1="k" u2="d"/>
      <hkern k="20" u1="k" u2="c"/>
      <hkern k="80" u1="m" u2="&#x2019;"/>
      <hkern k="80" u1="n" u2="&#x2019;"/>
      <hkern k="80" u1="o" u2="&#x2019;"/>
      <hkern k="-17" u1="r" u2="w"/>
      <hkern k="-50" u1="r" u2="t"/>
      <hkern k="-15" u1="r" u2="f"/>
      <hkern k="20" u1="t" u2="&#xf6;"/>
      <hkern k="20" u1="t" u2="&#xf5;"/>
      <hkern k="20" u1="t" u2="&#xf4;"/>
      <hkern k="20" u1="t" u2="&#xf3;"/>
      <hkern k="20" u1="t" u2="&#xf2;"/>
      <hkern k="20" u1="t" u2="o"/>
      <hkern k="-13" u1="v" u2="f"/>
      <hkern k="124" u1="w" u2="&#x2026;"/>
      <hkern k="124" u1="w" u2="&#x201e;"/>
      <hkern k="124" u1="w" u2="&#x201a;"/>
      <hkern k="124" u1="w" u2="&#x2e;"/>
      <hkern k="124" u1="w" u2="&#x2c;"/>
      <hkern k="-13" u1="y" u2="f"/>
      <hkern k="20" u1="&#x7b;" u2="&#xdc;"/>
      <hkern k="20" u1="&#x7b;" u2="&#xdb;"/>
      <hkern k="20" u1="&#x7b;" u2="&#xda;"/>
      <hkern k="20" u1="&#x7b;" u2="&#xd9;"/>
      <hkern k="20" u1="&#x7b;" u2="U"/>
      <hkern k="20" u1="&#x7b;" u2="J"/>
      <hkern k="33" u1="&#xc0;" u2="w"/>
      <hkern k="17" u1="&#xc0;" u2="t"/>
      <hkern k="61" u1="&#xc0;" u2="&#x3f;"/>
      <hkern k="33" u1="&#xc1;" u2="w"/>
      <hkern k="17" u1="&#xc1;" u2="t"/>
      <hkern k="61" u1="&#xc1;" u2="&#x3f;"/>
      <hkern k="33" u1="&#xc2;" u2="w"/>
      <hkern k="17" u1="&#xc2;" u2="t"/>
      <hkern k="61" u1="&#xc2;" u2="&#x3f;"/>
      <hkern k="33" u1="&#xc3;" u2="w"/>
      <hkern k="17" u1="&#xc3;" u2="t"/>
      <hkern k="61" u1="&#xc3;" u2="&#x3f;"/>
      <hkern k="33" u1="&#xc4;" u2="w"/>
      <hkern k="17" u1="&#xc4;" u2="t"/>
      <hkern k="61" u1="&#xc4;" u2="&#x3f;"/>
      <hkern k="33" u1="&#xc5;" u2="w"/>
      <hkern k="17" u1="&#xc5;" u2="t"/>
      <hkern k="61" u1="&#xc5;" u2="&#x3f;"/>
      <hkern k="17" u1="&#xc7;" u2="&#x7d;"/>
      <hkern k="12" u1="&#xc7;" u2="]"/>
      <hkern k="26" u1="&#xc7;" u2="&#x29;"/>
      <hkern k="22" u1="&#xc8;" u2="w"/>
      <hkern k="18" u1="&#xc8;" u2="f"/>
      <hkern k="22" u1="&#xc9;" u2="w"/>
      <hkern k="18" u1="&#xc9;" u2="f"/>
      <hkern k="22" u1="&#xca;" u2="w"/>
      <hkern k="18" u1="&#xca;" u2="f"/>
      <hkern k="22" u1="&#xcb;" u2="w"/>
      <hkern k="18" u1="&#xcb;" u2="f"/>
      <hkern k="33" u1="&#xd0;" u2="&#xc6;"/>
      <hkern k="33" u1="&#xd2;" u2="&#xc6;"/>
      <hkern k="33" u1="&#xd3;" u2="&#xc6;"/>
      <hkern k="33" u1="&#xd4;" u2="&#xc6;"/>
      <hkern k="33" u1="&#xd5;" u2="&#xc6;"/>
      <hkern k="33" u1="&#xd6;" u2="&#xc6;"/>
      <hkern k="45" u1="&#xdd;" u2="&#x2022;"/>
      <hkern k="64" u1="&#xdd;" u2="&#xf8;"/>
      <hkern k="63" u1="&#xdd;" u2="&#xe6;"/>
      <hkern k="96" u1="&#xdd;" u2="&#xc6;"/>
      <hkern k="51" u1="&#xdd;" u2="&#xbb;"/>
      <hkern k="82" u1="&#xdd;" u2="&#xab;"/>
      <hkern k="-19" u1="&#xdd;" u2="&#x7d;"/>
      <hkern k="22" u1="&#xdd;" u2="t"/>
      <hkern k="40" u1="&#xdd;" u2="r"/>
      <hkern k="22" u1="&#xdd;" u2="f"/>
      <hkern k="-18" u1="&#xdd;" u2="]"/>
      <hkern k="49" u1="&#xdd;" u2="&#x2a;"/>
      <hkern k="-20" u1="&#xdd;" u2="&#x29;"/>
      <hkern k="30" u1="&#xdd;" u2="&#x26;"/>
      <hkern k="80" u1="&#xe8;" u2="&#x2019;"/>
      <hkern k="80" u1="&#xe9;" u2="&#x2019;"/>
      <hkern k="80" u1="&#xea;" u2="&#x2019;"/>
      <hkern k="80" u1="&#xeb;" u2="&#x2019;"/>
      <hkern k="80" u1="&#xf1;" u2="&#x2019;"/>
      <hkern k="80" u1="&#xf2;" u2="&#x2019;"/>
      <hkern k="80" u1="&#xf3;" u2="&#x2019;"/>
      <hkern k="80" u1="&#xf4;" u2="&#x2019;"/>
      <hkern k="80" u1="&#xf5;" u2="&#x2019;"/>
      <hkern k="80" u1="&#xf6;" u2="&#x2019;"/>
      <hkern k="-13" u1="&#xfd;" u2="f"/>
      <hkern k="-13" u1="&#xff;" u2="f"/>
      <hkern k="45" u1="&#x178;" u2="&#x2022;"/>
      <hkern k="64" u1="&#x178;" u2="&#xf8;"/>
      <hkern k="63" u1="&#x178;" u2="&#xe6;"/>
      <hkern k="96" u1="&#x178;" u2="&#xc6;"/>
      <hkern k="51" u1="&#x178;" u2="&#xbb;"/>
      <hkern k="82" u1="&#x178;" u2="&#xab;"/>
      <hkern k="-19" u1="&#x178;" u2="&#x7d;"/>
      <hkern k="22" u1="&#x178;" u2="t"/>
      <hkern k="40" u1="&#x178;" u2="r"/>
      <hkern k="22" u1="&#x178;" u2="f"/>
      <hkern k="-18" u1="&#x178;" u2="]"/>
      <hkern k="49" u1="&#x178;" u2="&#x2a;"/>
      <hkern k="-20" u1="&#x178;" u2="&#x29;"/>
      <hkern k="30" u1="&#x178;" u2="&#x26;"/>
      <hkern k="-11" u1="&#x2018;" u2="w"/>
      <hkern k="128" u1="&#x2019;" u2="&#xf6;"/>
      <hkern k="128" u1="&#x2019;" u2="&#xf5;"/>
      <hkern k="128" u1="&#x2019;" u2="&#xf4;"/>
      <hkern k="128" u1="&#x2019;" u2="&#xf3;"/>
      <hkern k="128" u1="&#x2019;" u2="&#xf2;"/>
      <hkern k="-11" u1="&#x2019;" u2="w"/>
      <hkern k="112" u1="&#x2019;" u2="s"/>
      <hkern k="128" u1="&#x2019;" u2="o"/>
      <hkern k="-32" u1="&#x2019;" u2="l"/>
      <hkern k="-32" u1="&#x2019;" u2="k"/>
      <hkern k="-32" u1="&#x2019;" u2="h"/>
      <hkern k="-11" u1="&#x201c;" u2="w"/>
      <hkern k="-11" u1="&#x201d;" u2="w"/>
      <hkern g1="H,I,M,N,Igrave,Iacute,Icircumflex,Idieresis,Ntilde"
             g2="A,Agrave,Aacute,Acircumflex,Atilde,Adieresis,Aring" k="-18"/>
      <hkern g1="H,I,M,N,Igrave,Iacute,Icircumflex,Idieresis,Ntilde" g2="T" k="29"/>
      <hkern g1="H,I,M,N,Igrave,Iacute,Icircumflex,Idieresis,Ntilde" g2="Y,Yacute,Ydieresis" k="28"/>
      <hkern g1="H,I,M,N,Igrave,Iacute,Icircumflex,Idieresis,Ntilde" g2="X" k="-17"/>
      <hkern g1="D,O,Eth,Ograve,Oacute,Ocircumflex,Otilde,Odieresis"
             g2="A,Agrave,Aacute,Acircumflex,Atilde,Adieresis,Aring" k="21"/>
      <hkern g1="D,O,Eth,Ograve,Oacute,Ocircumflex,Otilde,Odieresis" g2="T" k="27"/>
      <hkern g1="D,O,Eth,Ograve,Oacute,Ocircumflex,Otilde,Odieresis" g2="Y,Yacute,Ydieresis" k="43"/>
      <hkern g1="D,O,Eth,Ograve,Oacute,Ocircumflex,Otilde,Odieresis" g2="X" k="22"/>
      <hkern g1="D,O,Eth,Ograve,Oacute,Ocircumflex,Otilde,Odieresis" g2="Z" k="23"/>
      <hkern g1="D,O,Eth,Ograve,Oacute,Ocircumflex,Otilde,Odieresis"
             g2="comma,period,quotesinglbase,quotedblbase,ellipsis" k="102"/>
      <hkern g1="D,O,Eth,Ograve,Oacute,Ocircumflex,Otilde,Odieresis" g2="V" k="22"/>
      <hkern g1="A,Agrave,Aacute,Acircumflex,Atilde,Adieresis,Aring"
             g2="C,G,O,Q,Ccedilla,Ograve,Oacute,Ocircumflex,Otilde,Odieresis,Oslash,OE" k="11"/>
      <hkern g1="A,Agrave,Aacute,Acircumflex,Atilde,Adieresis,Aring" g2="o,ograve,oacute,ocircumflex,otilde,odieresis"
             k="12"/>
      <hkern g1="A,Agrave,Aacute,Acircumflex,Atilde,Adieresis,Aring" g2="u,ugrave,uacute,ucircumflex,udieresis" k="11"/>
      <hkern g1="A,Agrave,Aacute,Acircumflex,Atilde,Adieresis,Aring" g2="v,y,yacute,ydieresis" k="50"/>
      <hkern g1="A,Agrave,Aacute,Acircumflex,Atilde,Adieresis,Aring" g2="U,Ugrave,Uacute,Ucircumflex,Udieresis" k="17"/>
      <hkern g1="A,Agrave,Aacute,Acircumflex,Atilde,Adieresis,Aring" g2="T" k="129"/>
      <hkern g1="A,Agrave,Aacute,Acircumflex,Atilde,Adieresis,Aring" g2="Y,Yacute,Ydieresis" k="94"/>
      <hkern g1="A,Agrave,Aacute,Acircumflex,Atilde,Adieresis,Aring" g2="z" k="-12"/>
      <hkern g1="A,Agrave,Aacute,Acircumflex,Atilde,Adieresis,Aring"
             g2="quotedbl,quotesingle,quoteleft,quoteright,quotedblleft,quotedblright" k="120"/>
      <hkern g1="A,Agrave,Aacute,Acircumflex,Atilde,Adieresis,Aring" g2="W" k="69"/>
      <hkern g1="A,Agrave,Aacute,Acircumflex,Atilde,Adieresis,Aring" g2="V" k="87"/>
      <hkern g1="o,ograve,oacute,ocircumflex,otilde,odieresis" g2="v,y,yacute,ydieresis" k="15"/>
      <hkern g1="o,ograve,oacute,ocircumflex,otilde,odieresis" g2="z" k="16"/>
      <hkern g1="o,ograve,oacute,ocircumflex,otilde,odieresis"
             g2="quotedbl,quotesingle,quoteleft,quoteright,quotedblleft,quotedblright" k="136"/>
      <hkern g1="o,ograve,oacute,ocircumflex,otilde,odieresis" g2="x" k="21"/>
      <hkern g1="h,m,n,ntilde" g2="quotedbl,quotesingle,quoteleft,quoteright,quotedblleft,quotedblright" k="104"/>
      <hkern g1="E,Egrave,Eacute,Ecircumflex,Edieresis" g2="c,d,e,g,q,ccedilla,egrave,eacute,ecircumflex,edieresis,oe"
             k="19"/>
      <hkern g1="E,Egrave,Eacute,Ecircumflex,Edieresis" g2="o,ograve,oacute,ocircumflex,otilde,odieresis" k="19"/>
      <hkern g1="E,Egrave,Eacute,Ecircumflex,Edieresis" g2="u,ugrave,uacute,ucircumflex,udieresis" k="17"/>
      <hkern g1="E,Egrave,Eacute,Ecircumflex,Edieresis" g2="v,y,yacute,ydieresis" k="26"/>
      <hkern g1="E,Egrave,Eacute,Ecircumflex,Edieresis" g2="T" k="-20"/>
      <hkern g1="a,agrave,aacute,acircumflex,atilde,adieresis,aring" g2="v,y,yacute,ydieresis" k="15"/>
      <hkern g1="a,agrave,aacute,acircumflex,atilde,adieresis,aring"
             g2="quotedbl,quotesingle,quoteleft,quoteright,quotedblleft,quotedblright" k="67"/>
      <hkern g1="b,p,thorn" g2="v,y,yacute,ydieresis" k="11"/>
      <hkern g1="b,p,thorn" g2="z" k="15"/>
      <hkern g1="b,p,thorn" g2="quotedbl,quotesingle,quoteleft,quoteright,quotedblleft,quotedblright" k="29"/>
      <hkern g1="b,p,thorn" g2="x" k="15"/>
      <hkern g1="e,egrave,eacute,ecircumflex,edieresis" g2="v,y,yacute,ydieresis" k="13"/>
      <hkern g1="e,egrave,eacute,ecircumflex,edieresis"
             g2="quotedbl,quotesingle,quoteleft,quoteright,quotedblleft,quotedblright" k="14"/>
      <hkern g1="v,y,yacute,ydieresis" g2="c,d,e,g,q,ccedilla,egrave,eacute,ecircumflex,edieresis,oe" k="13"/>
      <hkern g1="v,y,yacute,ydieresis" g2="o,ograve,oacute,ocircumflex,otilde,odieresis" k="15"/>
      <hkern g1="v,y,yacute,ydieresis" g2="a,agrave,aacute,acircumflex,atilde,adieresis,aring" k="15"/>
      <hkern g1="v,y,yacute,ydieresis" g2="quotedbl,quotesingle,quoteleft,quoteright,quotedblleft,quotedblright"
             k="-15"/>
      <hkern g1="v,y,yacute,ydieresis" g2="comma,period,quotesinglbase,quotedblbase,ellipsis" k="107"/>
      <hkern g1="J,U,Ugrave,Uacute,Ucircumflex,Udieresis" g2="A,Agrave,Aacute,Acircumflex,Atilde,Adieresis,Aring"
             k="22"/>
      <hkern g1="K" g2="c,d,e,g,q,ccedilla,egrave,eacute,ecircumflex,edieresis,oe" k="26"/>
      <hkern g1="K" g2="C,G,O,Q,Ccedilla,Ograve,Oacute,Ocircumflex,Otilde,Odieresis,Oslash,OE" k="31"/>
      <hkern g1="K" g2="m,n,p,ntilde" k="23"/>
      <hkern g1="K" g2="o,ograve,oacute,ocircumflex,otilde,odieresis" k="27"/>
      <hkern g1="K" g2="u,ugrave,uacute,ucircumflex,udieresis" k="23"/>
      <hkern g1="K" g2="v,y,yacute,ydieresis" k="40"/>
      <hkern g1="K" g2="hyphen,uni00AD,endash,emdash" k="64"/>
      <hkern g1="Y,Yacute,Ydieresis" g2="c,d,e,g,q,ccedilla,egrave,eacute,ecircumflex,edieresis,oe" k="65"/>
      <hkern g1="Y,Yacute,Ydieresis" g2="C,G,O,Q,Ccedilla,Ograve,Oacute,Ocircumflex,Otilde,Odieresis,Oslash,OE" k="29"/>
      <hkern g1="Y,Yacute,Ydieresis" g2="m,n,p,ntilde" k="40"/>
      <hkern g1="Y,Yacute,Ydieresis" g2="o,ograve,oacute,ocircumflex,otilde,odieresis" k="65"/>
      <hkern g1="Y,Yacute,Ydieresis" g2="u,ugrave,uacute,ucircumflex,udieresis" k="39"/>
      <hkern g1="Y,Yacute,Ydieresis" g2="A,Agrave,Aacute,Acircumflex,Atilde,Adieresis,Aring" k="94"/>
      <hkern g1="Y,Yacute,Ydieresis" g2="a,agrave,aacute,acircumflex,atilde,adieresis,aring" k="73"/>
      <hkern g1="Y,Yacute,Ydieresis" g2="v,y,yacute,ydieresis" k="20"/>
      <hkern g1="Y,Yacute,Ydieresis" g2="U,Ugrave,Uacute,Ucircumflex,Udieresis" k="96"/>
      <hkern g1="Y,Yacute,Ydieresis" g2="T" k="-17"/>
      <hkern g1="Y,Yacute,Ydieresis" g2="Y,Yacute,Ydieresis" k="-18"/>
      <hkern g1="Y,Yacute,Ydieresis" g2="s" k="58"/>
      <hkern g1="Y,Yacute,Ydieresis" g2="z" k="30"/>
      <hkern g1="Y,Yacute,Ydieresis" g2="S" k="16"/>
      <hkern g1="Y,Yacute,Ydieresis" g2="X" k="-13"/>
      <hkern g1="Y,Yacute,Ydieresis" g2="x" k="23"/>
      <hkern g1="Y,Yacute,Ydieresis" g2="W" k="-17"/>
      <hkern g1="Y,Yacute,Ydieresis" g2="comma,period,quotesinglbase,quotedblbase,ellipsis" k="211"/>
      <hkern g1="Y,Yacute,Ydieresis" g2="V" k="-18"/>
      <hkern g1="Y,Yacute,Ydieresis" g2="hyphen,uni00AD,endash,emdash" k="52"/>
      <hkern g1="Y,Yacute,Ydieresis" g2="J" k="96"/>
      <hkern g1="T" g2="c,d,e,g,q,ccedilla,egrave,eacute,ecircumflex,edieresis,oe" k="99"/>
      <hkern g1="T" g2="C,G,O,Q,Ccedilla,Ograve,Oacute,Ocircumflex,Otilde,Odieresis,Oslash,OE" k="28"/>
      <hkern g1="T" g2="m,n,p,ntilde" k="109"/>
      <hkern g1="T" g2="o,ograve,oacute,ocircumflex,otilde,odieresis" k="99"/>
      <hkern g1="T" g2="u,ugrave,uacute,ucircumflex,udieresis" k="95"/>
      <hkern g1="T" g2="A,Agrave,Aacute,Acircumflex,Atilde,Adieresis,Aring" k="79"/>
      <hkern g1="T" g2="a,agrave,aacute,acircumflex,atilde,adieresis,aring" k="113"/>
      <hkern g1="T" g2="v,y,yacute,ydieresis" k="72"/>
      <hkern g1="T" g2="T" k="-16"/>
      <hkern g1="T" g2="Y,Yacute,Ydieresis" k="-16"/>
      <hkern g1="T" g2="s" k="116"/>
      <hkern g1="T" g2="z" k="60"/>
      <hkern g1="T" g2="S" k="16"/>
      <hkern g1="T" g2="x" k="77"/>
      <hkern g1="T" g2="W" k="-15"/>
      <hkern g1="T" g2="comma,period,quotesinglbase,quotedblbase,ellipsis" k="218"/>
      <hkern g1="T" g2="V" k="-16"/>
      <hkern g1="T" g2="hyphen,uni00AD,endash,emdash" k="232"/>
      <hkern g1="T" g2="J" k="240"/>
      <hkern g1="z" g2="c,d,e,g,q,ccedilla,egrave,eacute,ecircumflex,edieresis,oe" k="16"/>
      <hkern g1="z" g2="o,ograve,oacute,ocircumflex,otilde,odieresis" k="16"/>
      <hkern g1="Z" g2="c,d,e,g,q,ccedilla,egrave,eacute,ecircumflex,edieresis,oe" k="21"/>
      <hkern g1="Z" g2="C,G,O,Q,Ccedilla,Ograve,Oacute,Ocircumflex,Otilde,Odieresis,Oslash,OE" k="26"/>
      <hkern g1="Z" g2="o,ograve,oacute,ocircumflex,otilde,odieresis" k="21"/>
      <hkern g1="Z" g2="u,ugrave,uacute,ucircumflex,udieresis" k="19"/>
      <hkern g1="Z" g2="A,Agrave,Aacute,Acircumflex,Atilde,Adieresis,Aring" k="-13"/>
      <hkern g1="Z" g2="v,y,yacute,ydieresis" k="27"/>
      <hkern g1="X" g2="c,d,e,g,q,ccedilla,egrave,eacute,ecircumflex,edieresis,oe" k="26"/>
      <hkern g1="X" g2="C,G,O,Q,Ccedilla,Ograve,Oacute,Ocircumflex,Otilde,Odieresis,Oslash,OE" k="25"/>
      <hkern g1="X" g2="o,ograve,oacute,ocircumflex,otilde,odieresis" k="21"/>
      <hkern g1="X" g2="u,ugrave,uacute,ucircumflex,udieresis" k="21"/>
      <hkern g1="X" g2="v,y,yacute,ydieresis" k="31"/>
      <hkern g1="X" g2="V" k="-14"/>
      <hkern g1="X" g2="hyphen,uni00AD,endash,emdash" k="46"/>
      <hkern g1="C,Ccedilla" g2="T" k="29"/>
      <hkern g1="x" g2="c,d,e,g,q,ccedilla,egrave,eacute,ecircumflex,edieresis,oe" k="20"/>
      <hkern g1="x" g2="o,ograve,oacute,ocircumflex,otilde,odieresis" k="20"/>
      <hkern g1="r" g2="c,d,e,g,q,ccedilla,egrave,eacute,ecircumflex,edieresis,oe" k="19"/>
      <hkern g1="r" g2="o,ograve,oacute,ocircumflex,otilde,odieresis" k="20"/>
      <hkern g1="r" g2="a,agrave,aacute,acircumflex,atilde,adieresis,aring" k="40"/>
      <hkern g1="r" g2="v,y,yacute,ydieresis" k="-18"/>
      <hkern g1="r" g2="quotedbl,quotesingle,quoteleft,quoteright,quotedblleft,quotedblright" k="-16"/>
      <hkern g1="r" g2="comma,period,quotesinglbase,quotedblbase,ellipsis" k="123"/>
      <hkern g1="P" g2="c,d,e,g,q,ccedilla,egrave,eacute,ecircumflex,edieresis,oe" k="13"/>
      <hkern g1="P" g2="o,ograve,oacute,ocircumflex,otilde,odieresis" k="13"/>
      <hkern g1="P" g2="A,Agrave,Aacute,Acircumflex,Atilde,Adieresis,Aring" k="138"/>
      <hkern g1="P" g2="a,agrave,aacute,acircumflex,atilde,adieresis,aring" k="11"/>
      <hkern g1="P" g2="v,y,yacute,ydieresis" k="-15"/>
      <hkern g1="P" g2="X" k="31"/>
      <hkern g1="P" g2="Z" k="26"/>
      <hkern g1="P" g2="comma,period,quotesinglbase,quotedblbase,ellipsis" k="324"/>
      <hkern g1="P" g2="J" k="200"/>
      <hkern g1="c,ccedilla" g2="quotedbl,quotesingle,quoteleft,quoteright,quotedblleft,quotedblright" k="11"/>
      <hkern g1="L" g2="C,G,O,Q,Ccedilla,Ograve,Oacute,Ocircumflex,Otilde,Odieresis,Oslash,OE" k="65"/>
      <hkern g1="L" g2="u,ugrave,uacute,ucircumflex,udieresis" k="44"/>
      <hkern g1="L" g2="A,Agrave,Aacute,Acircumflex,Atilde,Adieresis,Aring" k="-19"/>
      <hkern g1="L" g2="v,y,yacute,ydieresis" k="133"/>
      <hkern g1="L" g2="U,Ugrave,Uacute,Ucircumflex,Udieresis" k="54"/>
      <hkern g1="L" g2="T" k="275"/>
      <hkern g1="L" g2="Y,Yacute,Ydieresis" k="239"/>
      <hkern g1="L" g2="quotedbl,quotesingle,quoteleft,quoteright,quotedblleft,quotedblright" k="336"/>
      <hkern g1="L" g2="W" k="143"/>
      <hkern g1="L" g2="V" k="175"/>
      <hkern g1="quotedbl,quotesingle,quoteleft,quoteright,quotedblleft,quotedblright"
             g2="c,d,e,g,q,ccedilla,egrave,eacute,ecircumflex,edieresis,oe" k="59"/>
      <hkern g1="quotedbl,quotesingle,quoteleft,quoteright,quotedblleft,quotedblright" g2="m,n,p,ntilde" k="20"/>
      <hkern g1="quotedbl,quotesingle,quoteleft,quoteright,quotedblleft,quotedblright"
             g2="o,ograve,oacute,ocircumflex,otilde,odieresis" k="61"/>
      <hkern g1="quotedbl,quotesingle,quoteleft,quoteright,quotedblleft,quotedblright"
             g2="A,Agrave,Aacute,Acircumflex,Atilde,Adieresis,Aring" k="120"/>
      <hkern g1="quotedbl,quotesingle,quoteleft,quoteright,quotedblleft,quotedblright"
             g2="a,agrave,aacute,acircumflex,atilde,adieresis,aring" k="50"/>
      <hkern g1="quotedbl,quotesingle,quoteleft,quoteright,quotedblleft,quotedblright" g2="s" k="80"/>
      <hkern g1="quotedbl,quotesingle,quoteleft,quoteright,quotedblleft,quotedblright"
             g2="quotedbl,quotesingle,quoteleft,quoteright,quotedblleft,quotedblright" k="107"/>
      <hkern g1="W" g2="c,d,e,g,q,ccedilla,egrave,eacute,ecircumflex,edieresis,oe" k="31"/>
      <hkern g1="W" g2="o,ograve,oacute,ocircumflex,otilde,odieresis" k="31"/>
      <hkern g1="W" g2="u,ugrave,uacute,ucircumflex,udieresis" k="19"/>
      <hkern g1="W" g2="A,Agrave,Aacute,Acircumflex,Atilde,Adieresis,Aring" k="43"/>
      <hkern g1="W" g2="a,agrave,aacute,acircumflex,atilde,adieresis,aring" k="33"/>
      <hkern g1="W" g2="T" k="-14"/>
      <hkern g1="W" g2="comma,period,quotesinglbase,quotedblbase,ellipsis" k="123"/>
      <hkern g1="W" g2="hyphen,uni00AD,endash,emdash" k="60"/>
      <hkern g1="B" g2="T" k="27"/>
      <hkern g1="B" g2="Y,Yacute,Ydieresis" k="55"/>
      <hkern g1="B" g2="V" k="24"/>
      <hkern g1="V" g2="c,d,e,g,q,ccedilla,egrave,eacute,ecircumflex,edieresis,oe" k="44"/>
      <hkern g1="V" g2="C,G,O,Q,Ccedilla,Ograve,Oacute,Ocircumflex,Otilde,Odieresis,Oslash,OE" k="13"/>
      <hkern g1="V" g2="o,ograve,oacute,ocircumflex,otilde,odieresis" k="46"/>
      <hkern g1="V" g2="u,ugrave,uacute,ucircumflex,udieresis" k="28"/>
      <hkern g1="V" g2="A,Agrave,Aacute,Acircumflex,Atilde,Adieresis,Aring" k="75"/>
      <hkern g1="V" g2="a,agrave,aacute,acircumflex,atilde,adieresis,aring" k="46"/>
      <hkern g1="V" g2="v,y,yacute,ydieresis" k="11"/>
      <hkern g1="V" g2="comma,period,quotesinglbase,quotedblbase,ellipsis" k="225"/>
      <hkern g1="V" g2="hyphen,uni00AD,endash,emdash" k="37"/>
      <hkern g1="comma,period,quotesinglbase,quotedblbase,ellipsis"
             g2="quotedbl,quotesingle,quoteleft,quoteright,quotedblleft,quotedblright" k="170"/>
    </font>
  </defs>
</svg>
