<?xml version="1.0" standalone="no"?>
<!DOCTYPE svg PUBLIC "-//W3C//DTD SVG 1.1//EN" "http://www.w3.org/Graphics/SVG/1.1/DTD/svg11.dtd" >
<svg version="1.1" xmlns="http://www.w3.org/2000/svg">
  <metadata></metadata>
  <defs>
    <font horiz-adv-x="1150" id="robotobold_italic">
      <font-face ascent="1536" descent="-512" units-per-em="2048"/>
      <missing-glyph horiz-adv-x="505"/>
      <glyph
        d="M65 870l38 212h146l9 52q37 204 173 315.5t349 109.5q83 -2 162.5 -19.5t158.5 -39.5l-61 -241q-138 48 -255 50q-99 0 -163 -47.5t-83 -133.5l-9 -46h219l-38 -212h-206l-151 -870h-283l151 870h-157zM698 0l188 1082h283l-187 -1082h-284z"
        horiz-adv-x="1219" unicode="&#xfb01;"/>
      <glyph
        d="M74 870l37 212l156 1l12 93q26 176 148 278.5t318 105.5h17l173 -7l311 -27l-257 -1526h-283l231 1314q-86 12 -147 12q-93 0 -152.5 -43t-74.5 -122l-13 -79h209l-37 -212h-208l-151 -870h-284l151 870h-156z"
        horiz-adv-x="1227" unicode="&#xfb02;"/>
      <glyph
        d="M74 870l37 212l156 1l11 85q24 189 140.5 291.5t296.5 100.5q55 -1 153 -22l-25 -225q-48 12 -83 12q-74 1 -126.5 -37t-67.5 -112l-16 -94h334l6 36q36 211 169 325t347 115h10q84 -1 164 -19.5t161 -41.5l-65 -238q-142 47 -256 49q-92 0 -158 -44t-87 -137l-9 -46 l218 1l-37 -212h-207l-151 -870h-283l151 870h-343l-151 -870h-284l151 870h-156zM1334 0l187 1082h284l-188 -1082h-283z"
        horiz-adv-x="1854" unicode="&#xfb03;"/>
      <glyph
        d="M74 870l37 212l156 1l14 107q26 173 141.5 272t293.5 97q59 -2 152 -21l-25 -225q-48 12 -83 12q-77 0 -129.5 -40t-65.5 -114l-15 -89l343 1l10 78q28 212 179 315q125 85 307 83l153 -5l331 -28l-256 -1526h-283l233 1314q-84 11 -150 11q-94 0 -154 -43.5t-74 -120.5 l-12 -79h209l-37 -212h-209l-151 -870h-283l151 870h-343l-151 -870h-284l151 870h-156z"
        horiz-adv-x="1854" unicode="&#xfb04;"/>
      <glyph horiz-adv-x="0"/>
      <glyph horiz-adv-x="0"/>
      <glyph horiz-adv-x="505" unicode="&#xd;"/>
      <glyph horiz-adv-x="0"/>
      <glyph horiz-adv-x="505" unicode=" "/>
      <glyph horiz-adv-x="505" unicode="&#x09;"/>
      <glyph horiz-adv-x="505" unicode="&#xa0;"/>
      <glyph
        d="M41 131q-2 66 42 111.5t112 47.5q64 2 111 -39.5t49 -108.5q2 -66 -42 -112t-113 -48q-70 0 -114.5 44t-44.5 105zM134 447l142 1009h301l-208 -1009h-235z"
        horiz-adv-x="550" unicode="!"/>
      <glyph d="M121 987l87 549h198l-25 -154l-99 -395h-161zM438 987l86 549h197l-24 -154l-99 -395h-160z"
             horiz-adv-x="647" unicode="&#x22;"/>
      <glyph
        d="M28 410l30 172h247l97 284h-222l31 174h251l144 416h184l-143 -416h180l143 416h186l-143 -416h209l-30 -174h-239l-98 -284h214l-30 -172h-243l-141 -410h-186l142 410h-179l-142 -410h-186l142 410h-218zM490 582h179l98 284h-180z"
        horiz-adv-x="1193" unicode="#"/>
      <glyph
        d="M65 458l282 -1q-5 -121 39.5 -182t133.5 -63q85 -2 145 47.5t72 130.5q10 70 -23 121t-135.5 97t-169.5 91q-205 138 -190 363q11 172 129 281.5t309 129.5l41 214h157l-42 -220q152 -32 231.5 -152t74.5 -311l-283 1q12 236 -139 239q-79 2 -133 -48.5t-65 -132.5 q-9 -64 22.5 -113t121 -92t150.5 -80q239 -144 223 -386q-11 -174 -128.5 -281t-311.5 -127l-39 -199h-156l39 200q-176 26 -268.5 151.5t-86.5 321.5z"
        unicode="$"/>
      <glyph
        d="M184 1099l5 67q11 142 103.5 228t232.5 84q134 -4 211.5 -89t69.5 -213l-6 -77q-14 -137 -108 -220t-227 -79q-130 2 -208.5 85t-72.5 214zM247 196l878 1124l137 -83l-876 -1126zM373 1095q-5 -56 18.5 -92t74.5 -38t90.5 34.5t51.5 99.5l10 78q7 59 -17.5 95.5 t-74.5 38.5q-55 2 -94.5 -37t-48.5 -98zM718 279l5 78q12 136 106 219.5t230 81.5q133 -4 211 -88t70 -213l-5 -67q-11 -145 -105.5 -230t-230.5 -81q-128 2 -208.5 85.5t-72.5 214.5zM904 277q-5 -55 21 -92.5t74 -39.5q58 -2 95 34t48 100l10 80q7 59 -18 94.5t-74 37.5 q-54 2 -93.5 -34.5t-51.5 -99.5z"
        horiz-adv-x="1477" unicode="%"/>
      <glyph
        d="M41 385q10 183 217 325l98 63l-40 90q-52 126 -45 223q8 115 65 205.5t152 139t207 45.5q147 -4 241 -97.5t88 -233.5q-10 -189 -227 -332l-114 -75l188 -282q84 120 101 258h239q-19 -282 -193 -465l168 -249h-302l-55 84q-180 -107 -371 -103q-190 2 -309 114.5 t-108 289.5zM330 399q-11 -83 32 -133.5t118 -52.5q87 -3 209 59l-214 330l-24 -16q-106 -79 -121 -187zM517 1043q7 -53 49 -134l82 50q124 75 133 169q6 50 -22.5 83t-77.5 33q-62 2 -108 -43t-55 -111q-4 -24 -1 -47z"
        horiz-adv-x="1314" unicode="&#x26;"/>
      <glyph d="M120 985l87 551h207l-25 -163l-88 -388h-181z" horiz-adv-x="331" unicode="'"/>
      <glyph
        d="M105 384q2 95 13 180l4 24q48 357 213.5 638.5t415.5 392.5l48 -161q-342 -261 -433 -839q-31 -196 -33 -352q-5 -411 188 -571l-63 -151q-216 120 -302 415q-57 198 -51 424z"
        horiz-adv-x="707" unicode="("/>
      <glyph
        d="M-104 -300q343 265 433 848q29 187 31 345q5 411 -186 572l63 151q118 -64 202.5 -186.5t125 -295.5t38.5 -356q-6 -278 -96 -540.5t-235.5 -440.5t-327.5 -255z"
        horiz-adv-x="710" unicode=")"/>
      <glyph
        d="M100 1058l85 170l287 -128l43 356h192l-80 -347l307 118l26 -193l-328 -89l161 -272l-161 -104l-126 293l-222 -278l-149 119l257 263z"
        horiz-adv-x="910" unicode="*"/>
      <glyph d="M46 554l46 261h351l68 391h269l-68 -391h350l-46 -261h-349l-71 -408h-269l71 408h-352z" horiz-adv-x="1094"
             unicode="+"/>
      <glyph d="M-118 -284l73 117q64 107 82 201l37 212h238l-29 -184q-41 -259 -252 -427z" horiz-adv-x="495" unicode=","/>
      <glyph d="M90 507l40 233h549l-41 -233h-548z" horiz-adv-x="780" unicode="-"/>
      <glyph
        d="M44 137q-2 67 43 113t113 48q67 2 114.5 -41.5t47.5 -109.5q2 -66 -44 -112.5t-113 -46.5q-67 -2 -113 40t-48 109z"
        horiz-adv-x="587" unicode="."/>
      <glyph d="M-145 -125l794 1581h223l-795 -1581h-222z" horiz-adv-x="752" unicode="/"/>
      <glyph
        d="M87 454q-1 74 8 148l41 273q49 298 193 452t369 149q189 -4 292.5 -127.5t106.5 -344.5q1 -75 -8 -149l-42 -271q-50 -300 -192.5 -454.5t-369.5 -149.5q-189 4 -292 128t-106 346zM361 422q-5 -203 139 -210q203 -13 258 317l53 356q13 87 13 153q0 199 -140 206 q-202 9 -257 -308l-50 -338q-16 -106 -16 -176z"
        unicode="0"/>
      <glyph d="M230 1001l44 247l608 210l37 1l-245 -1459h-282l192 1108z" unicode="1"/>
      <glyph
        d="M1 0l33 210l517 485q159 149 211 242t39 182q-21 124 -143 127q-96 2 -160.5 -67t-78.5 -181l-282 -1q8 136 81 247t194.5 172.5t262.5 60.5q203 -4 316 -114t100 -293q-16 -206 -243 -430l-144 -137l-298 -268l602 -2l-37 -233h-970z"
        unicode="2"/>
      <glyph
        d="M27 400h280q-2 -81 45.5 -132.5t132.5 -53.5q98 -2 168 55.5t82 150.5q13 100 -35.5 153t-147.5 56l-166 1l36 226l135 -1q103 0 172.5 57t80.5 153q10 81 -31 129.5t-123 50.5t-140.5 -44.5t-71.5 -120.5l-282 -2q9 176 151.5 288.5t346.5 110.5q206 -4 326 -115 t109 -294q-14 -208 -265 -326q98 -47 143.5 -133.5t39.5 -192.5q-7 -132 -81 -232t-198 -153.5t-268 -50.5q-195 2 -318 117t-121 303z"
        unicode="3"/>
      <glyph
        d="M17 315l20 197l743 944h295l-157 -908h160l-41 -233h-160l-55 -315h-282l55 315h-578zM330 550l306 -2l99 518l-26 -36z"
        unicode="4"/>
      <glyph
        d="M67 406h277q4 -89 49 -139.5t122 -52.5q100 -3 164.5 73t77.5 204q12 114 -34.5 180t-141.5 68q-106 2 -196 -78l-231 59l196 736h796l-38 -241h-559l-96 -315q89 56 210 56q187 0 289.5 -132.5t86.5 -349.5q-12 -144 -84.5 -259t-190.5 -177t-260 -59 q-123 1 -223.5 56.5t-156.5 153t-57 217.5z"
        unicode="5"/>
      <glyph
        d="M97 559l11 90q47 376 275.5 599.5t569.5 223.5h38l-22 -239l-55 -1q-343 -18 -495 -378q125 123 293 119q118 -2 199.5 -66t119.5 -175t27 -245q-12 -143 -85.5 -261.5t-192.5 -184t-257 -62.5q-143 4 -245.5 80.5t-149.5 209.5t-31 290zM372 422q2 -94 43 -151t116 -58 q74 -3 135 48t90 137t19 175q-9 78 -50.5 123.5t-108.5 46.5q-73 2 -131 -36t-96 -97l-13 -90q-5 -45 -4 -98z"
        unicode="6"/>
      <glyph d="M113 0l738 1222h-696l37 234h999l-27 -177l-740 -1279h-311z" unicode="7"/>
      <glyph
        d="M62 390q14 242 285 366q-147 117 -137 305q7 124 73 220t177.5 147t243.5 48q189 -4 300 -112.5t100 -286.5q-14 -213 -250 -333q85 -59 127 -146t35 -190q-11 -196 -159 -314t-366 -114q-199 2 -319.5 114t-109.5 296zM348 411q-11 -86 30.5 -141.5t125.5 -57.5 q92 -2 156.5 58t77.5 158q11 86 -31 143t-124 59q-91 2 -156.5 -59t-78.5 -160zM489 1047q-9 -81 24.5 -132.5t104.5 -53.5q78 -2 134 54.5t67 147.5q9 82 -26 130.5t-104 50.5q-79 2 -134 -52.5t-66 -144.5z"
        unicode="8"/>
      <glyph
        d="M143 954q14 161 102 291t229 192q93 41 204 39q180 -4 287 -126t121 -327q4 -71 -3 -141l-11 -86q-49 -381 -271.5 -596t-570.5 -215h-21l22 242h15q197 -3 324 85.5t193 270.5q-123 -114 -263 -112q-120 1 -204 64t-124.5 175.5t-28.5 243.5zM424 868q7 -80 47.5 -128 t106.5 -49q120 -4 212 123l17 121q5 42 5 95q-2 96 -40 154t-110 60q-72 1 -129.5 -51.5t-87 -143.5t-21.5 -181z"
        unicode="9"/>
      <glyph
        d="M43 137q-2 67 43 113t113 48q67 2 114.5 -41.5t47.5 -109.5q2 -66 -44 -112.5t-113 -46.5q-67 -2 -113 40t-48 109zM184 956q-2 67 43 113t113 48q67 2 114.5 -41.5t47.5 -109.5q2 -66 -44 -112.5t-113 -46.5q-67 -2 -113 40t-48 109z"
        horiz-adv-x="571" unicode=":"/>
      <glyph
        d="M-97 -284l73 117q64 107 82 201l37 212h238l-29 -184q-41 -259 -252 -427zM167 956q-2 67 43 113t113 48q67 2 114.5 -41.5t47.5 -109.5q2 -66 -44 -112.5t-113 -46.5q-67 -2 -113 40t-48 109z"
        horiz-adv-x="531" unicode=";"/>
      <glyph d="M36 509l41 236l901 365l-52 -293l-589 -205l519 -201l-46 -267z" horiz-adv-x="1021" unicode="&#x3c;"/>
      <glyph d="M81 313l42 236h869l-42 -236h-869zM156 746l42 236h869l-42 -236h-869z" horiz-adv-x="1147" unicode="="/>
      <glyph d="M33 129l52 292l600 206l-530 203l47 265l783 -365l-41 -235z" horiz-adv-x="1036" unicode="&#x3e;"/>
      <glyph
        d="M132 1068q13 190 146.5 301.5t335.5 107.5q189 -4 295 -108t93 -277q-12 -170 -194 -323l-128 -106q-92 -85 -112 -216l-247 -1q9 130 53.5 219.5t138 165t125.5 110.5q86 95 75 202q-10 97 -113 100q-71 2 -120 -45t-65 -128zM228 134q-2 67 43 113t113 48 q64 2 111 -40.5t49 -109.5q2 -63 -42 -110t-114 -49q-67 0 -112.5 41t-47.5 107z"
        horiz-adv-x="998" unicode="?"/>
      <glyph
        d="M54 111q-30 225 36.5 471t215 441t345 295.5t414.5 97.5q293 -5 462.5 -178.5t182.5 -472.5q6 -169 -40 -336t-136 -282q-136 -173 -340 -168q-172 5 -218 143q-126 -144 -268 -141q-120 2 -182.5 97.5t-54.5 251.5q6 155 83 318t194.5 254t259.5 89q73 -2 137.5 -25 t155.5 -83l-134 -582l-7 -53q-11 -105 74 -110q126 -5 204 148t95 377l3 51q5 161 -45 284t-158 187.5t-265 67.5q-164 3 -311.5 -69.5t-263.5 -213.5t-182.5 -323.5t-73.5 -369.5q-9 -211 74 -353q117 -198 397 -201q161 -2 338 68l28 -158q-129 -86 -365 -86 q-201 2 -338.5 76t-216.5 199t-100 289zM690 320q-11 -160 90 -163q54 -3 109 49t80 120l127 478q-31 11 -69 13q-126 5 -210 -108t-121 -331z"
        horiz-adv-x="1788" unicode="@"/>
      <glyph d="M-104 0l778 1456h271l277 -1456h-299l-46 300h-508l-150 -300h-323zM489 543h351l-82 542z"
             horiz-adv-x="1347" unicode="A"/>
      <glyph
        d="M21 0l253 1456l454 -1q253 -1 380 -103q116 -93 116 -256q0 -15 -1 -31q-14 -221 -255 -323q87 -30 135 -112q42 -72 42 -167q0 -14 -1 -28q-14 -206 -161.5 -320.5t-402.5 -114.5h-559zM356 241l231 -1q108 0 181 53.5t87 144.5q4 24 4 45q-1 57 -29 95q-38 50 -129 55 l-276 1zM461 846l199 -2q111 2 181.5 52t84.5 139q3 19 3 35q0 141 -188 142l-216 1z"
        horiz-adv-x="1278" unicode="B"/>
      <glyph
        d="M94 508q-1 22 -1 45q1 110 27 261q32 183 115.5 325t198.5 225q157 112 356 112h14q226 -4 358.5 -139.5t145.5 -376.5l-292 1q0 138 -55 202t-171 68h-13q-141 0 -233 -107q-96 -112 -130 -327q-28 -186 -28 -289v-24q5 -132 59 -194.5t151 -65.5h18q120 0 196 64 q80 68 107 196l291 2q-17 -151 -103 -267.5t-224 -178.5q-132 -60 -283 -60h-15q-144 3 -251 66.5t-168.5 184t-69.5 277.5z"
        horiz-adv-x="1310" unicode="C"/>
      <glyph
        d="M21 0l253 1456l418 -1q147 -3 264.5 -66.5t190.5 -182.5t88 -268q4 -39 3 -78q0 -49 -5 -100l-7 -53q-44 -320 -251.5 -513.5t-503.5 -193.5h-450zM356 241l122 -1q202 0 324.5 148t140.5 447l2 32v14q0 155 -63 239q-66 88 -197 92l-160 1z"
        horiz-adv-x="1301" unicode="D"/>
      <glyph d="M21 0l253 1456h947l-43 -243h-653l-61 -347h560l-42 -235h-558l-68 -390h656l-42 -241h-949z"
             horiz-adv-x="1127" unicode="E"/>
      <glyph d="M21 0l253 1456h922l-43 -243h-628l-66 -376h560l-43 -242h-558l-104 -595h-293z" horiz-adv-x="1098"
             unicode="F"/>
      <glyph
        d="M106 508q-2 29 -2 59q0 124 32 279q41 195 139.5 341.5t236.5 218.5q133 70 293 70h13q228 -4 357 -128.5t147 -356.5l-282 1q-11 122 -65 180t-161 62h-13q-176 0 -279 -162q-106 -169 -121 -489q-1 -24 -1 -46q0 -138 54 -219q62 -94 190 -96h15q139 0 239 71l49 251 h-266l39 221h556l-88 -581q-78 -99 -228 -152q-143 -51 -320 -51h-20q-149 1 -262 65.5t-178 185.5t-74 276z"
        horiz-adv-x="1363" unicode="G"/>
      <glyph d="M21 0l253 1456h293l-103 -590h566l102 590h293l-252 -1456h-293l108 624h-565l-109 -624h-293z"
             horiz-adv-x="1414" unicode="H"/>
      <glyph d="M40 0l252 1456h293l-252 -1456h-293z" horiz-adv-x="589" unicode="I"/>
      <glyph
        d="M7 431l295 -1q-1 -18 -1 -34q0 -172 146 -175h8q82 0 140 58q61 61 79 169l172 1008h293l-171 -1008q-18 -138 -92 -247t-190 -167q-110 -55 -241 -55h-14q-206 4 -318 122q-106 112 -106 309v21z"
        horiz-adv-x="1120" unicode="J"/>
      <glyph
        d="M21 0l253 1456h293l-112 -642l149 168l438 474h382l-629 -662l375 -794h-334l-260 581l-192 -178l-70 -403h-293z"
        horiz-adv-x="1271" unicode="K"/>
      <glyph d="M21 0l253 1456h293l-211 -1215h618l-42 -241h-911z" horiz-adv-x="1086" unicode="L"/>
      <glyph
        d="M21 0l253 1456h376l179 -1053l543 1053h390l-253 -1456h-294l72 415l142 648l-558 -1063h-201l-195 1100l-94 -717l-67 -383h-293z"
        horiz-adv-x="1750" unicode="M"/>
      <glyph d="M21 0l253 1456h283l406 -973l169 973h292l-252 -1456h-284l-405 971l-169 -971h-293z" horiz-adv-x="1413"
             unicode="N"/>
      <glyph
        d="M101 521q-2 32 -2 64q0 136 37 286q46 186 148 327t240 211q132 67 284 67h13q147 -3 257 -69.5t173 -191t72 -282.5q2 -30 2 -61q0 -147 -40 -301q-48 -186 -149 -322q-100 -136 -236 -204q-130 -65 -281 -65h-13q-145 3 -255.5 68.5t-175 189t-74.5 283.5zM395 597 q-1 -26 -1 -51q0 -140 48 -222q57 -96 177 -99h16q146 1 244 123q103 130 135 366l7 54l8 95q1 26 1 51q0 141 -48 219q-58 92 -175 96h-13q-174 0 -278 -162q-108 -168 -121 -470z"
        horiz-adv-x="1382" unicode="O"/>
      <glyph
        d="M21 0l253 1456l510 -1q236 0 371 -131q120 -116 120 -296q0 -23 -2 -46q-16 -214 -178.5 -342t-414.5 -128l-276 1l-90 -513h-293zM445 756l244 -2q118 0 196 61t93 165q4 25 4 47q0 72 -38 119q-48 62 -143 66l-276 1z"
        horiz-adv-x="1291" unicode="P"/>
      <glyph
        d="M98 522q-2 31 -2 63q0 98 20 211q27 152 90 279t154.5 218t208.5 139q110 44 232 44h16q146 -3 256 -69t174 -190t73 -284q2 -29 2 -58q0 -58 -7 -116l-17 -115q-67 -372 -340 -549l202 -198l-200 -157l-255 248q-47 -7 -88 -7h-18q-218 2 -352 148t-149 393zM391 597 q-1 -26 -1 -51q0 -140 48 -222q57 -95 177 -99h16q146 0 244 123q103 129 135 366q13 96 16 149q1 20 1 39q0 156 -51 234q-58 89 -173 93h-13q-174 0 -278 -162q-107 -168 -121 -470z"
        horiz-adv-x="1382" unicode="Q"/>
      <glyph
        d="M21 0l253 1456l482 -1q242 0 372 -114q117 -102 117 -276q0 -20 -1 -41q-21 -300 -320 -417l205 -591v-16h-312l-172 533h-238l-93 -533h-293zM449 776l218 -2q116 2 191.5 62.5t90.5 164.5q3 23 3 44q0 66 -34 108q-45 55 -143 59l-250 1z"
        horiz-adv-x="1278" unicode="R"/>
      <glyph
        d="M38 459l293 -1q-1 -13 0 -25q0 -212 233 -216q107 0 176 47t82 125q3 16 3 30q0 97 -120 152l-193 77q-320 143 -320 388q0 12 1 25q7 122 80 216q73 93 205 147q127 52 274 52h11q211 -4 341 -126q128 -120 128 -319v-6h-292v18q0 86 -44 136q-48 55 -150 57h-8 q-95 0 -166 -46q-74 -48 -88 -130q-2 -11 -2 -22q0 -94 148 -151l132 -50l76 -35q277 -137 277 -378q0 -16 -1 -32q-9 -129 -82.5 -222.5t-199.5 -143.5q-119 -47 -262 -47h-17q-155 3 -276 65t-184 175q-55 98 -55 223v17z"
        horiz-adv-x="1231" unicode="S"/>
      <glyph d="M144 1213l43 243h1152l-43 -243h-432l-210 -1213h-293l210 1213h-427z" horiz-adv-x="1239" unicode="T"/>
      <glyph
        d="M101 495l163 961h293l-163 -962q-4 -30 -4 -58q0 -24 3 -47q20 -162 193 -168h13q115 0 190 68q79 72 102 206l164 961h294l-164 -960q-34 -241 -200 -381q-161 -136 -398 -136h-14q-154 3 -267 67q-114 64 -168 182q-41 89 -41 197q0 34 4 70z"
        horiz-adv-x="1318" unicode="U"/>
      <glyph d="M145 1456h315l146 -1092l490 1092h336l-719 -1456h-306z" horiz-adv-x="1309" unicode="V"/>
      <glyph d="M170 1456h286l29 -1028l392 1028h249l69 -1033l351 1033h299l-541 -1456h-295l-77 970l-381 -970h-295z"
             horiz-adv-x="1747" unicode="W"/>
      <glyph d="M-81 0l547 748l-293 708h320l186 -500l343 500h352l-535 -736l302 -720h-324l-191 508l-351 -508h-356z"
             horiz-adv-x="1272" unicode="X"/>
      <glyph d="M154 1455l309 1l177 -654l407 654h336l-636 -944l-88 -512h-298l95 545z" horiz-adv-x="1238" unicode="Y"/>
      <glyph d="M-34 0l33 191l871 1020l-693 2l43 243h1061l-33 -187l-870 -1026l708 -2l-42 -241h-1078z" horiz-adv-x="1214"
             unicode="Z"/>
      <glyph d="M-31 -339l318 2033h421l-35 -223h-138l-248 -1587h138l-35 -223h-421z" horiz-adv-x="562" unicode="["/>
      <glyph d="M154 1456h275l316 -1581h-276z" horiz-adv-x="848" unicode="\"/>
      <glyph d="M-135 -339l35 223h139l248 1587h-139l35 223h421l-318 -2033h-421z" horiz-adv-x="562" unicode="]"/>
      <glyph d="M57 729l417 727h205l164 -727h-211l-89 454l-247 -454h-239z" horiz-adv-x="878" unicode="^"/>
      <glyph d="M-143 -226l40 226h885l-39 -226h-886z" horiz-adv-x="897" unicode="_"/>
      <glyph d="M204 1534l291 2l143 -310l-211 1z" horiz-adv-x="667" unicode="`"/>
      <glyph
        d="M19 296q7 177 148.5 271.5t379.5 94.5l132 -2l14 65q6 33 3 63q-5 47 -35.5 73.5t-80.5 27.5h-7q-61 -1 -105 -33q-46 -34 -59 -99l-283 -1q6 156 142 252q133 95 327 94h8q184 -4 288 -110q89 -91 89 -226q0 -22 -2 -45l-83 -518l-5 -64v-13q0 -62 17 -107l-1 -19h-277 q-11 36 -11 83v15q-118 -118 -266 -118h-10q-142 2 -236 92q-88 85 -87 208v16zM306 317q-2 -11 -1 -21q-1 -38 23 -64q30 -32 84 -33h9q117 0 204 106l35 187l-98 1q-156 -4 -225 -95q-25 -33 -31 -81z"
        horiz-adv-x="1075" unicode="a"/>
      <glyph
        d="M3 0l266 1536h283l-109 -553q110 119 255 119h9q157 -2 246.5 -112.5t95.5 -305.5q0 -12 1 -26q0 -53 -7 -120q-30 -256 -156 -410q-122 -149 -313 -149h-13q-171 4 -260 138l-41 -117h-257zM340 325q38 -108 162 -112h8q201 0 247 302l6 44q7 64 7 106q0 14 -1 26 q-11 174 -144 177h-8q-119 0 -199 -113z"
        horiz-adv-x="1128" unicode="b"/>
      <glyph
        d="M47 469l3 55l1 11q27 265 178 419q145 149 357 148h16q182 -4 290 -120q106 -113 106 -297v-7h-263q0 87 -38 137t-114 54h-8q-195 0 -237 -295q-12 -86 -12 -151q0 -17 1 -33q10 -175 150 -178h7q74 0 123 42q52 44 68 119l265 1q-7 -114 -71.5 -205t-172.5 -142 q-102 -48 -213 -48h-13q-197 3 -312 136q-111 129 -111 339v15z"
        horiz-adv-x="1046" unicode="c"/>
      <glyph
        d="M49 399q-1 21 -1 42q0 41 4 80l6 45q24 166 92 292t168 187q95 58 211 58h11q151 -4 244 -121l106 554h283l-266 -1536h-252l16 116q-118 -137 -273 -137h-9q-101 1 -177 53t-117.5 149.5t-45.5 217.5zM330 393q10 -176 142 -179h10q113 0 197 112l77 430 q-39 107 -156 112h-7q-99 0 -165 -80q-68 -82 -93 -267q-6 -55 -6 -98q0 -16 1 -30z"
        horiz-adv-x="1129" unicode="d"/>
      <glyph
        d="M60 501l3 40q15 158 92 290q77 131 198 203q115 68 252 68h16q209 -4 317 -154q87 -120 86 -292q0 -42 -5 -86l-16 -123h-663v-14q0 -95 51 -154q55 -63 150 -65h10q148 0 260 119l129 -160q-61 -91 -176 -143q-111 -50 -237 -50h-10q-142 1 -251.5 69.5t-163.5 188.5 q-44 98 -44 211q0 26 2 52zM360 643h388l6 26q3 22 3 42q0 17 -2 34q-10 58 -49 90.5t-99 33.5h-6q-75 0 -133 -49q-60 -51 -108 -177z"
        horiz-adv-x="1084" unicode="e"/>
      <glyph
        d="M74 870l37 212l156 1l14 108q26 173 141 271q113 97 286 97h7q61 -2 153 -21l-25 -225q-48 12 -83 12h-4q-72 0 -124 -38q-54 -39 -67 -117l-15 -88h209l-37 -212h-208l-151 -870h-284l151 870h-156z"
        horiz-adv-x="722" unicode="f"/>
      <glyph
        d="M-16 -251l140 172q94 -119 236 -123h13q102 0 175 58q78 61 106 173l16 65q-114 -114 -255 -114h-10q-158 2 -251 117.5t-102 300.5q-1 17 -1 35q0 49 6 109q30 251 163 408q131 153 329 153h8q173 -4 258 -125l37 105l259 -1l-177 -1045q-29 -216 -184 -342 q-150 -122 -370 -122h-14q-112 2 -214 48.5t-168 127.5zM334 424q0 -94 39.5 -150.5t114.5 -59.5h9q109 0 195 98l84 458q-43 94 -159 98h-7q-103 0 -176 -87q-75 -90 -94 -239q-6 -64 -6 -106v-12z"
        horiz-adv-x="1144" unicode="g"/>
      <glyph
        d="M-4 0l266 1536h283l-112 -574q125 140 288 140h5q160 -4 236 -116q60 -89 61 -230q0 -36 -4 -74l-114 -682h-282l115 685q3 24 3 46q0 13 -1 26q-10 108 -126 111h-9q-109 0 -191 -98l-136 -770h-282z"
        horiz-adv-x="1122" unicode="h"/>
      <glyph
        d="M17 0l188 1082h284l-188 -1082h-284zM238 1357v6q0 63 44 105q46 44 111 44h6q60 0 105 -39q47 -41 49 -106v-5q1 -59 -41 -103q-44 -46 -114 -48h-6q-58 0 -104 38q-48 40 -50 108z"
        horiz-adv-x="537" unicode="i"/>
      <glyph
        d="M-262 -421l23 230q50 -11 87 -13h4q129 0 158 144l196 1142h284l-194 -1141q-23 -181 -130 -282q-106 -99 -271 -99h-7q-68 2 -150 19zM233 1357v6q0 62 42 103q44 44 113 46q69 0 113.5 -41t46.5 -104v-6q0 -63 -42 -105q-44 -43 -113 -45h-6q-59 0 -105 38 q-47 40 -49 108z"
        horiz-adv-x="526" unicode="j"/>
      <glyph d="M3 0l266 1536h283l-146 -834l55 59l321 321h362l-473 -465l301 -617h-309l-192 431l-131 -114l-55 -317h-282z"
             horiz-adv-x="1071" unicode="k"/>
      <glyph d="M17 0l267 1536h283l-266 -1536h-284z" horiz-adv-x="537" unicode="l"/>
      <glyph
        d="M3 0l187 1082l263 1l-23 -123q128 142 307 142h10q100 -2 166 -46t89 -119q140 165 327 165h9q148 -3 224 -102q65 -85 65 -236q0 -24 -1 -50l-2 -25l-115 -689h-283l115 691q3 30 3 56v13q-7 105 -120 108q-116 0 -199 -124l-3 -23l-126 -721h-282l115 689q3 30 3 56v13 q-7 106 -119 109h-6q-103 0 -187 -101l-135 -766h-282z"
        horiz-adv-x="1730" unicode="m"/>
      <glyph
        d="M-3 0l188 1082l264 1l-24 -128q127 147 305 147h10q153 -3 226 -112q57 -86 57 -223q0 -38 -4 -79l-114 -688h-282l116 691q3 24 3 46q0 13 -1 25q-13 102 -128 105h-8q-106 0 -191 -103l-135 -764h-282z"
        horiz-adv-x="1123" unicode="n"/>
      <glyph
        d="M58 524q26 268 182 426q150 152 366 152h16q143 -2 246 -74q104 -70 152 -196q38 -97 38 -212q0 -33 -3 -67q-23 -257 -179 -417q-153 -156 -376 -156h-11q-141 2 -244 72.5t-152 195.5q-38 97 -38 210q0 32 3 66zM337 421q2 -96 45 -151.5t121 -57.5h8q124 0 196 120 q69 116 69 299v25q-4 96 -46.5 153.5t-121.5 59.5h-8q-120 -1 -194 -119q-70 -113 -69 -299v-30z"
        horiz-adv-x="1133" unicode="o"/>
      <glyph
        d="M-69 -416l259 1498l260 1l-19 -109q114 128 267 128h9q159 -4 247 -115.5t94 -302.5v-26q0 -53 -6 -120q-21 -170 -89 -302t-169 -196q-96 -61 -213 -61h-11q-157 4 -248 117l-99 -512h-282zM339 318q37 -101 159 -105h7q97 0 163 79q68 82 94 267l6 96v10q0 90 -36 144 q-37 57 -109 59h-9q-117 0 -194 -104z"
        horiz-adv-x="1128" unicode="p"/>
      <glyph
        d="M49 400q-1 21 -1 42q0 41 4 81l6 44q24 168 92.5 294t167.5 185q95 57 210 57h12q168 -4 257 -136l46 116l252 -1l-260 -1498h-284l101 511q-109 -115 -253 -115h-10q-101 1 -177 53t-117.5 150.5t-45.5 216.5zM331 394q10 -178 142 -181h8q114 0 196 105l82 450 q-39 97 -157 101h-7q-101 0 -168 -83q-69 -87 -89 -242q-8 -79 -8 -125q0 -14 1 -25z"
        horiz-adv-x="1132" unicode="q"/>
      <glyph
        d="M3 0l188 1082l265 1l-26 -132q102 153 252 153q42 0 98 -14l-36 -279q-58 10 -95 10h-10q-144 0 -229 -113l-125 -708h-282z"
        horiz-adv-x="735" unicode="r"/>
      <glyph
        d="M9 346l266 -2q4 -155 166 -157q78 0 128.5 32t60.5 86q2 9 2 17q0 67 -113 99l-91 23q-314 87 -314 302v12q6 154 136 250q128 95 307 94h7q183 -2 296 -97t115 -253l-280 1q2 139 -138 141q-66 0 -114.5 -33t-59.5 -89q-1 -8 -1 -15q0 -68 122 -98l40 -9 q138 -33 211 -75.5t113 -105.5q37 -59 36 -139v-12q-3 -103 -66.5 -180t-173.5 -119q-103 -39 -217 -39h-16q-180 2 -300 103.5t-122 262.5z"
        horiz-adv-x="1031" unicode="s"/>
      <glyph
        d="M56 870l37 212h153l46 266h283l-47 -266h180l-37 -212h-180l-92 -542q-2 -15 -2 -28q0 -31 10 -50q14 -27 68 -29h6q20 0 80 5l-20 -221q-69 -23 -149 -23h-13q-139 2 -207 87q-58 72 -58 188q0 20 2 42l93 571h-153z"
        horiz-adv-x="681" unicode="t"/>
      <glyph
        d="M77 382l117 700h282l-119 -703q-4 -33 -1 -62q10 -100 111 -103h10q125 0 207 101l135 767h284l-188 -1082h-263l21 112q-117 -132 -290 -132h-8q-156 2 -236 112q-65 90 -65 226q0 31 3 64z"
        horiz-adv-x="1122" unicode="u"/>
      <glyph d="M92 1082h286l80 -725l308 725h304l-523 -1082h-270z" horiz-adv-x="1014" unicode="v"/>
      <glyph d="M115 1082h264l17 -681l309 681h204l71 -688l257 688h281l-455 -1082h-236l-80 677l-316 -677h-236z"
             horiz-adv-x="1470" unicode="w"/>
      <glyph d="M-82 0l408 566l-209 516h286l121 -321l227 321h317l-392 -544l219 -538h-286l-133 338l-239 -338h-319z"
             horiz-adv-x="1021" unicode="x"/>
      <glyph
        d="M-55 -419l21 220l39 -2h10q130 0 192 101l62 115l-177 1067h292l78 -670l309 670h314l-633 -1245q-68 -143 -159.5 -210t-211.5 -67q-47 0 -136 21z"
        horiz-adv-x="1007" unicode="y"/>
      <glyph d="M-33 0l33 191l603 655l-475 2l41 234h843l-32 -185l-609 -662l510 -2l-41 -233h-873z" horiz-adv-x="1021"
             unicode="z"/>
      <glyph
        d="M39 513l19 207q185 8 215 222l32 230q59 325 404 429l47 -166q-168 -65 -201 -304l-32 -229q-34 -193 -223 -289q69 -51 101 -128.5t23 -175.5l-31 -236l-4 -57q-7 -162 110 -215l-61 -161q-158 53 -235 173q-77 121 -59 293l28 205q5 42 2 78q-10 113 -135 124z"
        horiz-adv-x="666" unicode="{"/>
      <glyph d="M31 -270l270 1726h172l-270 -1726h-172z" horiz-adv-x="512" unicode="|"/>
      <glyph
        d="M-94 -197q168 65 201 304l32 230q34 193 226 287q-72 49 -104 128t-23 177l31 236l4 57q7 161 -109 215l64 158q161 -54 234.5 -174.5t55.5 -288.5l-28 -204q-5 -43 -2 -78q10 -115 135 -126l-19 -207q-186 -10 -215 -221l-27 -199q-51 -353 -409 -461z"
        horiz-adv-x="666" unicode="}"/>
      <glyph
        d="M80 415q12 186 109.5 301t248.5 112q77 -2 138.5 -35.5t133.5 -108t131 -74.5q62 0 104.5 50t55.5 134l202 1q-6 -118 -52 -216.5t-124 -152.5t-179 -52q-77 2 -137.5 35t-117.5 92t-86 75t-64 17q-59 0 -99.5 -47.5t-54.5 -132.5z"
        horiz-adv-x="1298" unicode="~"/>
      <glyph
        d="M-37 -369l208 1008h235l-143 -1008h-300zM184 943q-2 65 42 111t113 48q64 2 111 -39.5t49 -109.5q2 -69 -44 -114t-111 -45q-63 -2 -110.5 40t-49.5 109z"
        horiz-adv-x="571" unicode="&#xa1;"/>
      <glyph
        d="M96 523q25 246 150 392.5t326 178.5l47 224h196l-47 -228q133 -32 207.5 -139.5t72.5 -272.5h-264l-1 34q-13 151 -147 157q-101 5 -167.5 -74t-87.5 -243q-12 -110 -9 -161q5 -176 146 -179q78 -2 131 42.5t68 118.5l266 2q-11 -151 -117.5 -254.5t-273.5 -131.5 l-49 -234h-196l50 236q-164 38 -243 182t-58 350z"
        horiz-adv-x="1153" unicode="&#xa2;"/>
      <glyph
        d="M-6 0l43 240l75 -2q48 19 75 59.5t41 123.5l21 155h-158l41 236h150l27 221q26 208 162 327t336 115q191 -4 296.5 -116t101.5 -302l-280 1q5 174 -136 177q-70 2 -120.5 -51t-65.5 -144l-27 -228h300l-41 -236h-291l-17 -147q-16 -109 -101 -192l640 4l-43 -241h-1029z "
        horiz-adv-x="1190" unicode="&#xa3;"/>
      <glyph
        d="M-3 132l154 125q-57 185 -37 345q26 215 171 375l-115 157l148 130l109 -143q177 116 354 112q185 -2 321 -116l170 148l123 -159l-169 -139q62 -186 42 -352q-24 -203 -157 -360l111 -151l-149 -131l-101 132q-182 -129 -369 -125q-200 4 -331 126l-153 -132zM295 599 q-15 -110 19 -209.5t110 -158.5t181 -63q114 -4 219 56t175.5 166t88.5 227q15 110 -19 209t-110 157t-180 62q-115 4 -221.5 -56.5t-175.5 -164.5t-87 -225z"
        horiz-adv-x="1385" unicode="&#xa4;"/>
      <glyph
        d="M29 278l31 174h296l21 115h-297l30 175h244l-189 714h293l120 -562l314 562h320l-439 -712l208 -3l-33 -174h-278l-20 -115h280l-31 -174h-279l-49 -278h-293l49 278h-298z"
        horiz-adv-x="1075" unicode="&#xa5;"/>
      <glyph d="M-28 -270l139 795h254l-138 -795h-255zM140 698l132 758h254l-132 -758h-254z" horiz-adv-x="511"
             unicode="&#xa6;"/>
      <glyph
        d="M-24 -34h281q-4 -91 51 -137t160 -46q109 0 175 38t80 106q20 98 -136 155l-97 31q-228 70 -322 167.5t-85 245.5q10 177 205 286q-96 113 -86 275q12 166 143 269t341 118l67 2q218 -4 339.5 -116.5t117.5 -311.5h-280q3 91 -46 141.5t-141 52.5q-103 3 -172.5 -38.5 t-84.5 -113.5q-22 -117 153 -165.5t267.5 -95t143.5 -104.5q85 -96 76 -236q-7 -102 -62.5 -170t-142.5 -114q95 -111 84 -275q-8 -117 -75.5 -203t-191.5 -134t-280 -45q-230 2 -358 112t-124 306zM372 555q-24 -121 144 -176l79 -25l130 -43q95 56 115 149 q21 110 -140 170l-221 75q-90 -55 -107 -150z"
        horiz-adv-x="1258" unicode="&#xa7;"/>
      <glyph
        d="M211 1362q-2 52 36 90.5t95 40.5t98 -35.5t41 -89.5q2 -53 -36.5 -90.5t-95.5 -39.5q-53 -2 -94.5 33.5t-43.5 90.5zM684 1362q-2 52 36 90.5t95 40.5q56 2 96.5 -34.5t42.5 -90.5q0 -55 -37.5 -92t-93.5 -39q-55 -2 -97 34t-42 91z"
        horiz-adv-x="937" unicode="&#xa8;"/>
      <glyph
        d="M114 722q17 152 86 292.5t180.5 247.5t245 162t276.5 52q183 -4 325 -102.5t214.5 -272t51.5 -366.5q-21 -189 -120.5 -356t-254.5 -272q-194 -131 -413 -127q-185 4 -326.5 103.5t-213.5 273.5t-51 365zM235 722q-22 -159 29.5 -302.5t165 -228.5t262.5 -87 q161 -4 306.5 78.5t246.5 230.5t126 323q22 159 -29.5 301.5t-163.5 226t-264 87.5q-162 4 -311.5 -81t-247.5 -234.5t-120 -313.5zM444 669l11 110q19 184 122.5 291.5t258.5 105.5q145 -4 225 -87t78 -230l-152 2q13 177 -146 181q-93 2 -155.5 -69.5t-77 -196t-15 -145 t1.5 -47.5q3 -73 40 -118.5t102 -48.5q169 -7 200 179l152 1q-10 -150 -101 -234.5t-244 -80.5q-148 4 -230.5 113.5t-69.5 273.5z"
        horiz-adv-x="1568" unicode="&#xa9;"/>
      <glyph
        d="M187 911q2 115 94.5 177.5t260.5 62.5l106 -2l12 55l4 46q-3 75 -81 78q-120 4 -147 -99l-173 13q7 110 94.5 173.5t219.5 61.5q121 -2 193 -77t62 -200l-53 -347l-4 -59q-1 -44 8 -92h-164l-3 72q-89 -83 -201 -83q-105 0 -166.5 60t-61.5 160zM362 915q-7 -38 15.5 -60 t70.5 -22q69 0 161 63l28 137h-80q-84 -3 -135 -34.5t-60 -83.5z"
        horiz-adv-x="892" unicode="&#xaa;"/>
      <glyph
        d="M60 513l1 21l330 390h203l-316 -416l162 -382l-167 -1zM433 513l1 21l330 390h203l-316 -416l162 -382l-167 -1z"
        horiz-adv-x="1002" unicode="&#xab;"/>
      <glyph d="M127 634l30 171h812l-75 -431h-196l46 260h-617z" horiz-adv-x="1105" unicode="&#xac;"/>
      <glyph d="M90 507l40 233h549l-41 -233h-548z" horiz-adv-x="780" unicode="&#xad;"/>
      <glyph
        d="M114 722q17 152 86 292.5t180.5 247.5t245 162t276.5 52q183 -4 325 -102.5t214.5 -272t51.5 -366.5q-21 -189 -120.5 -356t-254.5 -272q-194 -131 -413 -127q-185 4 -326.5 103.5t-213.5 273.5t-51 365zM235 722q-22 -160 30 -304t164 -227t263 -87q157 -4 304.5 78 t248.5 230.5t126 323.5q22 159 -29.5 301.5t-163.5 226t-264 87.5q-162 4 -311.5 -81t-247.5 -234.5t-120 -313.5zM452 316l133 850l256 -1q142 -5 218.5 -73t71.5 -182q-3 -58 -36 -103t-101 -84q68 -49 74 -149q1 -29 -5.5 -89.5t-4.5 -88.5l4 -63l-1 -19l-148 1 q-6 37 -4 73q1 43 12 128q7 63 -14 97t-87 38l-167 2l-53 -337h-148zM674 787l116 -1q82 3 134 35.5t63 87.5q11 58 -17 89t-117 34l-141 1z"
        horiz-adv-x="1568" unicode="&#xae;"/>
      <glyph d="M269 1287l27 167h671l-27 -167h-671z" horiz-adv-x="1005" unicode="&#xaf;"/>
      <glyph
        d="M228 1191q2 117 86.5 202.5t195.5 83.5q104 -2 173.5 -82t67.5 -186q-2 -116 -84.5 -200t-193.5 -82q-105 2 -176 79.5t-69 184.5zM371 1193q-6 -45 20 -81t74 -36q51 0 93 37t51 94q6 49 -19 85.5t-72 36.5q-51 0 -94.5 -40t-52.5 -96z"
        horiz-adv-x="781" unicode="&#xb0;"/>
      <glyph
        d="M15 1l37 235h840l-37 -235h-840zM101 701l38 241h325l54 343h247l-54 -343h319l-38 -241h-318l-57 -364h-248l57 364h-325z"
        horiz-adv-x="1077" unicode="&#xb1;"/>
      <glyph
        d="M81 667l26 150l335 270q95 79 107 141q8 36 -10 57t-54 21q-97 0 -121 -112l-204 -2q8 126 96.5 202.5t216.5 74.5q131 -2 207.5 -66.5t74.5 -175.5q-5 -138 -169 -255l-78 -55l-130 -84l336 -2l-30 -164h-603z"
        horiz-adv-x="750" unicode="&#xb2;"/>
      <glyph
        d="M96 905l195 -1q7 -82 102 -82q52 0 89 25t46 68q16 80 -94 85h-94l10 137h81q54 2 90.5 26.5t45.5 68.5q5 34 -18 52.5t-59 18.5q-80 0 -108 -60l-208 -1q7 106 89.5 167t212.5 59q136 -3 214.5 -61.5t75.5 -157.5q-3 -118 -158 -183q58 -20 87 -65.5t28 -105.5 q-2 -111 -97.5 -176.5t-239.5 -62.5q-129 2 -208.5 69t-81.5 180z"
        horiz-adv-x="750" unicode="&#xb3;"/>
      <glyph d="M186 1226l240 310h327l-318 -310h-249z" horiz-adv-x="669" unicode="&#xb4;"/>
      <glyph
        d="M-42 -416l260 1498h282l-103 -622l-6 -83q-7 -160 125 -163q133 -4 221 104l135 764h282l-188 -1082h-248l8 69q-106 -93 -230 -91q-93 0 -169 48l-87 -442h-282z"
        horiz-adv-x="1233" unicode="&#xb5;"/>
      <glyph d="M149 980q19 214 168 345.5t372 131.5l313 -1l-253 -1456h-214l90 520l-52 1q-211 3 -326.5 130t-97.5 329z"
             horiz-adv-x="983" unicode="&#xb6;"/>
      <glyph
        d="M154 692q-2 67 43 113t113 48q65 2 112.5 -41t49.5 -110q2 -65 -43.5 -112.5t-114.5 -47.5q-64 -2 -111 39.5t-49 110.5z"
        horiz-adv-x="608" unicode="&#xb7;"/>
      <glyph
        d="M-45 -465l8 170q111 5 128 88q12 61 -86 68l-35 3l43 142l209 3l-20 -64q62 -13 93.5 -56.5t31.5 -105.5q0 -115 -96 -179t-276 -69z"
        horiz-adv-x="542" unicode="&#xb8;"/>
      <glyph d="M228 1170l30 168l369 115l25 1l-128 -787h-200l95 543z" horiz-adv-x="750" unicode="&#xb9;"/>
      <glyph
        d="M200 1044l5 63q13 167 117.5 270.5t258.5 99.5q148 -4 229 -105.5t71 -250.5l-6 -66q-16 -171 -120.5 -270.5t-253.5 -95.5q-144 4 -228 103.5t-73 251.5zM372 969q5 -61 38.5 -97.5t89.5 -37.5q76 -3 131 53.5t70 156.5l11 101l-1 49q-15 132 -128 135q-77 3 -132 -52.5 t-70 -155.5l-9 -80q-3 -36 0 -72z"
        horiz-adv-x="918" unicode="&#xba;"/>
      <glyph
        d="M-10 124l315 415l-161 383l167 1l213 -387l-1 -22l-330 -390h-203zM371 124l315 415l-161 383l167 1l213 -387l-1 -22l-330 -390h-203z"
        horiz-adv-x="1002" unicode="&#xbb;"/>
      <glyph
        d="M194 1167l30 168l369 115l25 1l-128 -787h-200l95 543zM235 204l878 1124l137 -83l-876 -1126zM652 159l14 150l419 479l203 2l-80 -466l96 1l-31 -166h-85l-29 -159h-200l28 159h-335zM866 328l152 -3l44 216l-18 -25z"
        horiz-adv-x="1436" unicode="&#xbc;"/>
      <glyph
        d="M178 1173l30 168l369 115l25 1l-128 -787h-200l95 543zM194 204l878 1124l137 -83l-876 -1126zM726 0l26 150l335 270q95 79 107 141q8 36 -10 57t-54 21q-97 0 -121 -112l-204 -2q8 126 96.5 202.5t216.5 74.5q131 -2 207.5 -66.5t74.5 -175.5q-5 -138 -169 -255 l-78 -55l-130 -84l336 -2l-30 -164h-603z"
        horiz-adv-x="1522" unicode="&#xbd;"/>
      <glyph
        d="M141 905l195 -1q7 -82 102 -82q52 0 89 25t46 68q16 80 -94 85h-94l10 137h81q54 2 90.5 26.5t45.5 68.5q5 34 -18 52.5t-59 18.5q-80 0 -108 -60l-208 -1q7 106 89.5 167t212.5 59q136 -3 214.5 -61.5t75.5 -157.5q-3 -118 -158 -183q58 -20 87 -65.5t28 -105.5 q-2 -111 -97.5 -176.5t-239.5 -62.5q-129 2 -208.5 69t-81.5 180zM391 204l878 1124l137 -83l-876 -1126zM806 159l14 150l419 479l203 2l-80 -466l96 1l-31 -166h-85l-29 -159h-200l28 159h-335zM1020 328l152 -3l44 216l-18 -25z"
        horiz-adv-x="1615" unicode="&#xbe;"/>
      <glyph
        d="M-31 -2q11 161 179 311l145 121q86 79 109 213l246 1q-8 -122 -50 -211t-128 -162l-68 -57q-127 -106 -144 -216q-9 -64 17 -106t95 -44q71 -2 120.5 42t68.5 131l282 2q-13 -191 -145.5 -301.5t-335.5 -106.5q-186 2 -294 104t-97 279zM432 944q-2 69 44 114t111 45 q64 2 111 -39.5t49 -109.5q2 -69 -44 -114t-111 -45q-64 -2 -111 39.5t-49 109.5z"
        horiz-adv-x="998" unicode="&#xbf;"/>
      <glyph
        d="M-104 0l778 1456h271l277 -1456h-299l-46 300h-508l-150 -300h-323zM489 543h351l-82 542zM532 1844l291 2l143 -310l-211 1z"
        horiz-adv-x="1347" unicode="&#xc0;"/>
      <glyph
        d="M-104 0l778 1456h271l277 -1456h-299l-46 300h-508l-150 -300h-323zM489 543h351l-82 542zM690 1536l240 310h327l-318 -310h-249z"
        horiz-adv-x="1347" unicode="&#xc1;"/>
      <glyph
        d="M-104 0l778 1456h271l277 -1456h-299l-46 300h-508l-150 -300h-323zM471 1551v23l321 272l161 1l261 -277v-21l-216 5l-123 144l-175 -143zM489 543h351l-82 542z"
        horiz-adv-x="1347" unicode="&#xc2;"/>
      <glyph
        d="M-104 0l778 1456h271l277 -1456h-299l-46 300h-508l-150 -300h-323zM477 1566q7 116 73.5 194t162.5 76q26 0 49.5 -7.5t79 -37.5t80 -38t52.5 -7q77 3 101 98l161 -10q-7 -118 -70.5 -194.5t-160.5 -76.5q-28 0 -53.5 8.5t-76.5 37t-76.5 37.5t-54.5 8q-76 -3 -101 -98z M489 543h351l-82 542z"
        horiz-adv-x="1347" unicode="&#xc3;"/>
      <glyph
        d="M-104 0l778 1456h271l277 -1456h-299l-46 300h-508l-150 -300h-323zM486 1672q-2 52 36 90.5t95 40.5t98 -35.5t41 -89.5q2 -53 -36.5 -90.5t-95.5 -39.5q-53 -2 -94.5 33.5t-43.5 90.5zM489 543h351l-82 542zM959 1672q-2 52 36 90.5t95 40.5q56 2 96.5 -34.5 t42.5 -90.5q0 -55 -37.5 -92t-93.5 -39q-55 -2 -97 34t-42 91z"
        horiz-adv-x="1347" unicode="&#xc4;"/>
      <glyph
        d="M-104 0l778 1456h271l277 -1456h-299l-46 300h-508l-150 -300h-323zM489 543h351l-82 542zM651 1723q0 90 66 151.5t157 61.5q87 0 148.5 -58.5t61.5 -140.5q2 -86 -63.5 -147.5t-159.5 -61.5q-86 0 -147 56t-63 139zM764 1723q-7 -40 15 -70t65 -30q47 0 83 32.5 t45 81.5q6 43 -17 72.5t-63 29.5q-47 0 -84.5 -34t-43.5 -82z"
        horiz-adv-x="1347" unicode="&#xc5;"/>
      <glyph
        d="M-111 0l1015 1456h996l-42 -236h-580l-47 -355h488l-42 -236h-477l-53 -394h600l-41 -235h-871l44 333h-423l-220 -333h-347zM615 582l298 -2l73 552z"
        horiz-adv-x="1877" unicode="&#xc6;"/>
      <glyph
        d="M94 508q-7 123 25.5 306t116 325t198.5 225q162 116 370 112q226 -4 358.5 -139.5t145.5 -376.5l-292 1q0 138 -55 202t-171 68q-150 5 -246.5 -107t-129.5 -327q-32 -209 -28 -313q5 -132 59 -194.5t151 -65.5q134 -5 214.5 63.5t106.5 196.5l291 2 q-17 -151 -103 -267.5t-224 -179t-298 -59.5q-144 3 -251 66.5t-168.5 184t-69.5 277.5zM393 -466l8 170q111 5 128 88q12 61 -86 68l-35 3l43 142l209 3l-20 -64q62 -13 93.5 -56.5t31.5 -105.5q0 -115 -96 -179t-276 -69z"
        horiz-adv-x="1310" unicode="&#xc7;"/>
      <glyph
        d="M21 0l253 1456h947l-43 -243h-653l-61 -347h560l-42 -235h-558l-68 -390h656l-42 -241h-949zM477 1847l291 2l143 -310l-211 1z"
        horiz-adv-x="1127" unicode="&#xc8;"/>
      <glyph
        d="M21 0l253 1456h947l-43 -243h-653l-61 -347h560l-42 -235h-558l-68 -390h656l-42 -241h-949zM635 1539l240 310h327l-318 -310h-249z"
        horiz-adv-x="1127" unicode="&#xc9;"/>
      <glyph
        d="M21 0l253 1456h947l-43 -243h-653l-61 -347h560l-42 -235h-558l-68 -390h656l-42 -241h-949zM416 1554v23l321 272l161 1l261 -277v-21l-216 5l-123 144l-175 -143z"
        horiz-adv-x="1127" unicode="&#xca;"/>
      <glyph
        d="M21 0l253 1456h947l-43 -243h-653l-61 -347h560l-42 -235h-558l-68 -390h656l-42 -241h-949zM431 1675q-2 52 36 90.5t95 40.5t98 -35.5t41 -89.5q2 -53 -36.5 -90.5t-95.5 -39.5q-53 -2 -94.5 33.5t-43.5 90.5zM904 1675q-2 52 36 90.5t95 40.5q56 2 96.5 -34.5 t42.5 -90.5q0 -55 -37.5 -92t-93.5 -39q-55 -2 -97 34t-42 91z"
        horiz-adv-x="1127" unicode="&#xcb;"/>
      <glyph d="M40 0l252 1456h293l-252 -1456h-293zM151 1847l291 2l143 -310l-211 1z" horiz-adv-x="589"
             unicode="&#xcc;"/>
      <glyph d="M40 0l252 1456h293l-252 -1456h-293zM308 1539l240 310h327l-318 -310h-249z" horiz-adv-x="589"
             unicode="&#xcd;"/>
      <glyph d="M40 0l252 1456h293l-252 -1456h-293zM90 1554v23l321 272l161 1l261 -277v-21l-216 5l-123 144l-175 -143z"
             horiz-adv-x="589" unicode="&#xce;"/>
      <glyph
        d="M40 0l252 1456h293l-252 -1456h-293zM105 1675q-2 52 36 90.5t95 40.5t98 -35.5t41 -89.5q2 -53 -36.5 -90.5t-95.5 -39.5q-53 -2 -94.5 33.5t-43.5 90.5zM578 1675q-2 52 36 90.5t95 40.5q56 2 96.5 -34.5t42.5 -90.5q0 -55 -37.5 -92t-93.5 -39q-55 -2 -97 34t-42 91z "
        horiz-adv-x="589" unicode="&#xcf;"/>
      <glyph
        d="M-13 642l33 183h174l110 631l416 -1q147 -2 265.5 -66t191.5 -183t88 -268q8 -87 -2 -178l-7 -53q-44 -320 -251.5 -513.5t-503.5 -193.5h-450l111 642h-175zM386 241l122 -1q202 0 324.5 148t140.5 447l2 32q3 165 -63 253t-197 92l-160 1l-68 -388h213l-33 -183h-212z "
        horiz-adv-x="1331" unicode="&#xd0;"/>
      <glyph
        d="M21 0l253 1456h283l406 -973l169 973h292l-252 -1456h-284l-405 971l-169 -971h-293zM510 1566q7 116 73.5 194t162.5 76q26 0 49.5 -7.5t79 -37.5t80 -38t52.5 -7q77 3 101 98l161 -10q-7 -118 -70.5 -194.5t-160.5 -76.5q-28 0 -53.5 8.5t-76.5 37t-76.5 37.5t-54.5 8 q-76 -3 -101 -98z"
        horiz-adv-x="1413" unicode="&#xd1;"/>
      <glyph
        d="M101 521q-11 164 35 350t148 327t239.5 211t297.5 67q147 -3 257 -69.5t173 -191t72 -282.5q10 -176 -38 -362t-149 -322t-236.5 -204t-293.5 -65q-145 3 -255.5 68.5t-175 189t-74.5 283.5zM395 597q-10 -177 47 -272.5t177 -99.5q157 -7 260 122.5t135 366.5l7 54l8 95 q10 178 -47.5 270t-174.5 96q-183 6 -290.5 -162t-121.5 -470zM546 1844l291 2l143 -310l-211 1z"
        horiz-adv-x="1382" unicode="&#xd2;"/>
      <glyph
        d="M101 521q-11 164 35 350t148 327t239.5 211t297.5 67q147 -3 257 -69.5t173 -191t72 -282.5q10 -176 -38 -362t-149 -322t-236.5 -204t-293.5 -65q-145 3 -255.5 68.5t-175 189t-74.5 283.5zM395 597q-10 -177 47 -272.5t177 -99.5q157 -7 260 122.5t135 366.5l7 54l8 95 q10 178 -47.5 270t-174.5 96q-183 6 -290.5 -162t-121.5 -470zM704 1536l240 310h327l-318 -310h-249z"
        horiz-adv-x="1382" unicode="&#xd3;"/>
      <glyph
        d="M101 521q-11 164 35 350t148 327t239.5 211t297.5 67q147 -3 257 -69.5t173 -191t72 -282.5q10 -176 -38 -362t-149 -322t-236.5 -204t-293.5 -65q-145 3 -255.5 68.5t-175 189t-74.5 283.5zM395 597q-10 -177 47 -272.5t177 -99.5q157 -7 260 122.5t135 366.5l7 54l8 95 q10 178 -47.5 270t-174.5 96q-183 6 -290.5 -162t-121.5 -470zM485 1551v23l321 272l161 1l261 -277v-21l-216 5l-123 144l-175 -143z"
        horiz-adv-x="1382" unicode="&#xd4;"/>
      <glyph
        d="M101 521q-11 164 35 350t148 327t239.5 211t297.5 67q147 -3 257 -69.5t173 -191t72 -282.5q10 -176 -38 -362t-149 -322t-236.5 -204t-293.5 -65q-145 3 -255.5 68.5t-175 189t-74.5 283.5zM395 597q-10 -177 47 -272.5t177 -99.5q157 -7 260 122.5t135 366.5l7 54l8 95 q10 178 -47.5 270t-174.5 96q-183 6 -290.5 -162t-121.5 -470zM491 1566q7 116 73.5 194t162.5 76q26 0 49.5 -7.5t79 -37.5t80 -38t52.5 -7q77 3 101 98l161 -10q-7 -118 -70.5 -194.5t-160.5 -76.5q-28 0 -53.5 8.5t-76.5 37t-76.5 37.5t-54.5 8q-76 -3 -101 -98z"
        horiz-adv-x="1382" unicode="&#xd5;"/>
      <glyph
        d="M101 521q-11 164 35 350t148 327t239.5 211t297.5 67q147 -3 257 -69.5t173 -191t72 -282.5q10 -176 -38 -362t-149 -322t-236.5 -204t-293.5 -65q-145 3 -255.5 68.5t-175 189t-74.5 283.5zM395 597q-10 -177 47 -272.5t177 -99.5q157 -7 260 122.5t135 366.5l7 54l8 95 q10 178 -47.5 270t-174.5 96q-183 6 -290.5 -162t-121.5 -470zM500 1672q-2 52 36 90.5t95 40.5t98 -35.5t41 -89.5q2 -53 -36.5 -90.5t-95.5 -39.5q-53 -2 -94.5 33.5t-43.5 90.5zM973 1672q-2 52 36 90.5t95 40.5q56 2 96.5 -34.5t42.5 -90.5q0 -55 -37.5 -92t-93.5 -39 q-55 -2 -97 34t-42 91z"
        horiz-adv-x="1382" unicode="&#xd6;"/>
      <glyph
        d="M25 386l353 313l-244 313l180 155l242 -310l348 311l148 -182l-353 -314l244 -312l-179 -156l-243 310l-348 -309z"
        horiz-adv-x="1065" unicode="&#xd7;"/>
      <glyph
        d="M12 -94l194 244q-138 232 -99 545l8 58q30 214 129.5 382t249 256t330.5 86q169 -4 294 -84l99 125l202 -1l-183 -229q120 -232 84 -529l-5 -40q-42 -333 -234.5 -538t-474.5 -202q-155 2 -279 72l-112 -146zM387 552q-5 -72 3 -144l575 764q-51 54 -152 59 q-158 5 -262.5 -122t-139.5 -360q-19 -128 -24 -197zM479 268q51 -40 139 -45q147 -5 249 108t143 329.5t34 359.5z"
        horiz-adv-x="1379" unicode="&#xd8;"/>
      <glyph
        d="M101 495l163 961h293l-163 -962q-7 -56 -1 -105q20 -162 193 -168q124 -4 203 68t102 206l164 961h294l-164 -960q-34 -241 -200 -381t-412 -136q-154 3 -267.5 67.5t-167.5 182t-37 266.5zM511 1844l291 2l143 -310l-211 1z"
        horiz-adv-x="1318" unicode="&#xd9;"/>
      <glyph
        d="M101 495l163 961h293l-163 -962q-7 -56 -1 -105q20 -162 193 -168q124 -4 203 68t102 206l164 961h294l-164 -960q-34 -241 -200 -381t-412 -136q-154 3 -267.5 67.5t-167.5 182t-37 266.5zM669 1536l240 310h327l-318 -310h-249z"
        horiz-adv-x="1318" unicode="&#xda;"/>
      <glyph
        d="M101 495l163 961h293l-163 -962q-7 -56 -1 -105q20 -162 193 -168q124 -4 203 68t102 206l164 961h294l-164 -960q-34 -241 -200 -381t-412 -136q-154 3 -267.5 67.5t-167.5 182t-37 266.5zM450 1551v23l321 272l161 1l261 -277v-21l-216 5l-123 144l-175 -143z"
        horiz-adv-x="1318" unicode="&#xdb;"/>
      <glyph
        d="M101 495l163 961h293l-163 -962q-7 -56 -1 -105q20 -162 193 -168q124 -4 203 68t102 206l164 961h294l-164 -960q-34 -241 -200 -381t-412 -136q-154 3 -267.5 67.5t-167.5 182t-37 266.5zM465 1672q-2 52 36 90.5t95 40.5t98 -35.5t41 -89.5q2 -53 -36.5 -90.5 t-95.5 -39.5q-53 -2 -94.5 33.5t-43.5 90.5zM938 1672q-2 52 36 90.5t95 40.5q56 2 96.5 -34.5t42.5 -90.5q0 -55 -37.5 -92t-93.5 -39q-55 -2 -97 34t-42 91z"
        horiz-adv-x="1318" unicode="&#xdc;"/>
      <glyph
        d="M154 1455l309 1l177 -654l407 654h336l-636 -944l-88 -512h-298l95 545zM635 1536l240 310h327l-318 -310h-249z"
        horiz-adv-x="1238" unicode="&#xdd;"/>
      <glyph
        d="M24 0l253 1456h282l-47 -267l177 -1q234 -1 365 -122t116 -320q-11 -141 -88 -245t-206 -159.5t-286 -55.5l-233 1l-51 -287h-282zM397 520l198 -1q113 0 194.5 59.5t98.5 165.5q14 95 -36 151t-147 60l-232 1z"
        horiz-adv-x="1219" unicode="&#xde;"/>
      <glyph
        d="M26 0l188 1101q29 218 168 341t352 117q174 -4 275 -104.5t90 -257.5q-3 -46 -19 -86.5t-61 -115.5t-58 -106t-20 -68q-8 -46 12.5 -94.5t80.5 -123t86.5 -131t24.5 -109.5q-9 -179 -139.5 -282.5t-335.5 -101.5q-166 2 -279 59l76 227q89 -55 205 -53q72 0 127 38 t68 107q8 48 -13.5 96t-87.5 123.5t-92 135.5q-20 46 -17 96q3 45 19 84.5t58.5 110t57.5 106.5t20 75q8 62 -22.5 103t-93.5 44q-82 3 -133 -56t-68 -177l-187 -1098h-282z"
        horiz-adv-x="1263" unicode="&#xdf;"/>
      <glyph
        d="M19 296q7 177 148.5 271.5t379.5 94.5l132 -2l14 65q6 33 3 63q-5 47 -35.5 73.5t-80.5 27.5q-66 2 -112 -32.5t-59 -99.5l-283 -1q7 155 142.5 251.5t334.5 94.5q184 -4 288 -109.5t87 -271.5l-83 -518l-5 -64q-2 -71 17 -120l-1 -19h-277q-13 41 -11 98 q-122 -122 -276 -118q-142 2 -235.5 92.5t-87.5 223.5zM306 317q-8 -54 22.5 -85.5t83.5 -32.5q122 -4 213 106l35 187l-98 1q-156 -4 -225 -95q-25 -33 -31 -81zM342 1534l291 2l143 -310l-211 1z"
        horiz-adv-x="1075" unicode="&#xe0;"/>
      <glyph
        d="M19 296q7 177 148.5 271.5t379.5 94.5l132 -2l14 65q6 33 3 63q-5 47 -35.5 73.5t-80.5 27.5q-66 2 -112 -32.5t-59 -99.5l-283 -1q7 155 142.5 251.5t334.5 94.5q184 -4 288 -109.5t87 -271.5l-83 -518l-5 -64q-2 -71 17 -120l-1 -19h-277q-13 41 -11 98 q-122 -122 -276 -118q-142 2 -235.5 92.5t-87.5 223.5zM306 317q-8 -54 22.5 -85.5t83.5 -32.5q122 -4 213 106l35 187l-98 1q-156 -4 -225 -95q-25 -33 -31 -81zM500 1226l240 310h327l-318 -310h-249z"
        horiz-adv-x="1075" unicode="&#xe1;"/>
      <glyph
        d="M19 296q7 177 148.5 271.5t379.5 94.5l132 -2l14 65q6 33 3 63q-5 47 -35.5 73.5t-80.5 27.5q-66 2 -112 -32.5t-59 -99.5l-283 -1q7 155 142.5 251.5t334.5 94.5q184 -4 288 -109.5t87 -271.5l-83 -518l-5 -64q-2 -71 17 -120l-1 -19h-277q-13 41 -11 98 q-122 -122 -276 -118q-142 2 -235.5 92.5t-87.5 223.5zM281 1241v23l321 272l161 1l261 -277v-21l-216 5l-123 144l-175 -143zM306 317q-8 -54 22.5 -85.5t83.5 -32.5q122 -4 213 106l35 187l-98 1q-156 -4 -225 -95q-25 -33 -31 -81z"
        horiz-adv-x="1075" unicode="&#xe2;"/>
      <glyph
        d="M19 296q7 177 148.5 271.5t379.5 94.5l132 -2l14 65q6 33 3 63q-5 47 -35.5 73.5t-80.5 27.5q-66 2 -112 -32.5t-59 -99.5l-283 -1q7 155 142.5 251.5t334.5 94.5q184 -4 288 -109.5t87 -271.5l-83 -518l-5 -64q-2 -71 17 -120l-1 -19h-277q-13 41 -11 98 q-122 -122 -276 -118q-142 2 -235.5 92.5t-87.5 223.5zM287 1257q7 116 73.5 194t162.5 76q26 0 49.5 -7.5t79 -37.5t80 -38t52.5 -7q77 3 101 98l161 -10q-7 -118 -70.5 -194.5t-160.5 -76.5q-28 0 -53.5 8.5t-76.5 37t-76.5 37.5t-54.5 8q-76 -3 -101 -98zM306 317 q-8 -54 22.5 -85.5t83.5 -32.5q122 -4 213 106l35 187l-98 1q-156 -4 -225 -95q-25 -33 -31 -81z"
        horiz-adv-x="1075" unicode="&#xe3;"/>
      <glyph
        d="M19 296q7 177 148.5 271.5t379.5 94.5l132 -2l14 65q6 33 3 63q-5 47 -35.5 73.5t-80.5 27.5q-66 2 -112 -32.5t-59 -99.5l-283 -1q7 155 142.5 251.5t334.5 94.5q184 -4 288 -109.5t87 -271.5l-83 -518l-5 -64q-2 -71 17 -120l-1 -19h-277q-13 41 -11 98 q-122 -122 -276 -118q-142 2 -235.5 92.5t-87.5 223.5zM296 1362q-2 52 36 90.5t95 40.5t98 -35.5t41 -89.5q2 -53 -36.5 -90.5t-95.5 -39.5q-53 -2 -94.5 33.5t-43.5 90.5zM306 317q-8 -54 22.5 -85.5t83.5 -32.5q122 -4 213 106l35 187l-98 1q-156 -4 -225 -95 q-25 -33 -31 -81zM769 1362q-2 52 36 90.5t95 40.5q56 2 96.5 -34.5t42.5 -90.5q0 -55 -37.5 -92t-93.5 -39q-55 -2 -97 34t-42 91z"
        horiz-adv-x="1075" unicode="&#xe4;"/>
      <glyph
        d="M19 296q7 177 148.5 271.5t379.5 94.5l132 -2l14 65q6 33 3 63q-5 47 -35.5 73.5t-80.5 27.5q-66 2 -112 -32.5t-59 -99.5l-283 -1q7 155 142.5 251.5t334.5 94.5q184 -4 288 -109.5t87 -271.5l-83 -518l-5 -64q-2 -71 17 -120l-1 -19h-277q-13 41 -11 98 q-122 -122 -276 -118q-142 2 -235.5 92.5t-87.5 223.5zM306 317q-8 -54 22.5 -85.5t83.5 -32.5q122 -4 213 106l35 187l-98 1q-156 -4 -225 -95q-25 -33 -31 -81zM461 1413q0 90 66 151.5t157 61.5q87 0 148.5 -58.5t61.5 -140.5q2 -86 -63.5 -147.5t-159.5 -61.5 q-86 0 -147 56t-63 139zM574 1413q-7 -40 15 -70t65 -30q47 0 83 32.5t45 81.5q6 43 -17 72.5t-63 29.5q-47 0 -84.5 -34t-43.5 -82z"
        horiz-adv-x="1075" unicode="&#xe5;"/>
      <glyph
        d="M15 311q7 164 144.5 251.5t377.5 87.5l167 -2l13 60q5 33 2 62q-14 96 -115 99q-70 2 -123 -30.5t-66 -93.5l-281 18q8 160 148 252t338 88q204 -5 302 -110q151 112 331 108q192 -4 295.5 -139.5t79.5 -349.5l-25 -162h-642q-10 -108 42 -171t156 -65q81 -2 154 20 t145 56l61 -193q-135 -117 -396 -117q-243 5 -352 146q-170 -150 -404 -146q-106 1 -189.5 42.5t-125.5 115t-37 173.5zM299 307q-10 -53 25 -84.5t102 -31.5q96 0 216 80l38 190l-139 1q-99 -3 -165 -45t-77 -110zM981 643h369l7 31q6 36 4 71q-7 118 -124 124 q-171 6 -256 -226z"
        horiz-adv-x="1687" unicode="&#xe6;"/>
      <glyph
        d="M47 469l3 55l1 11q27 264 178 418.5t373 148.5q183 -4 290.5 -119.5t105.5 -304.5h-263q0 87 -38 137t-114 54q-202 6 -245 -295q-15 -109 -11 -184q10 -175 150 -178q78 -2 130 42.5t68 118.5l265 1q-7 -114 -71.5 -205t-172 -142t-226.5 -48q-197 3 -312 136t-111 354z M277 -466l8 170q111 5 128 88q12 61 -86 68l-35 3l43 142l209 3l-20 -64q62 -13 93.5 -56.5t31.5 -105.5q0 -115 -96 -179t-276 -69z"
        horiz-adv-x="1046" unicode="&#xe7;"/>
      <glyph
        d="M60 501l3 40q15 158 92 290t198 203.5t268 67.5q209 -4 316.5 -153.5t81.5 -378.5l-16 -123h-663q-4 -105 51 -168t150 -65q154 -4 270 119l129 -160q-61 -92 -176 -143.5t-247 -49.5q-142 1 -251.5 69.5t-163.5 188t-42 263.5zM323 1534l291 2l143 -310l-211 1zM360 643 h388l6 26q6 40 1 76q-10 58 -49 90.5t-99 33.5q-78 2 -138.5 -49t-108.5 -177z"
        horiz-adv-x="1084" unicode="&#xe8;"/>
      <glyph
        d="M60 501l3 40q15 158 92 290t198 203.5t268 67.5q209 -4 316.5 -153.5t81.5 -378.5l-16 -123h-663q-4 -105 51 -168t150 -65q154 -4 270 119l129 -160q-61 -92 -176 -143.5t-247 -49.5q-142 1 -251.5 69.5t-163.5 188t-42 263.5zM360 643h388l6 26q6 40 1 76 q-10 58 -49 90.5t-99 33.5q-78 2 -138.5 -49t-108.5 -177zM481 1226l240 310h327l-318 -310h-249z"
        horiz-adv-x="1084" unicode="&#xe9;"/>
      <glyph
        d="M60 501l3 40q15 158 92 290t198 203.5t268 67.5q209 -4 316.5 -153.5t81.5 -378.5l-16 -123h-663q-4 -105 51 -168t150 -65q154 -4 270 119l129 -160q-61 -92 -176 -143.5t-247 -49.5q-142 1 -251.5 69.5t-163.5 188t-42 263.5zM262 1241v23l321 272l161 1l261 -277v-21 l-216 5l-123 144l-175 -143zM360 643h388l6 26q6 40 1 76q-10 58 -49 90.5t-99 33.5q-78 2 -138.5 -49t-108.5 -177z"
        horiz-adv-x="1084" unicode="&#xea;"/>
      <glyph
        d="M60 501l3 40q15 158 92 290t198 203.5t268 67.5q209 -4 316.5 -153.5t81.5 -378.5l-16 -123h-663q-4 -105 51 -168t150 -65q154 -4 270 119l129 -160q-61 -92 -176 -143.5t-247 -49.5q-142 1 -251.5 69.5t-163.5 188t-42 263.5zM277 1362q-2 52 36 90.5t95 40.5t98 -35.5 t41 -89.5q2 -53 -36.5 -90.5t-95.5 -39.5q-53 -2 -94.5 33.5t-43.5 90.5zM360 643h388l6 26q6 40 1 76q-10 58 -49 90.5t-99 33.5q-78 2 -138.5 -49t-108.5 -177zM750 1362q-2 52 36 90.5t95 40.5q56 2 96.5 -34.5t42.5 -90.5q0 -55 -37.5 -92t-93.5 -39q-55 -2 -97 34 t-42 91z"
        horiz-adv-x="1084" unicode="&#xeb;"/>
      <glyph d="M25 0l188 1082h282l-188 -1082h-282zM77 1519l291 2l143 -310l-211 1z" horiz-adv-x="554" unicode="&#xec;"/>
      <glyph d="M25 0l188 1082h282l-188 -1082h-282zM234 1211l240 310h327l-318 -310h-249z" horiz-adv-x="554"
             unicode="&#xed;"/>
      <glyph d="M16 1226v23l321 272l161 1l261 -277v-21l-216 5l-123 144l-175 -143zM25 0l188 1082h282l-188 -1082h-282z"
             horiz-adv-x="554" unicode="&#xee;"/>
      <glyph
        d="M25 0l188 1082h282l-188 -1082h-282zM31 1347q-2 52 36 90.5t95 40.5t98 -35.5t41 -89.5q2 -53 -36.5 -90.5t-95.5 -39.5q-53 -2 -94.5 33.5t-43.5 90.5zM504 1347q-2 52 36 90.5t95 40.5q56 2 96.5 -34.5t42.5 -90.5q0 -55 -37.5 -92t-93.5 -39q-55 -2 -97 34t-42 91z "
        horiz-adv-x="554" unicode="&#xef;"/>
      <glyph
        d="M64 460q13 148 80 266t175.5 180.5t245.5 60.5q129 -4 237 -78q-6 140 -92 265l-211 -123l-62 128l161 89q-81 67 -235 109l108 222q223 -53 371 -180l192 112l60 -129l-146 -80q87 -155 121 -313t13 -336l-6 -52q-34 -281 -197.5 -454t-390.5 -168q-129 3 -230.5 65.5 t-153.5 174t-40 241.5zM346 460q-12 -109 31.5 -177.5t128.5 -71.5q101 -3 173.5 78.5t103.5 236.5l23 126l3 13q-27 41 -77 62t-111 21q-112 2 -186.5 -78.5t-88.5 -209.5z"
        horiz-adv-x="1153" unicode="&#xf0;"/>
      <glyph
        d="M-3 0l188 1082l264 1l-24 -128q130 151 315 147q153 -3 226 -112t53 -302l-114 -688h-282l116 691q5 39 2 71q-13 102 -128 105q-111 4 -199 -103l-135 -764h-282zM310 1257q7 116 73.5 194t162.5 76q26 0 49.5 -7.5t79 -37.5t80 -38t52.5 -7q77 3 101 98l161 -10 q-7 -118 -70.5 -194.5t-160.5 -76.5q-28 0 -53.5 8.5t-76.5 37t-76.5 37.5t-54.5 8q-76 -3 -101 -98z"
        horiz-adv-x="1123" unicode="&#xf1;"/>
      <glyph
        d="M58 524q26 268 182 426t382 152q143 -2 246.5 -73.5t152 -197t34.5 -278.5q-23 -258 -179.5 -417.5t-386.5 -155.5q-141 2 -244 72.5t-152 195.5t-35 276zM337 421q2 -96 45 -151.5t121 -57.5q130 -4 204 119.5t69 324.5q-4 96 -46.5 153.5t-121.5 59.5 q-126 4 -201.5 -118.5t-69.5 -329.5zM354 1534l291 2l143 -310l-211 1z"
        horiz-adv-x="1133" unicode="&#xf2;"/>
      <glyph
        d="M58 524q26 268 182 426t382 152q143 -2 246.5 -73.5t152 -197t34.5 -278.5q-23 -258 -179.5 -417.5t-386.5 -155.5q-141 2 -244 72.5t-152 195.5t-35 276zM337 421q2 -96 45 -151.5t121 -57.5q130 -4 204 119.5t69 324.5q-4 96 -46.5 153.5t-121.5 59.5 q-126 4 -201.5 -118.5t-69.5 -329.5zM512 1226l240 310h327l-318 -310h-249z"
        horiz-adv-x="1133" unicode="&#xf3;"/>
      <glyph
        d="M58 524q26 268 182 426t382 152q143 -2 246.5 -73.5t152 -197t34.5 -278.5q-23 -258 -179.5 -417.5t-386.5 -155.5q-141 2 -244 72.5t-152 195.5t-35 276zM293 1241v23l321 272l161 1l261 -277v-21l-216 5l-123 144l-175 -143zM337 421q2 -96 45 -151.5t121 -57.5 q130 -4 204 119.5t69 324.5q-4 96 -46.5 153.5t-121.5 59.5q-126 4 -201.5 -118.5t-69.5 -329.5z"
        horiz-adv-x="1133" unicode="&#xf4;"/>
      <glyph
        d="M58 524q26 268 182 426t382 152q143 -2 246.5 -73.5t152 -197t34.5 -278.5q-23 -258 -179.5 -417.5t-386.5 -155.5q-141 2 -244 72.5t-152 195.5t-35 276zM299 1257q7 116 73.5 194t162.5 76q26 0 49.5 -7.5t79 -37.5t80 -38t52.5 -7q77 3 101 98l161 -10 q-7 -118 -70.5 -194.5t-160.5 -76.5q-28 0 -53.5 8.5t-76.5 37t-76.5 37.5t-54.5 8q-76 -3 -101 -98zM337 421q2 -96 45 -151.5t121 -57.5q130 -4 204 119.5t69 324.5q-4 96 -46.5 153.5t-121.5 59.5q-126 4 -201.5 -118.5t-69.5 -329.5z"
        horiz-adv-x="1133" unicode="&#xf5;"/>
      <glyph
        d="M58 524q26 268 182 426t382 152q143 -2 246.5 -73.5t152 -197t34.5 -278.5q-23 -258 -179.5 -417.5t-386.5 -155.5q-141 2 -244 72.5t-152 195.5t-35 276zM308 1362q-2 52 36 90.5t95 40.5t98 -35.5t41 -89.5q2 -53 -36.5 -90.5t-95.5 -39.5q-53 -2 -94.5 33.5 t-43.5 90.5zM337 421q2 -96 45 -151.5t121 -57.5q130 -4 204 119.5t69 324.5q-4 96 -46.5 153.5t-121.5 59.5q-126 4 -201.5 -118.5t-69.5 -329.5zM781 1362q-2 52 36 90.5t95 40.5q56 2 96.5 -34.5t42.5 -90.5q0 -55 -37.5 -92t-93.5 -39q-55 -2 -97 34t-42 91z"
        horiz-adv-x="1133" unicode="&#xf6;"/>
      <glyph
        d="M55 571l40 230h1000l-41 -230h-999zM346 272q-2 66 43 112t114 46q67 2 113 -40t48 -108t-43.5 -111t-112.5 -45q-68 -2 -114 39.5t-48 106.5zM487 1084q-2 66 43 112t114 46q67 2 113 -40t48 -108t-43.5 -111t-112.5 -45q-68 -2 -114 39.5t-48 106.5z"
        horiz-adv-x="1143" unicode="&#xf7;"/>
      <glyph
        d="M27 -141l150 215q-119 131 -127 328q-3 57 5 143q20 162 98 292.5t200.5 199.5t273.5 67q91 -1 180 -32l100 144l174 -1l-150 -214q114 -134 123 -328q2 -58 -6 -141q-20 -162 -97 -289t-201 -197t-275 -68q-87 1 -171 29l-103 -149zM320 423q-4 -52 6 -103l356 540 q-32 12 -66 12q-127 2 -204 -111t-92 -338zM425 218q30 -8 59 -9q108 -2 182 80.5t102 242.5q11 76 14 119q3 48 -4 98z"
        horiz-adv-x="1131" unicode="&#xf8;"/>
      <glyph
        d="M77 382l117 700h282l-119 -703q-4 -33 -1 -62q10 -100 111 -103q131 -4 217 101l135 767h284l-188 -1082h-263l21 112q-120 -135 -298 -132q-156 2 -236 112t-62 290zM362 1534l291 2l143 -310l-211 1z"
        horiz-adv-x="1122" unicode="&#xf9;"/>
      <glyph
        d="M77 382l117 700h282l-119 -703q-4 -33 -1 -62q10 -100 111 -103q131 -4 217 101l135 767h284l-188 -1082h-263l21 112q-120 -135 -298 -132q-156 2 -236 112t-62 290zM520 1226l240 310h327l-318 -310h-249z"
        horiz-adv-x="1122" unicode="&#xfa;"/>
      <glyph
        d="M77 382l117 700h282l-119 -703q-4 -33 -1 -62q10 -100 111 -103q131 -4 217 101l135 767h284l-188 -1082h-263l21 112q-120 -135 -298 -132q-156 2 -236 112t-62 290zM301 1241v23l321 272l161 1l261 -277v-21l-216 5l-123 144l-175 -143z"
        horiz-adv-x="1122" unicode="&#xfb;"/>
      <glyph
        d="M77 382l117 700h282l-119 -703q-4 -33 -1 -62q10 -100 111 -103q131 -4 217 101l135 767h284l-188 -1082h-263l21 112q-120 -135 -298 -132q-156 2 -236 112t-62 290zM316 1362q-2 52 36 90.5t95 40.5t98 -35.5t41 -89.5q2 -53 -36.5 -90.5t-95.5 -39.5 q-53 -2 -94.5 33.5t-43.5 90.5zM789 1362q-2 52 36 90.5t95 40.5q56 2 96.5 -34.5t42.5 -90.5q0 -55 -37.5 -92t-93.5 -39q-55 -2 -97 34t-42 91z"
        horiz-adv-x="1122" unicode="&#xfc;"/>
      <glyph
        d="M-55 -419l21 220l39 -2q138 -4 202 101l62 115l-177 1067h292l78 -670l309 670h314l-633 -1245q-68 -143 -159.5 -210t-211.5 -67q-47 0 -136 21zM470 1226l240 310h327l-318 -310h-249z"
        horiz-adv-x="1007" unicode="&#xfd;"/>
      <glyph
        d="M-67 -416l338 1952h284l-108 -549q113 119 262 115q156 -2 245.5 -112.5t95.5 -305.5q2 -62 -6 -146q-21 -173 -89.5 -304t-169 -194.5t-223.5 -60.5q-154 4 -248 116l-98 -511h-283zM341 316q37 -101 159 -103q98 -3 165.5 74.5t92.5 229.5l6 42l6 96q2 97 -35.5 154 t-109.5 59q-120 4 -202 -102z"
        horiz-adv-x="1137" unicode="&#xfe;"/>
      <glyph
        d="M-55 -419l21 220l39 -2q138 -4 202 101l62 115l-177 1067h292l78 -670l309 670h314l-633 -1245q-68 -143 -159.5 -210t-211.5 -67q-47 0 -136 21zM266 1362q-2 52 36 90.5t95 40.5t98 -35.5t41 -89.5q2 -53 -36.5 -90.5t-95.5 -39.5q-53 -2 -94.5 33.5t-43.5 90.5z M739 1362q-2 52 36 90.5t95 40.5q56 2 96.5 -34.5t42.5 -90.5q0 -55 -37.5 -92t-93.5 -39q-55 -2 -97 34t-42 91z"
        horiz-adv-x="1007" unicode="&#xff;"/>
      <glyph
        d="M96 576l46 299q43 276 227.5 439t445.5 163l73 -2l208 -19h877l-43 -243h-652l-61 -347h558l-41 -235h-557l-68 -390h655l-42 -241h-842l-196 -17l-87 -1q-162 4 -284 81.5t-180 214.5t-37 298zM375 445q8 -106 68 -166.5t163 -64.5q78 -3 199 9l187 1008q-90 14 -183 16 q-153 0 -254 -97.5t-129 -273.5l-48 -301q-9 -67 -3 -130z"
        horiz-adv-x="1934" unicode="&#x152;"/>
      <glyph
        d="M74 523l3 22q26 227 158 378q161 184 409 180q107 -2 196 -41t142 -108q162 152 360 148q132 -4 224 -66.5t133 -173.5t24 -249l-25 -163h-628q-7 -105 40.5 -168t140.5 -67q137 -7 305 76l64 -190q-68 -60 -174.5 -91t-230.5 -29q-106 0 -195.5 38.5t-143.5 108.5 q-166 -152 -382 -148q-141 2 -241.5 72t-147.5 195t-31 276zM351 422q0 -98 41 -154t118 -58q108 -3 180 83t91 239l2 21l5 67q7 241 -161 249q-103 3 -173 -77t-93 -235l-5 -34zM1091 646h355q13 66 10 102q-5 57 -39 89t-92 33q-128 3 -206 -159z"
        horiz-adv-x="1802" unicode="&#x153;"/>
      <glyph
        d="M154 1455l309 1l177 -654l407 654h336l-636 -944l-88 -512h-298l95 545zM431 1672q-2 52 36 90.5t95 40.5t98 -35.5t41 -89.5q2 -53 -36.5 -90.5t-95.5 -39.5q-53 -2 -94.5 33.5t-43.5 90.5zM904 1672q-2 52 36 90.5t95 40.5q56 2 96.5 -34.5t42.5 -90.5q0 -55 -37.5 -92 t-93.5 -39q-55 -2 -97 34t-42 91z"
        horiz-adv-x="1238" unicode="&#x178;"/>
      <glyph d="M234 1241v23l321 272l161 1l261 -277v-21l-216 5l-123 144l-175 -143z" horiz-adv-x="995"
             unicode="&#x2c6;"/>
      <glyph
        d="M220 1258q7 116 73.5 194t162.5 76q26 0 49.5 -7.5t79 -37.5t80 -38t52.5 -7q77 3 101 98l161 -10q-7 -118 -70.5 -194.5t-160.5 -76.5q-28 0 -53.5 8.5t-76.5 37t-76.5 37.5t-54.5 8q-76 -3 -101 -98z"
        horiz-adv-x="965" unicode="&#x2dc;"/>
      <glyph horiz-adv-x="968" unicode="&#x2000;"/>
      <glyph horiz-adv-x="1936" unicode="&#x2001;"/>
      <glyph horiz-adv-x="968" unicode="&#x2002;"/>
      <glyph horiz-adv-x="1936" unicode="&#x2003;"/>
      <glyph horiz-adv-x="645" unicode="&#x2004;"/>
      <glyph horiz-adv-x="484" unicode="&#x2005;"/>
      <glyph horiz-adv-x="322" unicode="&#x2006;"/>
      <glyph horiz-adv-x="322" unicode="&#x2007;"/>
      <glyph horiz-adv-x="242" unicode="&#x2008;"/>
      <glyph horiz-adv-x="387" unicode="&#x2009;"/>
      <glyph horiz-adv-x="107" unicode="&#x200a;"/>
      <glyph d="M90 507l40 233h549l-41 -233h-548z" horiz-adv-x="780" unicode="&#x2010;"/>
      <glyph d="M90 507l40 233h549l-41 -233h-548z" horiz-adv-x="780" unicode="&#x2011;"/>
      <glyph d="M90 507l40 233h549l-41 -233h-548z" horiz-adv-x="780" unicode="&#x2012;"/>
      <glyph d="M146 596l49 236h1008l-50 -236h-1007z" horiz-adv-x="1265" unicode="&#x2013;"/>
      <glyph d="M104 596l65 236h1344l-67 -236h-1342z" horiz-adv-x="1526" unicode="&#x2014;"/>
      <glyph d="M178 1048l20 132q36 232 230 390l134 -82q-46 -68 -82 -137.5t-52 -151.5l-26 -151h-224z" horiz-adv-x="475"
             unicode="&#x2018;"/>
      <glyph d="M142 1091q103 148 129 260l33 185h225l-23 -148q-34 -221 -221 -381z" horiz-adv-x="466"
             unicode="&#x2019;"/>
      <glyph d="M-77 -223q96 144 121 261l34 191h232l-22 -143q-36 -232 -231 -391z" horiz-adv-x="503" unicode="&#x201a;"/>
      <glyph
        d="M186 1048l20 132q36 232 230 390l134 -82q-46 -68 -82 -137.5t-52 -151.5l-26 -151h-224zM518 1048l20 132q36 232 230 390l134 -82q-46 -68 -82 -137.5t-52 -151.5l-26 -151h-224z"
        horiz-adv-x="816" unicode="&#x201c;"/>
      <glyph
        d="M156 1091q103 148 129 260l33 185h225l-23 -148q-34 -221 -221 -381zM492 1091q103 148 129 260l33 185h225l-23 -148q-34 -221 -221 -381z"
        horiz-adv-x="822" unicode="&#x201d;"/>
      <glyph
        d="M-80 -244q96 148 124 282l40 225h232l-31 -191q-39 -238 -225 -397zM245 -244q105 161 132 279l40 228h232l-27 -177q-38 -244 -236 -411z"
        horiz-adv-x="810" unicode="&#x201e;"/>
      <glyph
        d="M156 720l1 34q3 108 69 175.5t173 67.5q99 -2 158.5 -64t59.5 -164l-1 -40q-6 -105 -73.5 -169t-168.5 -62q-99 2 -158.5 65t-59.5 157z"
        horiz-adv-x="724" unicode="&#x2022;"/>
      <glyph
        d="M51 137q-2 67 43 113t113 48q67 2 114.5 -41.5t47.5 -109.5q2 -66 -44 -112.5t-113 -46.5q-67 -2 -113 40t-48 109zM510 137q-2 67 43 113t113 48q67 2 114.5 -41.5t47.5 -109.5q2 -66 -44 -112.5t-113 -46.5q-67 -2 -113 40t-48 109zM960 137q-2 67 43 113t113 48 q67 2 114.5 -41.5t47.5 -109.5q2 -66 -44 -112.5t-113 -46.5q-67 -2 -113 40t-48 109z"
        horiz-adv-x="1480" unicode="&#x2026;"/>
      <glyph horiz-adv-x="387" unicode="&#x202f;"/>
      <glyph d="M90 513l1 21l330 390h203l-316 -416l162 -382l-167 -1z" horiz-adv-x="629" unicode="&#x2039;"/>
      <glyph d="M-15 124l315 415l-161 383l167 1l213 -387l-1 -22l-330 -390h-203z" horiz-adv-x="609" unicode="&#x203a;"/>
      <glyph horiz-adv-x="484" unicode="&#x205f;"/>
      <glyph
        d="M70 516l27 152h164l22 124h-164l27 152l154 -1q73 263 243.5 399t418.5 134q100 -2 238 -32l-59 -243q-87 33 -173 35q-276 4 -373 -293l333 1l-27 -152h-324l-22 -124h326l-27 -152h-319q-9 -66 -1 -119q12 -83 71 -128t156 -46q84 -2 193 30l12 -245q-132 -29 -243 -25 q-155 1 -273.5 71t-172.5 191.5t-32 272.5z"
        unicode="&#x20ac;"/>
      <glyph
        d="M241 1348l19 108h397l-19 -108h-125l-75 -431h-140l75 431h-132zM629 914l95 542h150l48 -364l185 364h153l-95 -542h-126l58 328l-155 -327l-71 -2l-51 365l-64 -364h-127z"
        horiz-adv-x="1264" unicode="&#x2122;"/>
      <glyph d="M0 0v1080h1080v-1080h-1080z" horiz-adv-x="1080" unicode="&#x25fc;"/>
      <hkern k="60" u1="&#x20;" u2="T"/>
      <hkern k="-11" u1="&#x22;" u2="w"/>
      <hkern k="-11" u1="&#x27;" u2="w"/>
      <hkern k="-22" u1="&#x28;" u2="&#x178;"/>
      <hkern k="-22" u1="&#x28;" u2="&#xdd;"/>
      <hkern k="-22" u1="&#x28;" u2="Y"/>
      <hkern k="-38" u1="&#x28;" u2="W"/>
      <hkern k="-20" u1="&#x28;" u2="V"/>
      <hkern k="248" u1="&#x2f;" u2="&#x2f;"/>
      <hkern k="33" u1="A" u2="w"/>
      <hkern k="17" u1="A" u2="t"/>
      <hkern k="81" u1="A" u2="&#x3f;"/>
      <hkern k="17" u1="C" u2="&#x7d;"/>
      <hkern k="12" u1="C" u2="]"/>
      <hkern k="26" u1="C" u2="&#x29;"/>
      <hkern k="33" u1="D" u2="&#xc6;"/>
      <hkern k="22" u1="E" u2="w"/>
      <hkern k="18" u1="E" u2="f"/>
      <hkern k="274" u1="F" u2="&#x2026;"/>
      <hkern k="274" u1="F" u2="&#x201e;"/>
      <hkern k="274" u1="F" u2="&#x201a;"/>
      <hkern k="21" u1="F" u2="&#x153;"/>
      <hkern k="24" u1="F" u2="&#xff;"/>
      <hkern k="24" u1="F" u2="&#xfd;"/>
      <hkern k="22" u1="F" u2="&#xfc;"/>
      <hkern k="22" u1="F" u2="&#xfb;"/>
      <hkern k="22" u1="F" u2="&#xfa;"/>
      <hkern k="22" u1="F" u2="&#xf9;"/>
      <hkern k="21" u1="F" u2="&#xf6;"/>
      <hkern k="21" u1="F" u2="&#xf5;"/>
      <hkern k="21" u1="F" u2="&#xf4;"/>
      <hkern k="21" u1="F" u2="&#xf3;"/>
      <hkern k="21" u1="F" u2="&#xf2;"/>
      <hkern k="21" u1="F" u2="&#xeb;"/>
      <hkern k="21" u1="F" u2="&#xea;"/>
      <hkern k="21" u1="F" u2="&#xe9;"/>
      <hkern k="21" u1="F" u2="&#xe8;"/>
      <hkern k="21" u1="F" u2="&#xe7;"/>
      <hkern k="34" u1="F" u2="&#xe5;"/>
      <hkern k="34" u1="F" u2="&#xe4;"/>
      <hkern k="34" u1="F" u2="&#xe3;"/>
      <hkern k="34" u1="F" u2="&#xe2;"/>
      <hkern k="34" u1="F" u2="&#xe1;"/>
      <hkern k="34" u1="F" u2="&#xe0;"/>
      <hkern k="192" u1="F" u2="&#xc5;"/>
      <hkern k="192" u1="F" u2="&#xc4;"/>
      <hkern k="192" u1="F" u2="&#xc3;"/>
      <hkern k="192" u1="F" u2="&#xc2;"/>
      <hkern k="192" u1="F" u2="&#xc1;"/>
      <hkern k="192" u1="F" u2="&#xc0;"/>
      <hkern k="24" u1="F" u2="y"/>
      <hkern k="24" u1="F" u2="v"/>
      <hkern k="22" u1="F" u2="u"/>
      <hkern k="26" u1="F" u2="r"/>
      <hkern k="21" u1="F" u2="q"/>
      <hkern k="21" u1="F" u2="o"/>
      <hkern k="21" u1="F" u2="g"/>
      <hkern k="21" u1="F" u2="e"/>
      <hkern k="21" u1="F" u2="d"/>
      <hkern k="21" u1="F" u2="c"/>
      <hkern k="34" u1="F" u2="a"/>
      <hkern k="-20" u1="F" u2="T"/>
      <hkern k="208" u1="F" u2="J"/>
      <hkern k="192" u1="F" u2="A"/>
      <hkern k="274" u1="F" u2="&#x2e;"/>
      <hkern k="274" u1="F" u2="&#x2c;"/>
      <hkern k="63" u1="K" u2="w"/>
      <hkern k="52" u1="L" u2="w"/>
      <hkern k="33" u1="O" u2="&#xc6;"/>
      <hkern k="297" u1="P" u2="&#xc6;"/>
      <hkern k="-14" u1="P" u2="t"/>
      <hkern k="35" u1="Q" u2="&#x178;"/>
      <hkern k="35" u1="Q" u2="&#xdd;"/>
      <hkern k="35" u1="Q" u2="Y"/>
      <hkern k="20" u1="Q" u2="W"/>
      <hkern k="28" u1="Q" u2="V"/>
      <hkern k="33" u1="Q" u2="T"/>
      <hkern k="48" u1="R" u2="&#x178;"/>
      <hkern k="48" u1="R" u2="&#xdd;"/>
      <hkern k="48" u1="R" u2="Y"/>
      <hkern k="19" u1="R" u2="V"/>
      <hkern k="50" u1="R" u2="T"/>
      <hkern k="95" u1="T" u2="&#xf8;"/>
      <hkern k="84" u1="T" u2="&#xe6;"/>
      <hkern k="189" u1="T" u2="&#xc6;"/>
      <hkern k="146" u1="T" u2="&#xbb;"/>
      <hkern k="148" u1="T" u2="&#xab;"/>
      <hkern k="47" u1="T" u2="w"/>
      <hkern k="65" u1="T" u2="r"/>
      <hkern k="60" u1="T" u2="&#x20;"/>
      <hkern k="-19" u1="V" u2="&#x7d;"/>
      <hkern k="30" u1="V" u2="r"/>
      <hkern k="-17" u1="V" u2="]"/>
      <hkern k="-20" u1="V" u2="&#x29;"/>
      <hkern k="-14" u1="W" u2="&#x7d;"/>
      <hkern k="21" u1="W" u2="r"/>
      <hkern k="-12" u1="W" u2="]"/>
      <hkern k="-15" u1="W" u2="&#x29;"/>
      <hkern k="45" u1="Y" u2="&#x2022;"/>
      <hkern k="64" u1="Y" u2="&#xf8;"/>
      <hkern k="63" u1="Y" u2="&#xe6;"/>
      <hkern k="96" u1="Y" u2="&#xc6;"/>
      <hkern k="51" u1="Y" u2="&#xbb;"/>
      <hkern k="82" u1="Y" u2="&#xab;"/>
      <hkern k="-19" u1="Y" u2="&#x7d;"/>
      <hkern k="22" u1="Y" u2="t"/>
      <hkern k="40" u1="Y" u2="r"/>
      <hkern k="22" u1="Y" u2="f"/>
      <hkern k="-18" u1="Y" u2="]"/>
      <hkern k="49" u1="Y" u2="&#x2a;"/>
      <hkern k="-20" u1="Y" u2="&#x29;"/>
      <hkern k="30" u1="Y" u2="&#x26;"/>
      <hkern k="27" u1="Z" u2="w"/>
      <hkern k="18" u1="[" u2="&#xdc;"/>
      <hkern k="18" u1="[" u2="&#xdb;"/>
      <hkern k="18" u1="[" u2="&#xda;"/>
      <hkern k="18" u1="[" u2="&#xd9;"/>
      <hkern k="18" u1="[" u2="U"/>
      <hkern k="18" u1="[" u2="J"/>
      <hkern k="64" u1="e" u2="&#x2019;"/>
      <hkern k="-16" u1="f" u2="&#x201d;"/>
      <hkern k="-16" u1="f" u2="&#x201c;"/>
      <hkern k="-16" u1="f" u2="&#x2019;"/>
      <hkern k="-16" u1="f" u2="&#x2018;"/>
      <hkern k="24" u1="f" u2="&#x153;"/>
      <hkern k="24" u1="f" u2="&#xeb;"/>
      <hkern k="24" u1="f" u2="&#xea;"/>
      <hkern k="24" u1="f" u2="&#xe9;"/>
      <hkern k="24" u1="f" u2="&#xe8;"/>
      <hkern k="24" u1="f" u2="&#xe7;"/>
      <hkern k="-19" u1="f" u2="&#x7d;"/>
      <hkern k="24" u1="f" u2="q"/>
      <hkern k="24" u1="f" u2="g"/>
      <hkern k="24" u1="f" u2="e"/>
      <hkern k="24" u1="f" u2="d"/>
      <hkern k="24" u1="f" u2="c"/>
      <hkern k="-18" u1="f" u2="]"/>
      <hkern k="-20" u1="f" u2="&#x29;"/>
      <hkern k="-16" u1="f" u2="&#x27;"/>
      <hkern k="-16" u1="f" u2="&#x22;"/>
      <hkern k="104" u1="h" u2="&#x2019;"/>
      <hkern k="20" u1="k" u2="&#x153;"/>
      <hkern k="20" u1="k" u2="&#xeb;"/>
      <hkern k="20" u1="k" u2="&#xea;"/>
      <hkern k="20" u1="k" u2="&#xe9;"/>
      <hkern k="20" u1="k" u2="&#xe8;"/>
      <hkern k="20" u1="k" u2="&#xe7;"/>
      <hkern k="20" u1="k" u2="q"/>
      <hkern k="20" u1="k" u2="g"/>
      <hkern k="20" u1="k" u2="e"/>
      <hkern k="20" u1="k" u2="d"/>
      <hkern k="20" u1="k" u2="c"/>
      <hkern k="120" u1="m" u2="&#x2019;"/>
      <hkern k="120" u1="n" u2="&#x2019;"/>
      <hkern k="112" u1="o" u2="&#x2019;"/>
      <hkern k="-16" u1="r" u2="&#x2019;"/>
      <hkern k="-17" u1="r" u2="w"/>
      <hkern k="-50" u1="r" u2="t"/>
      <hkern k="-20" u1="r" u2="f"/>
      <hkern k="-24" u1="t" u2="&#x2019;"/>
      <hkern k="30" u1="t" u2="&#xf6;"/>
      <hkern k="30" u1="t" u2="&#xf5;"/>
      <hkern k="30" u1="t" u2="&#xf4;"/>
      <hkern k="30" u1="t" u2="&#xf3;"/>
      <hkern k="30" u1="t" u2="&#xf2;"/>
      <hkern k="30" u1="t" u2="o"/>
      <hkern k="-13" u1="v" u2="f"/>
      <hkern k="124" u1="w" u2="&#x2026;"/>
      <hkern k="124" u1="w" u2="&#x201e;"/>
      <hkern k="124" u1="w" u2="&#x201a;"/>
      <hkern k="124" u1="w" u2="&#x2e;"/>
      <hkern k="124" u1="w" u2="&#x2c;"/>
      <hkern k="-13" u1="y" u2="f"/>
      <hkern k="20" u1="&#x7b;" u2="&#xdc;"/>
      <hkern k="20" u1="&#x7b;" u2="&#xdb;"/>
      <hkern k="20" u1="&#x7b;" u2="&#xda;"/>
      <hkern k="20" u1="&#x7b;" u2="&#xd9;"/>
      <hkern k="20" u1="&#x7b;" u2="U"/>
      <hkern k="20" u1="&#x7b;" u2="J"/>
      <hkern k="33" u1="&#xc0;" u2="w"/>
      <hkern k="17" u1="&#xc0;" u2="t"/>
      <hkern k="81" u1="&#xc0;" u2="&#x3f;"/>
      <hkern k="33" u1="&#xc1;" u2="w"/>
      <hkern k="17" u1="&#xc1;" u2="t"/>
      <hkern k="81" u1="&#xc1;" u2="&#x3f;"/>
      <hkern k="33" u1="&#xc2;" u2="w"/>
      <hkern k="17" u1="&#xc2;" u2="t"/>
      <hkern k="81" u1="&#xc2;" u2="&#x3f;"/>
      <hkern k="33" u1="&#xc3;" u2="w"/>
      <hkern k="17" u1="&#xc3;" u2="t"/>
      <hkern k="81" u1="&#xc3;" u2="&#x3f;"/>
      <hkern k="33" u1="&#xc4;" u2="w"/>
      <hkern k="17" u1="&#xc4;" u2="t"/>
      <hkern k="81" u1="&#xc4;" u2="&#x3f;"/>
      <hkern k="33" u1="&#xc5;" u2="w"/>
      <hkern k="17" u1="&#xc5;" u2="t"/>
      <hkern k="81" u1="&#xc5;" u2="&#x3f;"/>
      <hkern k="17" u1="&#xc7;" u2="&#x7d;"/>
      <hkern k="12" u1="&#xc7;" u2="]"/>
      <hkern k="26" u1="&#xc7;" u2="&#x29;"/>
      <hkern k="22" u1="&#xc8;" u2="w"/>
      <hkern k="18" u1="&#xc8;" u2="f"/>
      <hkern k="22" u1="&#xc9;" u2="w"/>
      <hkern k="18" u1="&#xc9;" u2="f"/>
      <hkern k="22" u1="&#xca;" u2="w"/>
      <hkern k="18" u1="&#xca;" u2="f"/>
      <hkern k="22" u1="&#xcb;" u2="w"/>
      <hkern k="18" u1="&#xcb;" u2="f"/>
      <hkern k="33" u1="&#xd0;" u2="&#xc6;"/>
      <hkern k="33" u1="&#xd2;" u2="&#xc6;"/>
      <hkern k="33" u1="&#xd3;" u2="&#xc6;"/>
      <hkern k="33" u1="&#xd4;" u2="&#xc6;"/>
      <hkern k="33" u1="&#xd5;" u2="&#xc6;"/>
      <hkern k="33" u1="&#xd6;" u2="&#xc6;"/>
      <hkern k="45" u1="&#xdd;" u2="&#x2022;"/>
      <hkern k="64" u1="&#xdd;" u2="&#xf8;"/>
      <hkern k="63" u1="&#xdd;" u2="&#xe6;"/>
      <hkern k="96" u1="&#xdd;" u2="&#xc6;"/>
      <hkern k="51" u1="&#xdd;" u2="&#xbb;"/>
      <hkern k="82" u1="&#xdd;" u2="&#xab;"/>
      <hkern k="-19" u1="&#xdd;" u2="&#x7d;"/>
      <hkern k="22" u1="&#xdd;" u2="t"/>
      <hkern k="40" u1="&#xdd;" u2="r"/>
      <hkern k="22" u1="&#xdd;" u2="f"/>
      <hkern k="-18" u1="&#xdd;" u2="]"/>
      <hkern k="49" u1="&#xdd;" u2="&#x2a;"/>
      <hkern k="-20" u1="&#xdd;" u2="&#x29;"/>
      <hkern k="30" u1="&#xdd;" u2="&#x26;"/>
      <hkern k="64" u1="&#xe8;" u2="&#x2019;"/>
      <hkern k="64" u1="&#xe9;" u2="&#x2019;"/>
      <hkern k="64" u1="&#xea;" u2="&#x2019;"/>
      <hkern k="64" u1="&#xeb;" u2="&#x2019;"/>
      <hkern k="120" u1="&#xf1;" u2="&#x2019;"/>
      <hkern k="112" u1="&#xf2;" u2="&#x2019;"/>
      <hkern k="112" u1="&#xf3;" u2="&#x2019;"/>
      <hkern k="112" u1="&#xf4;" u2="&#x2019;"/>
      <hkern k="112" u1="&#xf5;" u2="&#x2019;"/>
      <hkern k="112" u1="&#xf6;" u2="&#x2019;"/>
      <hkern k="-13" u1="&#xfd;" u2="f"/>
      <hkern k="-13" u1="&#xff;" u2="f"/>
      <hkern k="45" u1="&#x178;" u2="&#x2022;"/>
      <hkern k="64" u1="&#x178;" u2="&#xf8;"/>
      <hkern k="63" u1="&#x178;" u2="&#xe6;"/>
      <hkern k="96" u1="&#x178;" u2="&#xc6;"/>
      <hkern k="51" u1="&#x178;" u2="&#xbb;"/>
      <hkern k="82" u1="&#x178;" u2="&#xab;"/>
      <hkern k="-19" u1="&#x178;" u2="&#x7d;"/>
      <hkern k="22" u1="&#x178;" u2="t"/>
      <hkern k="40" u1="&#x178;" u2="r"/>
      <hkern k="22" u1="&#x178;" u2="f"/>
      <hkern k="-18" u1="&#x178;" u2="]"/>
      <hkern k="49" u1="&#x178;" u2="&#x2a;"/>
      <hkern k="-20" u1="&#x178;" u2="&#x29;"/>
      <hkern k="30" u1="&#x178;" u2="&#x26;"/>
      <hkern k="-11" u1="&#x2018;" u2="w"/>
      <hkern k="104" u1="&#x2019;" u2="&#x153;"/>
      <hkern k="144" u1="&#x2019;" u2="&#xf6;"/>
      <hkern k="144" u1="&#x2019;" u2="&#xf5;"/>
      <hkern k="144" u1="&#x2019;" u2="&#xf4;"/>
      <hkern k="144" u1="&#x2019;" u2="&#xf3;"/>
      <hkern k="144" u1="&#x2019;" u2="&#xf2;"/>
      <hkern k="104" u1="&#x2019;" u2="&#xeb;"/>
      <hkern k="104" u1="&#x2019;" u2="&#xea;"/>
      <hkern k="104" u1="&#x2019;" u2="&#xe9;"/>
      <hkern k="104" u1="&#x2019;" u2="&#xe8;"/>
      <hkern k="104" u1="&#x2019;" u2="&#xe7;"/>
      <hkern k="-11" u1="&#x2019;" u2="w"/>
      <hkern k="232" u1="&#x2019;" u2="s"/>
      <hkern k="104" u1="&#x2019;" u2="q"/>
      <hkern k="144" u1="&#x2019;" u2="o"/>
      <hkern k="104" u1="&#x2019;" u2="g"/>
      <hkern k="104" u1="&#x2019;" u2="e"/>
      <hkern k="104" u1="&#x2019;" u2="d"/>
      <hkern k="104" u1="&#x2019;" u2="c"/>
      <hkern k="-11" u1="&#x201c;" u2="w"/>
      <hkern k="-11" u1="&#x201d;" u2="w"/>
      <hkern g1="H,I,M,N,Igrave,Iacute,Icircumflex,Idieresis,Ntilde"
             g2="A,Agrave,Aacute,Acircumflex,Atilde,Adieresis,Aring" k="-18"/>
      <hkern g1="H,I,M,N,Igrave,Iacute,Icircumflex,Idieresis,Ntilde" g2="T" k="29"/>
      <hkern g1="H,I,M,N,Igrave,Iacute,Icircumflex,Idieresis,Ntilde" g2="Y,Yacute,Ydieresis" k="28"/>
      <hkern g1="H,I,M,N,Igrave,Iacute,Icircumflex,Idieresis,Ntilde" g2="X" k="-17"/>
      <hkern g1="D,O,Eth,Ograve,Oacute,Ocircumflex,Otilde,Odieresis"
             g2="A,Agrave,Aacute,Acircumflex,Atilde,Adieresis,Aring" k="21"/>
      <hkern g1="D,O,Eth,Ograve,Oacute,Ocircumflex,Otilde,Odieresis" g2="T" k="85"/>
      <hkern g1="D,O,Eth,Ograve,Oacute,Ocircumflex,Otilde,Odieresis" g2="Y,Yacute,Ydieresis" k="43"/>
      <hkern g1="D,O,Eth,Ograve,Oacute,Ocircumflex,Otilde,Odieresis" g2="X" k="22"/>
      <hkern g1="D,O,Eth,Ograve,Oacute,Ocircumflex,Otilde,Odieresis" g2="Z" k="23"/>
      <hkern g1="D,O,Eth,Ograve,Oacute,Ocircumflex,Otilde,Odieresis"
             g2="comma,period,quotesinglbase,quotedblbase,ellipsis" k="122"/>
      <hkern g1="D,O,Eth,Ograve,Oacute,Ocircumflex,Otilde,Odieresis" g2="V" k="22"/>
      <hkern g1="A,Agrave,Aacute,Acircumflex,Atilde,Adieresis,Aring"
             g2="C,G,O,Q,Ccedilla,Ograve,Oacute,Ocircumflex,Otilde,Odieresis,Oslash,OE" k="21"/>
      <hkern g1="A,Agrave,Aacute,Acircumflex,Atilde,Adieresis,Aring" g2="m,n,p,ntilde" k="48"/>
      <hkern g1="A,Agrave,Aacute,Acircumflex,Atilde,Adieresis,Aring" g2="o,ograve,oacute,ocircumflex,otilde,odieresis"
             k="12"/>
      <hkern g1="A,Agrave,Aacute,Acircumflex,Atilde,Adieresis,Aring" g2="u,ugrave,uacute,ucircumflex,udieresis" k="11"/>
      <hkern g1="A,Agrave,Aacute,Acircumflex,Atilde,Adieresis,Aring" g2="v,y,yacute,ydieresis" k="50"/>
      <hkern g1="A,Agrave,Aacute,Acircumflex,Atilde,Adieresis,Aring" g2="U,Ugrave,Uacute,Ucircumflex,Udieresis" k="17"/>
      <hkern g1="A,Agrave,Aacute,Acircumflex,Atilde,Adieresis,Aring" g2="T" k="120"/>
      <hkern g1="A,Agrave,Aacute,Acircumflex,Atilde,Adieresis,Aring" g2="Y,Yacute,Ydieresis" k="150"/>
      <hkern g1="A,Agrave,Aacute,Acircumflex,Atilde,Adieresis,Aring" g2="z" k="-12"/>
      <hkern g1="A,Agrave,Aacute,Acircumflex,Atilde,Adieresis,Aring"
             g2="quotedbl,quotesingle,quoteleft,quoteright,quotedblleft,quotedblright" k="120"/>
      <hkern g1="A,Agrave,Aacute,Acircumflex,Atilde,Adieresis,Aring" g2="W" k="39"/>
      <hkern g1="A,Agrave,Aacute,Acircumflex,Atilde,Adieresis,Aring" g2="V" k="77"/>
      <hkern g1="o,ograve,oacute,ocircumflex,otilde,odieresis" g2="v,y,yacute,ydieresis" k="15"/>
      <hkern g1="o,ograve,oacute,ocircumflex,otilde,odieresis" g2="z" k="16"/>
      <hkern g1="o,ograve,oacute,ocircumflex,otilde,odieresis"
             g2="quotedbl,quotesingle,quoteleft,quoteright,quotedblleft,quotedblright" k="88"/>
      <hkern g1="o,ograve,oacute,ocircumflex,otilde,odieresis" g2="x" k="21"/>
      <hkern g1="h,m,n,ntilde" g2="quotedbl,quotesingle,quoteleft,quoteright,quotedblleft,quotedblright" k="80"/>
      <hkern g1="E,Egrave,Eacute,Ecircumflex,Edieresis" g2="c,d,e,g,q,ccedilla,egrave,eacute,ecircumflex,edieresis,oe"
             k="19"/>
      <hkern g1="E,Egrave,Eacute,Ecircumflex,Edieresis" g2="o,ograve,oacute,ocircumflex,otilde,odieresis" k="19"/>
      <hkern g1="E,Egrave,Eacute,Ecircumflex,Edieresis" g2="u,ugrave,uacute,ucircumflex,udieresis" k="17"/>
      <hkern g1="E,Egrave,Eacute,Ecircumflex,Edieresis" g2="v,y,yacute,ydieresis" k="26"/>
      <hkern g1="E,Egrave,Eacute,Ecircumflex,Edieresis" g2="T" k="-20"/>
      <hkern g1="a,agrave,aacute,acircumflex,atilde,adieresis,aring" g2="v,y,yacute,ydieresis" k="15"/>
      <hkern g1="a,agrave,aacute,acircumflex,atilde,adieresis,aring"
             g2="quotedbl,quotesingle,quoteleft,quoteright,quotedblleft,quotedblright" k="17"/>
      <hkern g1="b,p,thorn" g2="v,y,yacute,ydieresis" k="11"/>
      <hkern g1="b,p,thorn" g2="z" k="15"/>
      <hkern g1="b,p,thorn" g2="quotedbl,quotesingle,quoteleft,quoteright,quotedblleft,quotedblright" k="29"/>
      <hkern g1="b,p,thorn" g2="x" k="15"/>
      <hkern g1="e,egrave,eacute,ecircumflex,edieresis" g2="v,y,yacute,ydieresis" k="13"/>
      <hkern g1="e,egrave,eacute,ecircumflex,edieresis"
             g2="quotedbl,quotesingle,quoteleft,quoteright,quotedblleft,quotedblright" k="14"/>
      <hkern g1="v,y,yacute,ydieresis" g2="c,d,e,g,q,ccedilla,egrave,eacute,ecircumflex,edieresis,oe" k="13"/>
      <hkern g1="v,y,yacute,ydieresis" g2="o,ograve,oacute,ocircumflex,otilde,odieresis" k="15"/>
      <hkern g1="v,y,yacute,ydieresis" g2="a,agrave,aacute,acircumflex,atilde,adieresis,aring" k="15"/>
      <hkern g1="v,y,yacute,ydieresis" g2="quotedbl,quotesingle,quoteleft,quoteright,quotedblleft,quotedblright"
             k="-15"/>
      <hkern g1="v,y,yacute,ydieresis" g2="comma,period,quotesinglbase,quotedblbase,ellipsis" k="167"/>
      <hkern g1="J,U,Ugrave,Uacute,Ucircumflex,Udieresis" g2="A,Agrave,Aacute,Acircumflex,Atilde,Adieresis,Aring"
             k="22"/>
      <hkern g1="K" g2="c,d,e,g,q,ccedilla,egrave,eacute,ecircumflex,edieresis,oe" k="26"/>
      <hkern g1="K" g2="C,G,O,Q,Ccedilla,Ograve,Oacute,Ocircumflex,Otilde,Odieresis,Oslash,OE" k="31"/>
      <hkern g1="K" g2="o,ograve,oacute,ocircumflex,otilde,odieresis" k="27"/>
      <hkern g1="K" g2="u,ugrave,uacute,ucircumflex,udieresis" k="23"/>
      <hkern g1="K" g2="v,y,yacute,ydieresis" k="40"/>
      <hkern g1="K" g2="hyphen,uni00AD,endash,emdash" k="164"/>
      <hkern g1="Y,Yacute,Ydieresis" g2="c,d,e,g,q,ccedilla,egrave,eacute,ecircumflex,edieresis,oe" k="65"/>
      <hkern g1="Y,Yacute,Ydieresis" g2="C,G,O,Q,Ccedilla,Ograve,Oacute,Ocircumflex,Otilde,Odieresis,Oslash,OE" k="29"/>
      <hkern g1="Y,Yacute,Ydieresis" g2="m,n,p,ntilde" k="40"/>
      <hkern g1="Y,Yacute,Ydieresis" g2="o,ograve,oacute,ocircumflex,otilde,odieresis" k="65"/>
      <hkern g1="Y,Yacute,Ydieresis" g2="u,ugrave,uacute,ucircumflex,udieresis" k="39"/>
      <hkern g1="Y,Yacute,Ydieresis" g2="A,Agrave,Aacute,Acircumflex,Atilde,Adieresis,Aring" k="150"/>
      <hkern g1="Y,Yacute,Ydieresis" g2="a,agrave,aacute,acircumflex,atilde,adieresis,aring" k="63"/>
      <hkern g1="Y,Yacute,Ydieresis" g2="v,y,yacute,ydieresis" k="20"/>
      <hkern g1="Y,Yacute,Ydieresis" g2="U,Ugrave,Uacute,Ucircumflex,Udieresis" k="96"/>
      <hkern g1="Y,Yacute,Ydieresis" g2="T" k="-17"/>
      <hkern g1="Y,Yacute,Ydieresis" g2="Y,Yacute,Ydieresis" k="-18"/>
      <hkern g1="Y,Yacute,Ydieresis" g2="s" k="58"/>
      <hkern g1="Y,Yacute,Ydieresis" g2="z" k="30"/>
      <hkern g1="Y,Yacute,Ydieresis" g2="S" k="16"/>
      <hkern g1="Y,Yacute,Ydieresis" g2="X" k="-13"/>
      <hkern g1="Y,Yacute,Ydieresis" g2="x" k="23"/>
      <hkern g1="Y,Yacute,Ydieresis" g2="W" k="-17"/>
      <hkern g1="Y,Yacute,Ydieresis" g2="comma,period,quotesinglbase,quotedblbase,ellipsis" k="231"/>
      <hkern g1="Y,Yacute,Ydieresis" g2="V" k="-18"/>
      <hkern g1="Y,Yacute,Ydieresis" g2="hyphen,uni00AD,endash,emdash" k="152"/>
      <hkern g1="Y,Yacute,Ydieresis" g2="J" k="96"/>
      <hkern g1="T" g2="c,d,e,g,q,ccedilla,egrave,eacute,ecircumflex,edieresis,oe" k="89"/>
      <hkern g1="T" g2="C,G,O,Q,Ccedilla,Ograve,Oacute,Ocircumflex,Otilde,Odieresis,Oslash,OE" k="28"/>
      <hkern g1="T" g2="m,n,p,ntilde" k="89"/>
      <hkern g1="T" g2="o,ograve,oacute,ocircumflex,otilde,odieresis" k="208"/>
      <hkern g1="T" g2="u,ugrave,uacute,ucircumflex,udieresis" k="65"/>
      <hkern g1="T" g2="A,Agrave,Aacute,Acircumflex,Atilde,Adieresis,Aring" k="120"/>
      <hkern g1="T" g2="a,agrave,aacute,acircumflex,atilde,adieresis,aring" k="168"/>
      <hkern g1="T" g2="v,y,yacute,ydieresis" k="82"/>
      <hkern g1="T" g2="T" k="-16"/>
      <hkern g1="T" g2="Y,Yacute,Ydieresis" k="-16"/>
      <hkern g1="T" g2="s" k="76"/>
      <hkern g1="T" g2="z" k="60"/>
      <hkern g1="T" g2="S" k="16"/>
      <hkern g1="T" g2="x" k="77"/>
      <hkern g1="T" g2="W" k="-15"/>
      <hkern g1="T" g2="comma,period,quotesinglbase,quotedblbase,ellipsis" k="258"/>
      <hkern g1="T" g2="V" k="-16"/>
      <hkern g1="T" g2="hyphen,uni00AD,endash,emdash" k="272"/>
      <hkern g1="T" g2="J" k="216"/>
      <hkern g1="z" g2="c,d,e,g,q,ccedilla,egrave,eacute,ecircumflex,edieresis,oe" k="16"/>
      <hkern g1="z" g2="o,ograve,oacute,ocircumflex,otilde,odieresis" k="16"/>
      <hkern g1="Z" g2="c,d,e,g,q,ccedilla,egrave,eacute,ecircumflex,edieresis,oe" k="21"/>
      <hkern g1="Z" g2="C,G,O,Q,Ccedilla,Ograve,Oacute,Ocircumflex,Otilde,Odieresis,Oslash,OE" k="26"/>
      <hkern g1="Z" g2="o,ograve,oacute,ocircumflex,otilde,odieresis" k="21"/>
      <hkern g1="Z" g2="u,ugrave,uacute,ucircumflex,udieresis" k="19"/>
      <hkern g1="Z" g2="A,Agrave,Aacute,Acircumflex,Atilde,Adieresis,Aring" k="-13"/>
      <hkern g1="Z" g2="v,y,yacute,ydieresis" k="27"/>
      <hkern g1="X" g2="c,d,e,g,q,ccedilla,egrave,eacute,ecircumflex,edieresis,oe" k="26"/>
      <hkern g1="X" g2="C,G,O,Q,Ccedilla,Ograve,Oacute,Ocircumflex,Otilde,Odieresis,Oslash,OE" k="25"/>
      <hkern g1="X" g2="o,ograve,oacute,ocircumflex,otilde,odieresis" k="21"/>
      <hkern g1="X" g2="u,ugrave,uacute,ucircumflex,udieresis" k="21"/>
      <hkern g1="X" g2="v,y,yacute,ydieresis" k="31"/>
      <hkern g1="X" g2="V" k="-14"/>
      <hkern g1="X" g2="hyphen,uni00AD,endash,emdash" k="156"/>
      <hkern g1="C,Ccedilla" g2="T" k="29"/>
      <hkern g1="x" g2="c,d,e,g,q,ccedilla,egrave,eacute,ecircumflex,edieresis,oe" k="20"/>
      <hkern g1="x" g2="o,ograve,oacute,ocircumflex,otilde,odieresis" k="40"/>
      <hkern g1="r" g2="c,d,e,g,q,ccedilla,egrave,eacute,ecircumflex,edieresis,oe" k="19"/>
      <hkern g1="r" g2="o,ograve,oacute,ocircumflex,otilde,odieresis" k="36"/>
      <hkern g1="r" g2="a,agrave,aacute,acircumflex,atilde,adieresis,aring" k="30"/>
      <hkern g1="r" g2="v,y,yacute,ydieresis" k="-18"/>
      <hkern g1="r" g2="quotedbl,quotesingle,quoteleft,quoteright,quotedblleft,quotedblright" k="-16"/>
      <hkern g1="r" g2="comma,period,quotesinglbase,quotedblbase,ellipsis" k="173"/>
      <hkern g1="P" g2="c,d,e,g,q,ccedilla,egrave,eacute,ecircumflex,edieresis,oe" k="13"/>
      <hkern g1="P" g2="o,ograve,oacute,ocircumflex,otilde,odieresis" k="13"/>
      <hkern g1="P" g2="A,Agrave,Aacute,Acircumflex,Atilde,Adieresis,Aring" k="178"/>
      <hkern g1="P" g2="a,agrave,aacute,acircumflex,atilde,adieresis,aring" k="11"/>
      <hkern g1="P" g2="v,y,yacute,ydieresis" k="-15"/>
      <hkern g1="P" g2="X" k="51"/>
      <hkern g1="P" g2="Z" k="36"/>
      <hkern g1="P" g2="comma,period,quotesinglbase,quotedblbase,ellipsis" k="404"/>
      <hkern g1="P" g2="J" k="184"/>
      <hkern g1="c,ccedilla" g2="quotedbl,quotesingle,quoteleft,quoteright,quotedblleft,quotedblright" k="11"/>
      <hkern g1="L" g2="C,G,O,Q,Ccedilla,Ograve,Oacute,Ocircumflex,Otilde,Odieresis,Oslash,OE" k="64"/>
      <hkern g1="L" g2="u,ugrave,uacute,ucircumflex,udieresis" k="14"/>
      <hkern g1="L" g2="A,Agrave,Aacute,Acircumflex,Atilde,Adieresis,Aring" k="-19"/>
      <hkern g1="L" g2="v,y,yacute,ydieresis" k="123"/>
      <hkern g1="L" g2="U,Ugrave,Uacute,Ucircumflex,Udieresis" k="24"/>
      <hkern g1="L" g2="T" k="205"/>
      <hkern g1="L" g2="Y,Yacute,Ydieresis" k="279"/>
      <hkern g1="L" g2="quotedbl,quotesingle,quoteleft,quoteright,quotedblleft,quotedblright" k="288"/>
      <hkern g1="L" g2="W" k="93"/>
      <hkern g1="L" g2="V" k="206"/>
      <hkern g1="quotedbl,quotesingle,quoteleft,quoteright,quotedblleft,quotedblright"
             g2="c,d,e,g,q,ccedilla,egrave,eacute,ecircumflex,edieresis,oe" k="59"/>
      <hkern g1="quotedbl,quotesingle,quoteleft,quoteright,quotedblleft,quotedblright" g2="m,n,p,ntilde" k="20"/>
      <hkern g1="quotedbl,quotesingle,quoteleft,quoteright,quotedblleft,quotedblright"
             g2="o,ograve,oacute,ocircumflex,otilde,odieresis" k="91"/>
      <hkern g1="quotedbl,quotesingle,quoteleft,quoteright,quotedblleft,quotedblright"
             g2="A,Agrave,Aacute,Acircumflex,Atilde,Adieresis,Aring" k="120"/>
      <hkern g1="quotedbl,quotesingle,quoteleft,quoteright,quotedblleft,quotedblright"
             g2="a,agrave,aacute,acircumflex,atilde,adieresis,aring" k="50"/>
      <hkern g1="quotedbl,quotesingle,quoteleft,quoteright,quotedblleft,quotedblright" g2="s" k="92"/>
      <hkern g1="quotedbl,quotesingle,quoteleft,quoteright,quotedblleft,quotedblright"
             g2="quotedbl,quotesingle,quoteleft,quoteright,quotedblleft,quotedblright" k="37"/>
      <hkern g1="W" g2="c,d,e,g,q,ccedilla,egrave,eacute,ecircumflex,edieresis,oe" k="31"/>
      <hkern g1="W" g2="o,ograve,oacute,ocircumflex,otilde,odieresis" k="31"/>
      <hkern g1="W" g2="u,ugrave,uacute,ucircumflex,udieresis" k="19"/>
      <hkern g1="W" g2="A,Agrave,Aacute,Acircumflex,Atilde,Adieresis,Aring" k="43"/>
      <hkern g1="W" g2="a,agrave,aacute,acircumflex,atilde,adieresis,aring" k="33"/>
      <hkern g1="W" g2="T" k="-14"/>
      <hkern g1="W" g2="comma,period,quotesinglbase,quotedblbase,ellipsis" k="143"/>
      <hkern g1="W" g2="hyphen,uni00AD,endash,emdash" k="60"/>
      <hkern g1="B" g2="T" k="27"/>
      <hkern g1="B" g2="Y,Yacute,Ydieresis" k="55"/>
      <hkern g1="B" g2="V" k="24"/>
      <hkern g1="V" g2="c,d,e,g,q,ccedilla,egrave,eacute,ecircumflex,edieresis,oe" k="44"/>
      <hkern g1="V" g2="C,G,O,Q,Ccedilla,Ograve,Oacute,Ocircumflex,Otilde,Odieresis,Oslash,OE" k="13"/>
      <hkern g1="V" g2="o,ograve,oacute,ocircumflex,otilde,odieresis" k="46"/>
      <hkern g1="V" g2="u,ugrave,uacute,ucircumflex,udieresis" k="28"/>
      <hkern g1="V" g2="A,Agrave,Aacute,Acircumflex,Atilde,Adieresis,Aring" k="75"/>
      <hkern g1="V" g2="a,agrave,aacute,acircumflex,atilde,adieresis,aring" k="46"/>
      <hkern g1="V" g2="v,y,yacute,ydieresis" k="11"/>
      <hkern g1="V" g2="comma,period,quotesinglbase,quotedblbase,ellipsis" k="215"/>
      <hkern g1="V" g2="hyphen,uni00AD,endash,emdash" k="157"/>
      <hkern g1="comma,period,quotesinglbase,quotedblbase,ellipsis"
             g2="quotedbl,quotesingle,quoteleft,quoteright,quotedblleft,quotedblright" k="285"/>
    </font>
  </defs>
</svg>
