{
  "user": {
    "firstName": "Thierry",
    "lastName": "Est",
    "email": "test@example.org"
  },
  "siret": "35600000000000",
  "service": "S999999999",
  "profiles": ["AVIS_PUBLICITE_GESTION"],
  "payload": {
    "consultation": {
      "categoriePrincipale": "services",
      "codeCpvPrincipal": "45214000",
      "codesCpvSecondaires": ["FA01", "DA18"],
      "contactAcheteur": {
        "adresse": {
          "code": "75012",
          "codePays": "99100",
          "localite": "Paris 12",
          "nomVoie": "de Bercy",
          "numeroVoie": "151",
          "typeVoie": "rue"
        },
        "adresseElectronique": "mdefrance@example.com",
        "nom": "Defrance",
        "prenom": "Marianne",
        "raisonSociale": "Ministère de l'économie, des finances et de la souveraineté industrielle et numérique",
        "siret": "11002001300097",
        "telephone": "+33 1 23 45 67 89"
      },
      "criteresAttribution": {
        "criteres": ["Critère principal", "Critère secondaire", "Critère tertiaire"],
        "criteresPonderes": {
          "Critère principal": 50,
          "Premier critère secondaire": 25,
          "Deuxième critère secondaire": 25
        }
      },
      "dateDebutContratEstimee": "2024-01-01",
      "dateFinContratEstimee": "2024-01-01",
      "dateLimiteRemiseCandidature": "2023-06-30",
      "dateLimiteRemiseOffre": "2023-06-30",
      "delaiValiditeOffreAcheteur": 93,
      "dureeContratEstimee": "2024-12-31",
      "lieuExecution": {
        "code": "75012",
        "codePays": "99100",
        "localite": "Paris 12",
        "nomVoie": "de Bercy",
        "numeroVoie": "151",
        "typeVoie": "rue"
      },
      "lots": [{
        "codeCpvPrincipal": "45214000",
        "decision": "attribution",
        "description": "string",
        "lieuExecution": {
          "code": "75012",
          "codePays": "99100",
          "localite": "Paris 12",
          "nomVoie": "de Bercy",
          "numeroVoie": "151",
          "typeVoie": "rue"
        },
        "montant": 0,
        "numero": 0,
        "quantite": {
          "unite": "mètre carré",
          "valeur": 3278.5
        }
      }],
      "marcheReserve": "structures d'insertion par l'activité économique",
      "objet": "Construction d'un groupe scolaire maternelle et primaire",
      "offreTousLots": false,
      "phaseConsultation": {
        "nombreMaxCandidat": 5,
        "reductionSuccessiveCandidats": false
      },
      "tranche": false,
      "typeProcedure": "appel d'offres ouvert",
      "typeTechniqueAchat": "accord-cadre",
      "urlConsultation": "https://acheteurs.example.com/consultation/123456789",
      "urlProfilAcheteur": "https://acheteurs.example.com/",
      "usageNegociation": "non utilisé",
      "variantesRequises": "autorisé"
    },
    "consultationReferences": {
      "id": "123456789",
      "reference": "AAA5555"
    },
    "piampCredentials": {
      "email": "sbensoussan@example.org",
      "id": "sbe123456",
      "password": "le-nom-de-mon-chat"
    }
  }
}
