{
  "siren": "775673258",
  "effectif": "1560",
  "adresse": {
    "ville": "Mont De Marsan",
    "rue": "21 impasse Passebec",
    "codePostal": "40000",
    "pays": "France",
    "acronymePays": "FR"
  },
  "formeJuridique": "SARL",
  "codeAPE": "4643X",
  "capitalSocial": "25000",
  "raisonSociale": "PMU",
  "email": "entreprise-test@atexo.com"
}
