{
  "id": 20,
  "idEtablissement": 11,
  "login": "inscrit-test23@atexo.com",
  "motDePasse": "$s0$e0801$jmh6IFKV9tyTWLdwXniPow==$7TroTDqUESwe7Q88Qul01m9MVPx0b5\/yZfAZSFKQO2o=",
  "email": "inscrit-test23@atexo.com",
  "nom": "BAGOT 23 old ID",
  "prenom": "QUENTIN 23 old ID",
  "actif": "1",
  "telephone": "",
  "siret": "44090956200033",
  "inscritAnnuaireDefense": 0,
  "typeHash": "sha256",
  "adresse": {
    "rue": "17 BD DES CAPUCINES",
    "codePostal": "75002",
    "ville": "PARIS 2",
    "pays": "France",
    "acronymePays": "FR"
  }
}
