Keyword;NbParams/ObjectType;ObjectName;Param1;Param2;Param3;Param4;Param5;Param6;Param7;Param8;Param9;Param10;Param11;Param12;Param13;Param14;Param15;Param16
C_A001_A001_Consultation_validable_simple_agent;2;;ref_consultation;login_agt;;;;;;;;;;;;;;
ChangerEcran;Ecran;A001_Acceuil_avant_login;;;;;;;;;;;;;;;;
Saisir;Champ;Login_pour_utilisateur_deja_inscrit;$login_agt;;;;;;;;;;;;;;;
Saisir;Champ;Mot_de_passe_pour_utilisateur_deja_inscrit;$ref_mdpa;;;;;;;;;;;;;;;
Cliquer;Bouton;OK_pour_utilisateur_deja_inscrit;;;;;;;;;;;;;;;;
ChangerEcran;Ecran;A002_Acceuil_apres_login_reussi;;;;;;;;;;;;;;;;;
VerifierValeur;Texte;Message_login_reussi;Mes coordonnées;;;;;;;;;;;;;;;;
ChangerEcran;Ecran;AXXX_Menus_haut_bas_gauche_droite;;;;;;;;;;;;;;;;
Cliquer;Lien;Bandeau_haut_lien_acceuil;;;;;;;;;;;;;;;;
Saisir;Champ;Menu_gauche_recherche_rapide;$ref_consultation;;;;;;;;;;;;;;;
Cliquer;Lien;Menu_gauche_recherche_rapide_bouton_ok;;;;;;;;;;;;;;;;
ChangerEcran;Ecran;A003_Tableau_de_bord;;;;;;;;;;;;;;;;
VerifierPresence;Texte;Valider_avec_chiffrement;Oui;;;;;;;;;;;;;;;
Cliquer;Lien;Valider_avec_chiffrement;;;;;;;;;;;;;;;;
ChangerEcran;Ecran;A004_Etape_Validation_consultation;;;;;;;;;;;;;;;;
VerifierPresence;Texte;Bloc_validation_simple;Oui;;;;;;;;;;;;;;;
VerifierPresence;Texte;Bloc_validation_interm;Non;;;;;;;;;;;;;;;
VerifierPresence;Texte;Bloc_validation_finale;Non;;;;;;;;;;;;;;;
ChangerEcran;Ecran;AXXX_Menus_haut_bas_gauche_droite;;;;;;;;;;;;;;;;
Cliquer;Lien;Bandeau_haut_lien_acceuil;;;;;;;;;;;;;;;;
Cliquer;Lien;Menu_haut_deroulant_utilisateur;;;;;;;;;;;;;;;;
Cliquer;Lien;Menu_haut_lien_de_deconnexion;;;;;;;;;;;;;;;;
ChangerEcran;Ecran;A001_Acceuil_avant_login;;;;;;;;;;;;;;;;;
