Keyword;NbParams/ObjectType;ObjectName;Param1;Param2;Param3;Param4;Param5;Param6;Param7;Param8;Param9;Param10;Param11;Param12;Param13;Param14;Param15;Param16
C_A031_0002_Decocher_alerte_depots;0;;;;;;;;;;;;;;;;;
ChangerEcran;Ecran;A031_Alertes_electroniques;;;;;;;;;;;;;;;;
Saisir;CaseACocher;Alerte_depot;Non;;;;;;;;;;;;;;;
Cliquer;Lien;Enregistrer;;;;;;;;;;;;;;;;
ChangerEcran;Ecran;A002_Acceuil_apres_login_reussi;;;;;;;;;;;;;;;;