Keyword;NbParams/ObjectType;ObjectName;Param1;Param2;Param3;Param4;Param5;Param6;Param7;Param8;Param9;Param10;Param11;Param12;Param13;Param14;Param15;Param16
C_AXXX_A003_Consultation_visible_oui;1;;motclef_consult;;;;;;;;;;;;;;;
ChangerEcran;Ecran;AXXX_Menus_haut_bas_gauche_droite;;;;;;;;;;;;;;;;
Cliquer;Lien;Bandeau_haut_lien_acceuil;;;;;;;;;;;;;;;;
Saisir;Champ;Menu_gauche_recherche_rapide;$motclef_consult;;;;;;;;;;;;;;;
Cliquer;Lien;Menu_gauche_recherche_rapide_bouton_ok;;;;;;;;;;;;;;;;
ChangerEcran;Ecran;A003_Tableau_de_bord;;;;;;;;;;;;;;;;
VerifierValeur;Texte;Reference;$motclef_consult;;;;;;;;;;;;;;;
VerifierPresence;Lien;Etoile_favori_jaune;Oui;;;;;;;;;;;;;;;
