Keyword;NbParams/ObjectType;ObjectName;Param1;Param2;Param3;Param4;Param5;Param6;Param7;Param8;Param9;Param10;Param11;Param12;Param13;Param14;Param15;Param16
C_E001_E012_Authentification_utilisateur_FRCT;2;;login;password;;;;;;;;;;;;;;
ChangerEcran;Ecran;E001_Acceuil_avant_login;;;;;;;;;;;;;;;;
VerifierPresence;Lien;Logins_FranceConnect;Oui;;;;;;;;;;;;;;;
Cliquer;Lien;Logins_FranceConnect;;;;;;;;;;;;;;;;
ChangerEcran;Ecran;E027_Choix_comptes_FranceConnect;;;;;;;;;;;;;;;;
Cliquer;Lien;Choix_place;;;;;;;;;;;;;;;;
ChangerEcran;Ecran;E028_Sidentifier_FranceConnect;;;;;;;;;;;;;;;;
Saisir;Champ;Login_pour_utilisateur_deja_inscrit;$login;;;;;;;;;;;;;;;
Saisir;Champ;Mot_de_passe_pour_utilisateur_deja_inscrit;$password;;;;;;;;;;;;;;;
Cliquer;Bouton;OK_pour_utilisateur_deja_inscrit;;;;;;;;;;;;;;;;
!ChangerEcran;Ecran;E012_Mon_compte;;;;;;;;;;;;;;;;;
!VerifierPresence;Texte;Bloc_mon_compte_perso;Oui;;;;;;;;;;;;;;;;
