Keyword;NbParams/ObjectType;ObjectName;Param1;Param2;Param3;Param4;Param5;Param6;Param7;Param8;Param9;Param10;Param11;Param12;Param13;Param14;Param15;Param16
C_M001_M001_Delete_all_messages;0;;;;;;;;;;;;;;;;;
ChangerEcran;Ecran;M001_Acceuil;;;;;;;;;;;;;;;;
Cliquer;Lien;Delete_all_messages;;;;;;;;;;;;;;;;
Cliquer;Bouton;Confirmer_suppression;;;;;;;;;;;;;;;;
ChangerEcran;Ecran;M001_Acceuil;;;;;;;;;;;;;;;;
