Keyword;NbParams/ObjectType;ObjectName;Param1;Param2;Param3;Param4;Param5;Param6;Param7;Param8;Param9;Param10;Param11;Param12;Param13;Param14;Param15;Param16
F_E001_E001_Ouvrir_url_ORME_pour_entreprise;0;;;;;;;;;;;;;;;;;
Redirection;;;?page=entreprise.AccueilEntreprise;;;;;;;;;;;;;;;
