id;libelle;actif;libelle_court;code_externe
2;Texte fixe;TRUE;Texte fixe;texte_fixe
3;Texte incluant un champ libre;TRUE;Texte incluant un champ libre;texte_incluant_un_champ_libre
4;Texte incluant un champ prévalorisé;TRUE;Texte incluant un champ prévalorisé;texte_incluant_un_champ_prevalorise
6;Liste à choix exclusif;TRUE;Liste à choix exclusif;liste_à_choix_exclusif
7;Liste à choix multiple;TRUE;Liste à choix multiple;liste_à_choix_multiple
9;Valeur héritée;TRUE;Valeur héritée;valeur_heritee
