id_type_structure_sociale;libelle;code_type_structure_sociale;code_externe;id_clause_sociale;actif
1;Entreprise adaptées (EA), établissements et services d'aide par le travail (ESAT) ou structures équivalentes;ESAT_EA;ESAT_EA;2;TRUE
2;Structures d'insertion par l'activité économique (SIAE) ou structures équivalentes;SIAE;SIAE;2;TRUE
3;Entreprises de l'économie sociale et solidaire (EESS) ou structures équivalentes;EESS;EESS;2;TRUE
4;Insertion par l’activité économique;acitivite_economique;insertionActiviteEconomique;1;TRUE
5;Commerce équitable;commerce_equitable;commerceEquitable;1;TRUE
6;Autre(s) clause(s) sociale(s);autre;autreClauseSociale;1;TRUE
7;Achats éthiques, traçabilité sociale des services/fournitures, etc;achats_ethiques;achatsEthiquesTracabiliteSociale;1;TRUE
8;Clause sociale de formation sous statut scolaire au bénéfice de jeunes en situation de décrochage scolaire;formation_scolaire;clauseSocialeFormationScolaire;1;TRUE
9;Lutte contre les discriminations : Egalité femmes/hommes, etc;lute_discriminations;lutteContreDiscriminations;1;TRUE
10;Insertion par l’activité économique;acitivite_economique;insertionActiviteEconomique;4;TRUE
11;Commerce équitable;commerce_equitable;commerceEquitable;4;TRUE
12;Autre(s) clause(s) sociale(s);autre;autreClauseSociale;4;TRUE
13;Achats éthiques, traçabilité sociale des services/fournitures, etc;achats_ethiques;achatsEthiquesTracabiliteSociale;4;TRUE
14;Clause sociale de formation sous statut scolaire au bénéfice de jeunes en situation de décrochage scolaire;formation_scolaire;clauseSocialeFormationScolaire;4;TRUE
15;Lutte contre les discriminations : Egalité femmes/hommes, etc;lute_discriminations;lutteContreDiscriminations;4;TRUE
16;Insertion par l’activité économique;acitivite_economique;insertionActiviteEconomique;3;TRUE
17;Commerce équitable;commerce_equitable;commerceEquitable;3;TRUE
18;Autre(s) clause(s) sociale(s);autre;autreClauseSociale;3;TRUE
19;Achats éthiques, traçabilité sociale des services/fournitures, etc;achats_ethiques;achatsEthiquesTracabiliteSociale;3;TRUE
20;Clause sociale de formation sous statut scolaire au bénéfice de jeunes en situation de décrochage scolaire;formation_scolaire;clauseSocialeFormationScolaire;3;TRUE
21;Lutte contre les discriminations : Egalité femmes/hommes, etc;lute_discriminations;lutteContreDiscriminations;3;TRUE
