id_attribution;libelle;actif;code_externe;id_redaction
1;Marché;TRUE;1;1
2;Accord-cadre à marchés subséquents mono-attributaires;TRUE;2;2
3;Système d'acquisition dynamique;TRUE;3;3
4;Concession/Délégation de service public;TRUE;4;4
5;Accord-cadre à marchés subséquents multi-attributaires;TRUE;5;5
6;Accord-cadre à bons de commande multi-attributaires;TRUE;6;6
7;Marché subséquent à un accord-cadre;TRUE;7;7
8;Marché de partenariat;TRUE;8;8
9;Partenariat d'innovation;TRUE;9;9
10;Marché spécifique (suite système d'acquisition dynamique);TRUE;10;10
11;Marché de conception-réalisation;TRUE;11;11
12;Autres;TRUE;12;12
13;Accord-cadre à bons de commande mono-attributaire;TRUE;13;13
14;Marché global de performance;TRUE;14;14
15;Marché global sectoriel;TRUE;15;15
